[
  {
    "link_thumb": "https://live.staticflickr.com/65535/49592707881_8f77d6f622_n.jpg",
    "id_album": "1396902986",
    "description": "KAWAII270220235122",
    "title": "KAWAII270220235122",
    "link_img": "https://live.staticflickr.com/65535/49592707881_cdd5baa49e_o.jpg",
    "id_image": "KAWAII270220235122",
    "count_view": 0
  },
  {
    "link_thumb": "https://live.staticflickr.com/65535/49694078471_063ecc0884_n.jpg",
    "id_album": "-643980979",
    "description": "KAWAII050320202177",
    "title": "KAWAII050320202177",
    "link_img": "https://live.staticflickr.com/65535/49694078471_c5ebb44ffc_o.jpg",
    "id_image": "KAWAII050320202177",
    "count_view": 0
  },
  {
    "link_thumb": "https://live.staticflickr.com/65535/49548913477_92e37deab5_n.jpg",
    "id_album": "-1432180061",
    "description": "KAWAII1702202237316",
    "title": "KAWAII1702202237316",
    "link_img": "https://live.staticflickr.com/65535/49548913477_c9c6ed692f_o.jpg",
    "id_image": "KAWAII1702202237316",
    "count_view": 0
  },
  {
    "link_thumb": "https://live.staticflickr.com/65535/49548102943_1427b14e8f_n.jpg",
    "id_album": "-1741487325",
    "description": "KAWAII12091836",
    "title": "KAWAII12091836",
    "link_img": "https://live.staticflickr.com/65535/49548102943_505ac71255_o.jpg",
    "id_image": "KAWAII12091836",
    "count_view": 0
  },
  {
    "link_thumb": "https://live.staticflickr.com/65535/49726884643_2a9d92e5af_n.jpg",
    "id_album": "-1497779911",
    "description": "KAWAII050320202123",
    "title": "KAWAII050320202123",
    "link_img": "https://live.staticflickr.com/65535/49726884643_2321187220_o.jpg",
    "id_image": "KAWAII050320202123",
    "count_view": 0
  },
  {
    "link_thumb": "https://live.staticflickr.com/65535/49742952331_93f5460291_n.jpg",
    "id_album": "-1862561193",
    "description": "KAWAII06042021491539",
    "title": "KAWAII06042021491539",
    "link_img": "https://live.staticflickr.com/65535/49742952331_60b92287e8_o.jpg",
    "id_image": "KAWAII06042021491539",
    "count_view": 0
  },
  {
    "link_thumb": "https://live.staticflickr.com/65535/49694085616_2567ac3105_n.jpg",
    "id_album": "1201366373",
    "description": "KAWAII12091816",
    "title": "KAWAII12091816",
    "link_img": "https://live.staticflickr.com/65535/49694085616_b9d55b8e93_o.jpg",
    "id_image": "KAWAII12091816",
    "count_view": 0
  },
  {
    "link_thumb": "https://live.staticflickr.com/65535/49742925101_b70829c04d_n.jpg",
    "id_album": "-316663319",
    "description": "KAWAII060420214914199",
    "title": "KAWAII060420214914199",
    "link_img": "https://live.staticflickr.com/65535/49742925101_b1391f182a_o.jpg",
    "id_image": "KAWAII060420214914199",
    "count_view": 0
  },
  {
    "link_thumb": "https://live.staticflickr.com/65535/49694377467_b776f7ced0_n.jpg",
    "id_album": "1201366373",
    "description": "KAWAII0503202021306",
    "title": "KAWAII0503202021306",
    "link_img": "https://live.staticflickr.com/65535/49694377467_5f1941966d_o.jpg",
    "id_image": "KAWAII0503202021306",
    "count_view": 0
  },
  {
    "link_thumb": "https://live.staticflickr.com/65535/49548831722_d24a211b41_n.jpg",
    "id_album": "-1741487325",
    "description": "KAWAII120918357",
    "title": "KAWAII120918357",
    "link_img": "https://live.staticflickr.com/65535/49548831722_b0387db658_o.jpg",
    "id_image": "KAWAII120918357",
    "count_view": 0
  },
  {
    "link_thumb": "https://live.staticflickr.com/65535/49694393827_79181ed563_n.jpg",
    "id_album": "-643980979",
    "description": "KAWAII120918210",
    "title": "KAWAII120918210",
    "link_img": "https://live.staticflickr.com/65535/49694393827_2b14e6a69c_o.jpg",
    "id_image": "KAWAII120918210",
    "count_view": 0
  },
  {
    "link_thumb": "https://live.staticflickr.com/65535/49743271612_8c125a7b2b_n.jpg",
    "id_album": "1396902986",
    "description": "KAWAII060420214914166",
    "title": "KAWAII060420214914166",
    "link_img": "https://live.staticflickr.com/65535/49743271612_9a21133be0_o.jpg",
    "id_image": "KAWAII060420214914166",
    "count_view": 0
  },
  {
    "link_thumb": "https://live.staticflickr.com/65535/49694111601_9f55f2da0d_n.jpg",
    "id_album": "-643980979",
    "description": "KAWAII1702202237395",
    "title": "KAWAII1702202237395",
    "link_img": "https://live.staticflickr.com/65535/49694111601_c1d2752b4c_o.jpg",
    "id_image": "KAWAII1702202237395",
    "count_view": 0
  },
  {
    "link_thumb": "https://live.staticflickr.com/65535/49548695681_144e731b98_n.jpg",
    "id_album": "-422187261",
    "description": "KAWAII1702202237361",
    "title": "KAWAII1702202237361",
    "link_img": "https://live.staticflickr.com/65535/49548695681_c139b41cc7_o.jpg",
    "id_image": "KAWAII1702202237361",
    "count_view": 0
  },
  {
    "link_thumb": "https://live.staticflickr.com/65535/49694425177_218d63f6ae_n.jpg",
    "id_album": "1201366373",
    "description": "KAWAII270220235159",
    "title": "KAWAII270220235159",
    "link_img": "https://live.staticflickr.com/65535/49694425177_c284129e6e_o.jpg",
    "id_image": "KAWAII270220235159",
    "count_view": 0
  },
  {
    "link_thumb": "https://live.staticflickr.com/65535/49743231337_faba003991_n.jpg",
    "id_album": "-422187261",
    "description": "KAWAII0604202149149",
    "title": "KAWAII0604202149149",
    "link_img": "https://live.staticflickr.com/65535/49743231337_90355cc7f2_o.jpg",
    "id_image": "KAWAII0604202149149",
    "count_view": 0
  },
  {
    "link_thumb": "https://live.staticflickr.com/65535/49694110991_1c3a41c632_n.jpg",
    "id_album": "-643980979",
    "description": "KAWAII1702202237374",
    "title": "KAWAII1702202237374",
    "link_img": "https://live.staticflickr.com/65535/49694110991_6fd8867659_o.jpg",
    "id_image": "KAWAII1702202237374",
    "count_view": 0
  },
  {
    "link_thumb": "https://live.staticflickr.com/65535/49548903742_c5a43ab67f_n.jpg",
    "id_album": "-316663319",
    "description": "KAWAII1702202236272",
    "title": "KAWAII1702202236272",
    "link_img": "https://live.staticflickr.com/65535/49548903742_3a39d3472c_o.jpg",
    "id_image": "KAWAII1702202236272",
    "count_view": 0
  },
  {
    "link_thumb": "https://live.staticflickr.com/65535/49727755717_c911ae91a5_n.jpg",
    "id_album": "742877173",
    "description": "KAWAII020420194507215",
    "title": "KAWAII020420194507215",
    "link_img": "https://live.staticflickr.com/65535/49727755717_9a4a305ae8_o.jpg",
    "id_image": "KAWAII020420194507215",
    "count_view": 0
  },
  {
    "link_thumb": "https://live.staticflickr.com/65535/49592216793_9f13e875ce_n.jpg",
    "id_album": "-316663319",
    "description": "KAWAII270220235168",
    "title": "KAWAII270220235168",
    "link_img": "https://live.staticflickr.com/65535/49592216793_25bdab5987_o.jpg",
    "id_image": "KAWAII270220235168",
    "count_view": 0
  },
  {
    "link_thumb": "https://live.staticflickr.com/65535/49693548158_722aeebe32_n.jpg",
    "id_album": "1201366373",
    "description": "KAWAII120918215",
    "title": "KAWAII120918215",
    "link_img": "https://live.staticflickr.com/65535/49693548158_be2525a8f3_o.jpg",
    "id_image": "KAWAII120918215",
    "count_view": 0
  },
  {
    "link_thumb": "https://live.staticflickr.com/65535/49694403987_5acbf63a32_n.jpg",
    "id_album": "1201366373",
    "description": "KAWAII12091840",
    "title": "KAWAII12091840",
    "link_img": "https://live.staticflickr.com/65535/49694403987_397fa540d5_o.jpg",
    "id_image": "KAWAII12091840",
    "count_view": 0
  },
  {
    "link_thumb": "https://live.staticflickr.com/65535/49742903211_fcd07ca84a_n.jpg",
    "id_album": "-1913845949",
    "description": "KAWAII06042021491513",
    "title": "KAWAII06042021491513",
    "link_img": "https://live.staticflickr.com/65535/49742903211_a219540e98_o.jpg",
    "id_image": "KAWAII06042021491513",
    "count_view": 0
  },
  {
    "link_thumb": "https://live.staticflickr.com/65535/49743236852_27bb7c199f_n.jpg",
    "id_album": "-1497779911",
    "description": "KAWAII060420214911124",
    "title": "KAWAII060420214911124",
    "link_img": "https://live.staticflickr.com/65535/49743236852_719f1ee19a_o.jpg",
    "id_image": "KAWAII060420214911124",
    "count_view": 0
  },
  {
    "link_thumb": "https://live.staticflickr.com/65535/49742934056_efd460c78e_n.jpg",
    "id_album": "-1473448477",
    "description": "KAWAII060420214911203",
    "title": "KAWAII060420214911203",
    "link_img": "https://live.staticflickr.com/65535/49742934056_b79de97d38_o.jpg",
    "id_image": "KAWAII060420214911203",
    "count_view": 0
  },
  {
    "link_thumb": "https://live.staticflickr.com/65535/49548145178_bde6cbb3d3_n.jpg",
    "id_album": "431597977",
    "description": "KAWAII170220223498",
    "title": "KAWAII170220223498",
    "link_img": "https://live.staticflickr.com/65535/49548145178_692491b783_o.jpg",
    "id_image": "KAWAII170220223498",
    "count_view": 0
  },
  {
    "link_thumb": "https://live.staticflickr.com/65535/49726899433_0ced87f4a6_n.jpg",
    "id_album": "742877173",
    "description": "KAWAII02042019451025",
    "title": "KAWAII02042019451025",
    "link_img": "https://live.staticflickr.com/65535/49726899433_ba505a1f61_o.jpg",
    "id_image": "KAWAII02042019451025",
    "count_view": 0
  },
  {
    "link_thumb": "https://live.staticflickr.com/65535/49694405732_73d6df1054_n.jpg",
    "id_album": "1201366373",
    "description": "KAWAII12091864",
    "title": "KAWAII12091864",
    "link_img": "https://live.staticflickr.com/65535/49694405732_144d3d366c_o.jpg",
    "id_image": "KAWAII12091864",
    "count_view": 0
  },
  {
    "link_thumb": "https://live.staticflickr.com/65535/49548833642_65f447d4b0_n.jpg",
    "id_album": "-1741487325",
    "description": "KAWAII120918364",
    "title": "KAWAII120918364",
    "link_img": "https://live.staticflickr.com/65535/49548833642_13ab6186c0_o.jpg",
    "id_image": "KAWAII120918364",
    "count_view": 0
  },
  {
    "link_thumb": "https://live.staticflickr.com/65535/49548225908_8b02db5410_n.jpg",
    "id_album": "-1741487325",
    "description": "KAWAII1702202238477",
    "title": "KAWAII1702202238477",
    "link_img": "https://live.staticflickr.com/65535/49548225908_6b4d49fa09_o.jpg",
    "id_image": "KAWAII1702202238477",
    "count_view": 0
  },
  {
    "link_thumb": "https://live.staticflickr.com/65535/49548730616_5f6af3c076_n.jpg",
    "id_album": "-1694302085",
    "description": "KAWAII1702202238495",
    "title": "KAWAII1702202238495",
    "link_img": "https://live.staticflickr.com/65535/49548730616_0486905b47_o.jpg",
    "id_image": "KAWAII1702202238495",
    "count_view": 0
  },
  {
    "link_thumb": "https://live.staticflickr.com/65535/49726889313_269c56d408_n.jpg",
    "id_album": "-316663319",
    "description": "KAWAII02042019451011",
    "title": "KAWAII02042019451011",
    "link_img": "https://live.staticflickr.com/65535/49726889313_5411c0b820_o.jpg",
    "id_image": "KAWAII02042019451011",
    "count_view": 0
  },
  {
    "link_thumb": "https://live.staticflickr.com/65535/49726892263_172c0149e8_n.jpg",
    "id_album": "-316663319",
    "description": "KAWAII020420194512161",
    "title": "KAWAII020420194512161",
    "link_img": "https://live.staticflickr.com/65535/49726892263_bee807b6e8_o.jpg",
    "id_image": "KAWAII020420194512161",
    "count_view": 0
  },
  {
    "link_thumb": "https://live.staticflickr.com/65535/49548602866_68dc12d7a1_n.jpg",
    "id_album": "-1099943053",
    "description": "KAWAII120918350",
    "title": "KAWAII120918350",
    "link_img": "https://live.staticflickr.com/65535/49548602866_b528e1d3d1_o.jpg",
    "id_image": "KAWAII120918350",
    "count_view": 0
  },
  {
    "link_thumb": "https://live.staticflickr.com/65535/49693576513_e6ef2f63db_n.jpg",
    "id_album": "-643980979",
    "description": "KAWAII17091817",
    "title": "KAWAII17091817",
    "link_img": "https://live.staticflickr.com/65535/49693576513_2cdda0be50_o.jpg",
    "id_image": "KAWAII17091817",
    "count_view": 0
  },
  {
    "link_thumb": "https://live.staticflickr.com/65535/49548105213_4534f29ce5_n.jpg",
    "id_album": "-1741487325",
    "description": "KAWAII120918368",
    "title": "KAWAII120918368",
    "link_img": "https://live.staticflickr.com/65535/49548105213_8eae108d58_o.jpg",
    "id_image": "KAWAII120918368",
    "count_view": 0
  },
  {
    "link_thumb": "https://live.staticflickr.com/65535/49694124181_8597a99e00_n.jpg",
    "id_album": "-358592519",
    "description": "KAWAII120918255",
    "title": "KAWAII120918255",
    "link_img": "https://live.staticflickr.com/65535/49694124181_b7a93c8a2e_o.jpg",
    "id_image": "KAWAII120918255",
    "count_view": 0
  },
  {
    "link_thumb": "https://live.staticflickr.com/65535/49548544106_8405c0472a_n.jpg",
    "id_album": "-316663319",
    "description": "KAWAII12091810",
    "title": "KAWAII12091810",
    "link_img": "https://live.staticflickr.com/65535/49548544106_9f59e75a27_o.jpg",
    "id_image": "KAWAII12091810",
    "count_view": 0
  },
  {
    "link_thumb": "https://live.staticflickr.com/65535/49743266612_67a23a67d8_n.jpg",
    "id_album": "-1779286820",
    "description": "KAWAII06042021491236",
    "title": "KAWAII06042021491236",
    "link_img": "https://live.staticflickr.com/65535/49743266612_0ae8e41462_o.jpg",
    "id_image": "KAWAII06042021491236",
    "count_view": 0
  },
  {
    "link_thumb": "https://live.staticflickr.com/65535/49548591466_2e7a3dab1a_n.jpg",
    "id_album": "-316663319",
    "description": "KAWAII120918303",
    "title": "KAWAII120918303",
    "link_img": "https://live.staticflickr.com/65535/49548591466_746ab509f8_o.jpg",
    "id_image": "KAWAII120918303",
    "count_view": 0
  },
  {
    "link_thumb": "https://live.staticflickr.com/65535/49742932701_d5377d3cb9_n.jpg",
    "id_album": "-316663319",
    "description": "KAWAII060420214918252",
    "title": "KAWAII060420214918252",
    "link_img": "https://live.staticflickr.com/65535/49742932701_f9a76244d5_o.jpg",
    "id_image": "KAWAII060420214918252",
    "count_view": 0
  },
  {
    "link_thumb": "https://live.staticflickr.com/65535/49742356483_b4dbd813b8_n.jpg",
    "id_album": "-1913845949",
    "description": "KAWAII060420214915298",
    "title": "KAWAII060420214915298",
    "link_img": "https://live.staticflickr.com/65535/49742356483_5d266574ca_o.jpg",
    "id_image": "KAWAII060420214915298",
    "count_view": 0
  },
  {
    "link_thumb": "https://live.staticflickr.com/65535/49622847721_e1602f2634_n.jpg",
    "id_album": "-406350429",
    "description": "KAWAII0503202021278",
    "title": "KAWAII0503202021278",
    "link_img": "https://live.staticflickr.com/65535/49622847721_093f75abe6_o.jpg",
    "id_image": "KAWAII0503202021278",
    "count_view": 0
  },
  {
    "link_thumb": "https://live.staticflickr.com/65535/49622306623_94c8e08c1d_n.jpg",
    "id_album": "-316663319",
    "description": "KAWAII0503202021192",
    "title": "KAWAII0503202021192",
    "link_img": "https://live.staticflickr.com/65535/49622306623_572c1ca42c_o.jpg",
    "id_image": "KAWAII0503202021192",
    "count_view": 0
  },
  {
    "link_thumb": "https://live.staticflickr.com/65535/49622803226_76cafe0d42_n.jpg",
    "id_album": "1396902986",
    "description": "KAWAII0503202021277",
    "title": "KAWAII0503202021277",
    "link_img": "https://live.staticflickr.com/65535/49622803226_e5aed4ff94_o.jpg",
    "id_image": "KAWAII0503202021277",
    "count_view": 0
  },
  {
    "link_thumb": "https://live.staticflickr.com/65535/49742956766_47b7a5156a_n.jpg",
    "id_album": "-1431786825",
    "description": "KAWAII060420214915297",
    "title": "KAWAII060420214915297",
    "link_img": "https://live.staticflickr.com/65535/49742956766_8f346b98d5_o.jpg",
    "id_image": "KAWAII060420214915297",
    "count_view": 0
  },
  {
    "link_thumb": "https://live.staticflickr.com/65535/49548553491_8957418aa9_n.jpg",
    "id_album": "-316663319",
    "description": "KAWAII120918136",
    "title": "KAWAII120918136",
    "link_img": "https://live.staticflickr.com/65535/49548553491_7069863d97_o.jpg",
    "id_image": "KAWAII120918136",
    "count_view": 0
  },
  {
    "link_thumb": "https://live.staticflickr.com/65535/49622285883_0f844c56b7_n.jpg",
    "id_album": "1396902986",
    "description": "KAWAII0503202021205",
    "title": "KAWAII0503202021205",
    "link_img": "https://live.staticflickr.com/65535/49622285883_25d3449fa3_o.jpg",
    "id_image": "KAWAII0503202021205",
    "count_view": 0
  },
  {
    "link_thumb": "https://live.staticflickr.com/65535/49742379088_e8245df6d4_n.jpg",
    "id_album": "-316663319",
    "description": "KAWAII060420214915134",
    "title": "KAWAII060420214915134",
    "link_img": "https://live.staticflickr.com/65535/49742379088_db74d7dc35_o.jpg",
    "id_image": "KAWAII060420214915134",
    "count_view": 0
  },
  {
    "link_thumb": "https://live.staticflickr.com/65535/49726917798_4ee746e417_n.jpg",
    "id_album": "1396902986",
    "description": "KAWAII02042019451145",
    "title": "KAWAII02042019451145",
    "link_img": "https://live.staticflickr.com/65535/49726917798_a2127fae77_o.jpg",
    "id_image": "KAWAII02042019451145",
    "count_view": 0
  },
  {
    "link_thumb": "https://live.staticflickr.com/65535/49742943816_2f20171463_n.jpg",
    "id_album": "-1779286820",
    "description": "KAWAII06042021491441",
    "title": "KAWAII06042021491441",
    "link_img": "https://live.staticflickr.com/65535/49742943816_60efcb7568_o.jpg",
    "id_image": "KAWAII06042021491441",
    "count_view": 0
  },
  {
    "link_thumb": "https://live.staticflickr.com/65535/49694421397_1b9dd5a13f_n.jpg",
    "id_album": "1201366373",
    "description": "KAWAII17022023506",
    "title": "KAWAII17022023506",
    "link_img": "https://live.staticflickr.com/65535/49694421397_9545535f8f_o.jpg",
    "id_image": "KAWAII17022023506",
    "count_view": 0
  },
  {
    "link_thumb": "https://live.staticflickr.com/65535/49743227472_f75f605e69_n.jpg",
    "id_album": "-1913845949",
    "description": "KAWAII060420214915318",
    "title": "KAWAII060420214915318",
    "link_img": "https://live.staticflickr.com/65535/49743227472_74a5f2b14f_o.jpg",
    "id_image": "KAWAII060420214915318",
    "count_view": 0
  },
  {
    "link_thumb": "https://live.staticflickr.com/65535/49592218708_fb065ae9fa_n.jpg",
    "id_album": "-316663319",
    "description": "KAWAII270220235189",
    "title": "KAWAII270220235189",
    "link_img": "https://live.staticflickr.com/65535/49592218708_a837ee0215_o.jpg",
    "id_image": "KAWAII270220235189",
    "count_view": 0
  },
  {
    "link_thumb": "https://live.staticflickr.com/65535/49623101327_a4ea561390_n.jpg",
    "id_album": "-316663319",
    "description": "KAWAII0503202021283",
    "title": "KAWAII0503202021283",
    "link_img": "https://live.staticflickr.com/65535/49623101327_b84e9853b2_o.jpg",
    "id_image": "KAWAII0503202021283",
    "count_view": 0
  },
  {
    "link_thumb": "https://live.staticflickr.com/65535/49622303293_655cb13b6d_n.jpg",
    "id_album": "-316663319",
    "description": "KAWAII0503202021146",
    "title": "KAWAII0503202021146",
    "link_img": "https://live.staticflickr.com/65535/49622303293_d1c675112f_o.jpg",
    "id_image": "KAWAII0503202021146",
    "count_view": 0
  },
  {
    "link_thumb": "https://live.staticflickr.com/65535/49592951792_516da0925f_n.jpg",
    "id_album": "-1741487325",
    "description": "KAWAII170220223325",
    "title": "KAWAII170220223325",
    "link_img": "https://live.staticflickr.com/65535/49592951792_b284ba8523_o.jpg",
    "id_image": "KAWAII170220223325",
    "count_view": 0
  },
  {
    "link_thumb": "https://live.staticflickr.com/65535/49592728696_e65ca79af2_n.jpg",
    "id_album": "949200594",
    "description": "KAWAII2702202351102",
    "title": "KAWAII2702202351102",
    "link_img": "https://live.staticflickr.com/65535/49592728696_a73000a49f_o.jpg",
    "id_image": "KAWAII2702202351102",
    "count_view": 0
  },
  {
    "link_thumb": "https://live.staticflickr.com/65535/49548886847_cecbec476e_n.jpg",
    "id_album": "1396902986",
    "description": "KAWAII1702202235184",
    "title": "KAWAII1702202235184",
    "link_img": "https://live.staticflickr.com/65535/49548886847_53e7c822ac_o.jpg",
    "id_image": "KAWAII1702202235184",
    "count_view": 0
  },
  {
    "link_thumb": "https://live.staticflickr.com/65535/49548830407_1885e519e1_n.jpg",
    "id_album": "-1099943053",
    "description": "KAWAII120918351",
    "title": "KAWAII120918351",
    "link_img": "https://live.staticflickr.com/65535/49548830407_e3d8f85daa_o.jpg",
    "id_image": "KAWAII120918351",
    "count_view": 0
  },
  {
    "link_thumb": "https://live.staticflickr.com/65535/49693521608_636859e06b_n.jpg",
    "id_album": "-1741487325",
    "description": "KAWAII1209182518022020598",
    "title": "KAWAII1209182518022020598",
    "link_img": "https://live.staticflickr.com/65535/49693521608_087bde5d32_o.jpg",
    "id_image": "KAWAII1209182518022020598",
    "count_view": 0
  },
  {
    "link_thumb": "https://live.staticflickr.com/65535/49727756497_6a2efa6382_n.jpg",
    "id_album": "742877173",
    "description": "KAWAII020420194508166",
    "title": "KAWAII020420194508166",
    "link_img": "https://live.staticflickr.com/65535/49727756497_ab118d068f_o.jpg",
    "id_image": "KAWAII020420194508166",
    "count_view": 0
  },
  {
    "link_thumb": "https://live.staticflickr.com/65535/49694084236_63d3b3d1f2_n.jpg",
    "id_album": "1201366373",
    "description": "KAWAII120918146",
    "title": "KAWAII120918146",
    "link_img": "https://live.staticflickr.com/65535/49694084236_b4dc9217da_o.jpg",
    "id_image": "KAWAII120918146",
    "count_view": 0
  },
  {
    "link_thumb": "https://live.staticflickr.com/65535/49727438706_b9603057a0_n.jpg",
    "id_album": "-316663319",
    "description": "KAWAII020420194511149",
    "title": "KAWAII020420194511149",
    "link_img": "https://live.staticflickr.com/65535/49727438706_77d57e8b5d_o.jpg",
    "id_image": "KAWAII020420194511149",
    "count_view": 0
  },
  {
    "link_thumb": "https://live.staticflickr.com/65535/49548572826_f4e86f8f90_n.jpg",
    "id_album": "-1694302085",
    "description": "KAWAII120918220",
    "title": "KAWAII120918220",
    "link_img": "https://live.staticflickr.com/65535/49548572826_25cc91e0a9_o.jpg",
    "id_image": "KAWAII120918220",
    "count_view": 0
  },
  {
    "link_thumb": "https://live.staticflickr.com/65535/49622295503_702dda537d_n.jpg",
    "id_album": "-316663319",
    "description": "KAWAII0503202021114",
    "title": "KAWAII0503202021114",
    "link_img": "https://live.staticflickr.com/65535/49622295503_74778609a0_o.jpg",
    "id_image": "KAWAII0503202021114",
    "count_view": 0
  },
  {
    "link_thumb": "https://live.staticflickr.com/65535/49548674331_ec9a153fe8_n.jpg",
    "id_album": "-422187261",
    "description": "KAWAII1702202236260",
    "title": "KAWAII1702202236260",
    "link_img": "https://live.staticflickr.com/65535/49548674331_014171d2dd_o.jpg",
    "id_image": "KAWAII1702202236260",
    "count_view": 0
  },
  {
    "link_thumb": "https://live.staticflickr.com/65535/49693537968_aa5e3cc05d_n.jpg",
    "id_album": "1201366373",
    "description": "KAWAII120918113",
    "title": "KAWAII120918113",
    "link_img": "https://live.staticflickr.com/65535/49693537968_6df86be63b_o.jpg",
    "id_image": "KAWAII120918113",
    "count_view": 0
  },
  {
    "link_thumb": "https://live.staticflickr.com/65535/49742924936_fe5da43b39_n.jpg",
    "id_album": "-316663319",
    "description": "KAWAII060420214914102",
    "title": "KAWAII060420214914102",
    "link_img": "https://live.staticflickr.com/65535/49742924936_c26f03cabd_o.jpg",
    "id_image": "KAWAII060420214914102",
    "count_view": 0
  },
  {
    "link_thumb": "https://live.staticflickr.com/65535/49548933977_7d5feaa596_n.jpg",
    "id_album": "1396902986",
    "description": "KAWAII1702202238403",
    "title": "KAWAII1702202238403",
    "link_img": "https://live.staticflickr.com/65535/49548933977_def2e352e9_o.jpg",
    "id_image": "KAWAII1702202238403",
    "count_view": 0
  },
  {
    "link_thumb": "https://live.staticflickr.com/65535/49694126526_abcb395523_n.jpg",
    "id_album": "1563362783",
    "description": "KAWAII12091825180220205941",
    "title": "KAWAII12091825180220205941",
    "link_img": "https://live.staticflickr.com/65535/49694126526_2b65538756_o.jpg",
    "id_image": "KAWAII12091825180220205941",
    "count_view": 0
  },
  {
    "link_thumb": "https://live.staticflickr.com/65535/49726918223_14efc09ef8_n.jpg",
    "id_album": "1396902986",
    "description": "KAWAII1702202237334",
    "title": "KAWAII1702202237334",
    "link_img": "https://live.staticflickr.com/65535/49726918223_fe3aa519d5_o.jpg",
    "id_image": "KAWAII1702202237334",
    "count_view": 0
  },
  {
    "link_thumb": "https://live.staticflickr.com/65535/49552022963_0a629afafb_n.jpg",
    "id_album": "-1694302085",
    "description": "KAWAII12091825180220205931",
    "title": "KAWAII12091825180220205931",
    "link_img": "https://live.staticflickr.com/65535/49552022963_5b8deaced8_o.jpg",
    "id_image": "KAWAII12091825180220205931",
    "count_view": 0
  },
  {
    "link_thumb": "https://live.staticflickr.com/65535/49548864702_23c49122e7_n.jpg",
    "id_album": "-422187261",
    "description": "KAWAII170220223456",
    "title": "KAWAII170220223456",
    "link_img": "https://live.staticflickr.com/65535/49548864702_e87776d95f_o.jpg",
    "id_image": "KAWAII170220223456",
    "count_view": 0
  },
  {
    "link_thumb": "https://live.staticflickr.com/65535/49548217328_788ffac1da_n.jpg",
    "id_album": "-1099943053",
    "description": "KAWAII1702202238447",
    "title": "KAWAII1702202238447",
    "link_img": "https://live.staticflickr.com/65535/49548217328_151ec9ed83_o.jpg",
    "id_image": "KAWAII1702202238447",
    "count_view": 0
  },
  {
    "link_thumb": "https://live.staticflickr.com/65535/49693543998_927fbaaa33_n.jpg",
    "id_album": "1201366373",
    "description": "KAWAII120918176",
    "title": "KAWAII120918176",
    "link_img": "https://live.staticflickr.com/65535/49693543998_2c40c6a080_o.jpg",
    "id_image": "KAWAII120918176",
    "count_view": 0
  },
  {
    "link_thumb": "https://live.staticflickr.com/65535/49548577646_2773c3c0fa_n.jpg",
    "id_album": "-316663319",
    "description": "KAWAII120918245",
    "title": "KAWAII120918245",
    "link_img": "https://live.staticflickr.com/65535/49548577646_e55c07aff1_o.jpg",
    "id_image": "KAWAII120918245",
    "count_view": 0
  },
  {
    "link_thumb": "https://live.staticflickr.com/65535/49548116398_7aa6d8aed3_n.jpg",
    "id_album": "-316663319",
    "description": "KAWAII12091882",
    "title": "KAWAII12091882",
    "link_img": "https://live.staticflickr.com/65535/49548116398_cbf8fd4eaf_o.jpg",
    "id_image": "KAWAII12091882",
    "count_view": 0
  },
  {
    "link_thumb": "https://live.staticflickr.com/65535/49622846951_ea92c7b8a6_n.jpg",
    "id_album": "-406350429",
    "description": "KAWAII0503202021266",
    "title": "KAWAII0503202021266",
    "link_img": "https://live.staticflickr.com/65535/49622846951_8c7fc8cfa4_o.jpg",
    "id_image": "KAWAII0503202021266",
    "count_view": 0
  },
  {
    "link_thumb": "https://live.staticflickr.com/65535/49727428046_1b7b2dda83_n.jpg",
    "id_album": "-1694302085",
    "description": "KAWAII190220211134",
    "title": "KAWAII190220211134",
    "link_img": "https://live.staticflickr.com/65535/49727428046_06fc7fe4d0_o.jpg",
    "id_image": "KAWAII190220211134",
    "count_view": 0
  },
  {
    "link_thumb": "https://live.staticflickr.com/65535/49742911686_9ff0af5e21_n.jpg",
    "id_album": "-1741487325",
    "description": "KAWAII060420214912184",
    "title": "KAWAII060420214912184",
    "link_img": "https://live.staticflickr.com/65535/49742911686_c7bee8c3a9_o.jpg",
    "id_image": "KAWAII060420214912184",
    "count_view": 0
  },
  {
    "link_thumb": "https://live.staticflickr.com/65535/49622283833_4431a37fe7_n.jpg",
    "id_album": "1396902986",
    "description": "KAWAII0503202021108",
    "title": "KAWAII0503202021108",
    "link_img": "https://live.staticflickr.com/65535/49622283833_65829db4d6_o.jpg",
    "id_image": "KAWAII0503202021108",
    "count_view": 0
  },
  {
    "link_thumb": "https://live.staticflickr.com/65535/49623089307_f6b25ddc91_n.jpg",
    "id_album": "-316663319",
    "description": "KAWAII0503202021131",
    "title": "KAWAII0503202021131",
    "link_img": "https://live.staticflickr.com/65535/49623089307_d57af9517b_o.jpg",
    "id_image": "KAWAII0503202021131",
    "count_view": 0
  },
  {
    "link_thumb": "https://live.staticflickr.com/65535/49727765847_fe43354fea_n.jpg",
    "id_album": "742877173",
    "description": "KAWAII02042019451329",
    "title": "KAWAII02042019451329",
    "link_img": "https://live.staticflickr.com/65535/49727765847_9eb8ddd9dd_o.jpg",
    "id_image": "KAWAII02042019451329",
    "count_view": 0
  },
  {
    "link_thumb": "https://live.staticflickr.com/65535/49548211348_d0b36c2d46_n.jpg",
    "id_album": "-1694302085",
    "description": "KAWAII1702202238424",
    "title": "KAWAII1702202238424",
    "link_img": "https://live.staticflickr.com/65535/49548211348_dd8a3c08df_o.jpg",
    "id_image": "KAWAII1702202238424",
    "count_view": 0
  },
  {
    "link_thumb": "https://live.staticflickr.com/65535/49623073707_58305f3072_n.jpg",
    "id_album": "1396902986",
    "description": "KAWAII050320202121",
    "title": "KAWAII050320202121",
    "link_img": "https://live.staticflickr.com/65535/49623073707_d671eb6e3a_o.jpg",
    "id_image": "KAWAII050320202121",
    "count_view": 0
  },
  {
    "link_thumb": "https://live.staticflickr.com/65535/49742353083_658b28ed17_n.jpg",
    "id_album": "-1913845949",
    "description": "KAWAII060420214912234",
    "title": "KAWAII060420214912234",
    "link_img": "https://live.staticflickr.com/65535/49742353083_68c7682cd6_o.jpg",
    "id_image": "KAWAII060420214912234",
    "count_view": 0
  },
  {
    "link_thumb": "https://live.staticflickr.com/65535/49622827831_71b926a037_n.jpg",
    "id_album": "-316663319",
    "description": "KAWAII0503202021252",
    "title": "KAWAII0503202021252",
    "link_img": "https://live.staticflickr.com/65535/49622827831_9ba8bcd079_o.jpg",
    "id_image": "KAWAII0503202021252",
    "count_view": 0
  },
  {
    "link_thumb": "https://live.staticflickr.com/65535/49548195908_e7ed86881e_n.jpg",
    "id_album": "-1431786825",
    "description": "KAWAII1702202237365",
    "title": "KAWAII1702202237365",
    "link_img": "https://live.staticflickr.com/65535/49548195908_d1ae362fbc_o.jpg",
    "id_image": "KAWAII1702202237365",
    "count_view": 0
  },
  {
    "link_thumb": "https://live.staticflickr.com/65535/49694128691_4f0e62d6c1_n.jpg",
    "id_album": "1226948986",
    "description": "TOTORO220320154113",
    "title": "TOTORO220320154113",
    "link_img": "https://live.staticflickr.com/65535/49694128691_9b97e65182_o.jpg",
    "id_image": "TOTORO220320154113",
    "count_view": 0
  },
  {
    "link_thumb": "https://live.staticflickr.com/65535/49693519748_a79a94be96_n.jpg",
    "id_album": "1699819648",
    "description": "KAWAII050320202114",
    "title": "KAWAII050320202114",
    "link_img": "https://live.staticflickr.com/65535/49693519748_72ea22ea0c_o.jpg",
    "id_image": "KAWAII050320202114",
    "count_view": 0
  },
  {
    "link_thumb": "https://live.staticflickr.com/65535/49548887987_33b8307549_n.jpg",
    "id_album": "-1694302085",
    "description": "KAWAII1702202235190",
    "title": "KAWAII1702202235190",
    "link_img": "https://live.staticflickr.com/65535/49548887987_cdf8aa4702_o.jpg",
    "id_image": "KAWAII1702202235190",
    "count_view": 0
  },
  {
    "link_thumb": "https://live.staticflickr.com/65535/49743260147_4499022c49_n.jpg",
    "id_album": "-1473448477",
    "description": "KAWAII060420214915214",
    "title": "KAWAII060420214915214",
    "link_img": "https://live.staticflickr.com/65535/49743260147_200ddd41df_o.jpg",
    "id_image": "KAWAII060420214915214",
    "count_view": 0
  },
  {
    "link_thumb": "https://live.staticflickr.com/65535/49592212928_405a8dd919_n.jpg",
    "id_album": "-316663319",
    "description": "KAWAII2702202351143",
    "title": "KAWAII2702202351143",
    "link_img": "https://live.staticflickr.com/65535/49592212928_3f4652a666_o.jpg",
    "id_image": "KAWAII2702202351143",
    "count_view": 0
  },
  {
    "link_thumb": "https://live.staticflickr.com/65535/49552023193_1168d96f1a_n.jpg",
    "id_album": "-1694302085",
    "description": "KAWAII12091825180220205933",
    "title": "KAWAII12091825180220205933",
    "link_img": "https://live.staticflickr.com/65535/49552023193_984f322a4e_o.jpg",
    "id_image": "KAWAII12091825180220205933",
    "count_view": 0
  },
  {
    "link_thumb": "https://live.staticflickr.com/65535/49548695406_17fe377f76_n.jpg",
    "id_album": "-316663319",
    "description": "KAWAII1702202237360",
    "title": "KAWAII1702202237360",
    "link_img": "https://live.staticflickr.com/65535/49548695406_09b8ea5888_o.jpg",
    "id_image": "KAWAII1702202237360",
    "count_view": 0
  },
  {
    "link_thumb": "https://live.staticflickr.com/65535/49693548643_f895171502_n.jpg",
    "id_album": "-643980979",
    "description": "KAWAII120918221",
    "title": "KAWAII120918221",
    "link_img": "https://live.staticflickr.com/65535/49693548643_4a459079ff_o.jpg",
    "id_image": "KAWAII120918221",
    "count_view": 0
  },
  {
    "link_thumb": "https://live.staticflickr.com/65535/49694222221_1ccc863cbd_n.jpg",
    "id_album": "-316663319",
    "description": "KAWAII2403202205025",
    "title": "KAWAII2403202205025",
    "link_img": "https://live.staticflickr.com/65535/49694222221_7790209d69_o.jpg",
    "id_image": "KAWAII2403202205025",
    "count_view": 0
  },
  {
    "link_thumb": "https://live.staticflickr.com/65535/49548201338_7fa2cfc8d3_n.jpg",
    "id_album": "-422187261",
    "description": "KAWAII1702202237387",
    "title": "KAWAII1702202237387",
    "link_img": "https://live.staticflickr.com/65535/49548201338_c4b642fe47_o.jpg",
    "id_image": "KAWAII1702202237387",
    "count_view": 0
  },
  {
    "link_thumb": "https://live.staticflickr.com/65535/49727783407_259b0f2615_n.jpg",
    "id_album": "-1862561193",
    "description": "KAWAII020420194511157",
    "title": "KAWAII020420194511157",
    "link_img": "https://live.staticflickr.com/65535/49727783407_5d92787465_o.jpg",
    "id_image": "KAWAII020420194511157",
    "count_view": 0
  },
  {
    "link_thumb": "https://live.staticflickr.com/65535/49592974692_fd00c209aa_n.jpg",
    "id_album": "949200594",
    "description": "KAWAII270220235146",
    "title": "KAWAII270220235146",
    "link_img": "https://live.staticflickr.com/65535/49592974692_6cc0ddaf7b_o.jpg",
    "id_image": "KAWAII270220235146",
    "count_view": 0
  },
  {
    "link_thumb": "https://live.staticflickr.com/65535/49694411482_dccb80dd9f_n.jpg",
    "id_album": "-643980979",
    "description": "KAWAII1702202235196",
    "title": "KAWAII1702202235196",
    "link_img": "https://live.staticflickr.com/65535/49694411482_4d17f04c9f_o.jpg",
    "id_image": "KAWAII1702202235196",
    "count_view": 0
  },
  {
    "link_thumb": "https://live.staticflickr.com/65535/49742362603_1a5c03cb89_n.jpg",
    "id_album": "-1694302085",
    "description": "KAWAII060420214913294",
    "title": "KAWAII060420214913294",
    "link_img": "https://live.staticflickr.com/65535/49742362603_df8428ccb2_o.jpg",
    "id_image": "KAWAII060420214913294",
    "count_view": 0
  },
  {
    "link_thumb": "https://live.staticflickr.com/65535/49742382953_fa0a2f1713_n.jpg",
    "id_album": "-316663319",
    "description": "KAWAII060420214916317",
    "title": "KAWAII060420214916317",
    "link_img": "https://live.staticflickr.com/65535/49742382953_630613867e_o.jpg",
    "id_image": "KAWAII060420214916317",
    "count_view": 0
  },
  {
    "link_thumb": "https://live.staticflickr.com/65535/49727750827_5544a6d51e_n.jpg",
    "id_album": "-316663319",
    "description": "KAWAII02042019450928",
    "title": "KAWAII02042019450928",
    "link_img": "https://live.staticflickr.com/65535/49727750827_b0a265e665_o.jpg",
    "id_image": "KAWAII02042019450928",
    "count_view": 0
  },
  {
    "link_thumb": "https://live.staticflickr.com/65535/49548765461_743ff4ce1a_n.jpg",
    "id_album": "949200594",
    "description": "KAWAII17091827",
    "title": "KAWAII17091827",
    "link_img": "https://live.staticflickr.com/65535/49548765461_2e7a63fb0f_o.jpg",
    "id_image": "KAWAII17091827",
    "count_view": 0
  },
  {
    "link_thumb": "https://live.staticflickr.com/65535/49622330628_bc94cffc7c_n.jpg",
    "id_album": "-406350429",
    "description": "KAWAII0503202021232",
    "title": "KAWAII0503202021232",
    "link_img": "https://live.staticflickr.com/65535/49622330628_fa947f14f9_o.jpg",
    "id_image": "KAWAII0503202021232",
    "count_view": 0
  },
  {
    "link_thumb": "https://live.staticflickr.com/65535/49694374302_ff8455a18e_n.jpg",
    "id_album": "-643980979",
    "description": "KAWAII050320202118",
    "title": "KAWAII050320202118",
    "link_img": "https://live.staticflickr.com/65535/49694374302_dfde56cdb0_o.jpg",
    "id_image": "KAWAII050320202118",
    "count_view": 0
  },
  {
    "link_thumb": "https://live.staticflickr.com/65535/49548967697_e68f770f65_n.jpg",
    "id_album": "-1431786825",
    "description": "KAWAII1702202239532",
    "title": "KAWAII1702202239532",
    "link_img": "https://live.staticflickr.com/65535/49548967697_e81a4b715a_o.jpg",
    "id_image": "KAWAII1702202239532",
    "count_view": 0
  },
  {
    "link_thumb": "https://live.staticflickr.com/65535/49710288343_35989a4741_n.jpg",
    "id_album": "-1599896063",
    "description": "LITTLEMONK29032012063911",
    "title": "LITTLEMONK29032012063911",
    "link_img": "https://live.staticflickr.com/65535/49710288343_460d3b1dbb_o.jpg",
    "id_image": "LITTLEMONK29032012063911",
    "count_view": 0
  },
  {
    "link_thumb": "https://live.staticflickr.com/65535/49727756082_5da809012c_n.jpg",
    "id_album": "742877173",
    "description": "KAWAII020420194508118",
    "title": "KAWAII020420194508118",
    "link_img": "https://live.staticflickr.com/65535/49727756082_3e77906345_o.jpg",
    "id_image": "KAWAII020420194508118",
    "count_view": 0
  },
  {
    "link_thumb": "https://live.staticflickr.com/65535/49623095697_82cd3c5c7a_n.jpg",
    "id_album": "-316663319",
    "description": "KAWAII0503202021212",
    "title": "KAWAII0503202021212",
    "link_img": "https://live.staticflickr.com/65535/49623095697_4780ff976a_o.jpg",
    "id_image": "KAWAII0503202021212",
    "count_view": 0
  },
  {
    "link_thumb": "https://live.staticflickr.com/65535/49548262878_df4979d677_n.jpg",
    "id_album": "949200594",
    "description": "KAWAII1709182",
    "title": "KAWAII1709182",
    "link_img": "https://live.staticflickr.com/65535/49548262878_9031c1d28c_o.jpg",
    "id_image": "KAWAII1709182",
    "count_view": 0
  },
  {
    "link_thumb": "https://live.staticflickr.com/65535/49727452181_6e3fb2e28d_n.jpg",
    "id_album": "742877173",
    "description": "KAWAII02042019451392",
    "title": "KAWAII02042019451392",
    "link_img": "https://live.staticflickr.com/65535/49727452181_79ff531b9a_o.jpg",
    "id_image": "KAWAII02042019451392",
    "count_view": 0
  },
  {
    "link_thumb": "https://live.staticflickr.com/65535/49742901631_78d2e49845_n.jpg",
    "id_album": "-1913845949",
    "description": "KAWAII0604202149127",
    "title": "KAWAII0604202149127",
    "link_img": "https://live.staticflickr.com/65535/49742901631_70c14b6e2f_o.jpg",
    "id_image": "KAWAII0604202149127",
    "count_view": 0
  },
  {
    "link_thumb": "https://live.staticflickr.com/65535/49694118476_3994733a26_n.jpg",
    "id_album": "1201366373",
    "description": "KAWAII170220235011",
    "title": "KAWAII170220235011",
    "link_img": "https://live.staticflickr.com/65535/49694118476_ec04766452_o.jpg",
    "id_image": "KAWAII170220235011",
    "count_view": 0
  },
  {
    "link_thumb": "https://live.staticflickr.com/65535/49743246732_2d10fc3bb7_n.jpg",
    "id_album": "-316663319",
    "description": "KAWAII06042021491261",
    "title": "KAWAII06042021491261",
    "link_img": "https://live.staticflickr.com/65535/49743246732_5b45f39239_o.jpg",
    "id_image": "KAWAII06042021491261",
    "count_view": 0
  },
  {
    "link_thumb": "https://live.staticflickr.com/65535/49743265042_a289f35b3c_n.jpg",
    "id_album": "-1473448477",
    "description": "KAWAII060420214917177",
    "title": "KAWAII060420214917177",
    "link_img": "https://live.staticflickr.com/65535/49743265042_902a3b4cbe_o.jpg",
    "id_image": "KAWAII060420214917177",
    "count_view": 0
  },
  {
    "link_thumb": "https://live.staticflickr.com/65535/49548966717_ec63ed96ac_n.jpg",
    "id_album": "1396902986",
    "description": "KAWAII1702202239528",
    "title": "KAWAII1702202239528",
    "link_img": "https://live.staticflickr.com/65535/49548966717_58d4ff79ce_o.jpg",
    "id_image": "KAWAII1702202239528",
    "count_view": 0
  },
  {
    "link_thumb": "https://live.staticflickr.com/65535/49548964322_51e844af5a_n.jpg",
    "id_album": "-1099943053",
    "description": "KAWAII1702202239518",
    "title": "KAWAII1702202239518",
    "link_img": "https://live.staticflickr.com/65535/49548964322_7516ae3c5c_o.jpg",
    "id_image": "KAWAII1702202239518",
    "count_view": 0
  },
  {
    "link_thumb": "https://live.staticflickr.com/65535/49743240127_a27ab55489_n.jpg",
    "id_album": "-643980979",
    "description": "KAWAII060420214915151",
    "title": "KAWAII060420214915151",
    "link_img": "https://live.staticflickr.com/65535/49743240127_0e1c01ba4a_o.jpg",
    "id_image": "KAWAII060420214915151",
    "count_view": 0
  },
  {
    "link_thumb": "https://live.staticflickr.com/65535/49623068762_8707473d16_n.jpg",
    "id_album": "-422187261",
    "description": "KAWAII0503202021167",
    "title": "KAWAII0503202021167",
    "link_img": "https://live.staticflickr.com/65535/49623068762_44dbf4f645_o.jpg",
    "id_image": "KAWAII0503202021167",
    "count_view": 0
  },
  {
    "link_thumb": "https://live.staticflickr.com/65535/49727424266_231be909f8_n.jpg",
    "id_album": "-1694302085",
    "description": "KAWAII020420194508115",
    "title": "KAWAII020420194508115",
    "link_img": "https://live.staticflickr.com/65535/49727424266_7d82170298_o.jpg",
    "id_image": "KAWAII020420194508115",
    "count_view": 0
  },
  {
    "link_thumb": "https://live.staticflickr.com/65535/49548992297_0a22b050db_n.jpg",
    "id_album": "-422187261",
    "description": "KAWAII17091826",
    "title": "KAWAII17091826",
    "link_img": "https://live.staticflickr.com/65535/49548992297_898b17ab48_o.jpg",
    "id_image": "KAWAII17091826",
    "count_view": 0
  },
  {
    "link_thumb": "https://live.staticflickr.com/65535/49727740517_150b78a0fe_n.jpg",
    "id_album": "-1694302085",
    "description": "KAWAII0503202021203",
    "title": "KAWAII0503202021203",
    "link_img": "https://live.staticflickr.com/65535/49727740517_44ae058446_o.jpg",
    "id_image": "KAWAII0503202021203",
    "count_view": 0
  },
  {
    "link_thumb": "https://live.staticflickr.com/65535/49742947631_d1ebfe6c19_n.jpg",
    "id_album": "1396902986",
    "description": "KAWAII060420214913286",
    "title": "KAWAII060420214913286",
    "link_img": "https://live.staticflickr.com/65535/49742947631_f819898538_o.jpg",
    "id_image": "KAWAII060420214913286",
    "count_view": 0
  },
  {
    "link_thumb": "https://live.staticflickr.com/65535/49694386657_07a4f6fa3e_n.jpg",
    "id_album": "1201366373",
    "description": "KAWAII12091815",
    "title": "KAWAII12091815",
    "link_img": "https://live.staticflickr.com/65535/49694386657_679a3490e7_o.jpg",
    "id_image": "KAWAII12091815",
    "count_view": 0
  },
  {
    "link_thumb": "https://live.staticflickr.com/65535/49693573983_d5936924a6_n.jpg",
    "id_album": "-643980979",
    "description": "KAWAII17022023462",
    "title": "KAWAII17022023462",
    "link_img": "https://live.staticflickr.com/65535/49693573983_9eb4cbed21_o.jpg",
    "id_image": "KAWAII17022023462",
    "count_view": 0
  },
  {
    "link_thumb": "https://live.staticflickr.com/65535/49727759157_d16557d744_n.jpg",
    "id_album": "742877173",
    "description": "KAWAII02042019450942",
    "title": "KAWAII02042019450942",
    "link_img": "https://live.staticflickr.com/65535/49727759157_411c19c88e_o.jpg",
    "id_image": "KAWAII02042019450942",
    "count_view": 0
  },
  {
    "link_thumb": "https://live.staticflickr.com/65535/49622816161_98892bc61c_n.jpg",
    "id_album": "-316663319",
    "description": "KAWAII0503202021127",
    "title": "KAWAII0503202021127",
    "link_img": "https://live.staticflickr.com/65535/49622816161_fb4f1c7349_o.jpg",
    "id_image": "KAWAII0503202021127",
    "count_view": 0
  },
  {
    "link_thumb": "https://live.staticflickr.com/65535/49726899073_0c787eac5c_n.jpg",
    "id_album": "742877173",
    "description": "KAWAII020420194510218",
    "title": "KAWAII020420194510218",
    "link_img": "https://live.staticflickr.com/65535/49726899073_150282ca4e_o.jpg",
    "id_image": "KAWAII020420194510218",
    "count_view": 0
  },
  {
    "link_thumb": "https://live.staticflickr.com/65535/49694416202_7f887b82b5_n.jpg",
    "id_album": "-643980979",
    "description": "KAWAII1702202239517",
    "title": "KAWAII1702202239517",
    "link_img": "https://live.staticflickr.com/65535/49694416202_00a576f716_o.jpg",
    "id_image": "KAWAII1702202239517",
    "count_view": 0
  },
  {
    "link_thumb": "https://live.staticflickr.com/65535/49548844797_7ca96dfa33_n.jpg",
    "id_album": "-1694302085",
    "description": "KAWAII12091876",
    "title": "KAWAII12091876",
    "link_img": "https://live.staticflickr.com/65535/49548844797_a2d51ebe21_o.jpg",
    "id_image": "KAWAII12091876",
    "count_view": 0
  },
  {
    "link_thumb": "https://live.staticflickr.com/65535/49548618671_9f25ded9ee_n.jpg",
    "id_album": "-422187261",
    "description": "KAWAII12091884",
    "title": "KAWAII12091884",
    "link_img": "https://live.staticflickr.com/65535/49548618671_76e79df1ca_o.jpg",
    "id_image": "KAWAII12091884",
    "count_view": 0
  },
  {
    "link_thumb": "https://live.staticflickr.com/65535/49548575786_8f0aed1d58_n.jpg",
    "id_album": "-422187261",
    "description": "KAWAII120918234",
    "title": "KAWAII120918234",
    "link_img": "https://live.staticflickr.com/65535/49548575786_4f6ee3c300_o.jpg",
    "id_image": "KAWAII120918234",
    "count_view": 0
  },
  {
    "link_thumb": "https://live.staticflickr.com/65535/49693586948_75d5f24801_n.jpg",
    "id_album": "1226948986",
    "description": "TOTORO22032015426",
    "title": "TOTORO22032015426",
    "link_img": "https://live.staticflickr.com/65535/49693586948_c05ff0c900_o.jpg",
    "id_image": "TOTORO22032015426",
    "count_view": 0
  },
  {
    "link_thumb": "https://live.staticflickr.com/65535/49726927733_79a9a57a30_n.jpg",
    "id_album": "1563362783",
    "description": "KAWAII1702202238460",
    "title": "KAWAII1702202238460",
    "link_img": "https://live.staticflickr.com/65535/49726927733_12ced5ec71_o.jpg",
    "id_image": "KAWAII1702202238460",
    "count_view": 0
  },
  {
    "link_thumb": "https://live.staticflickr.com/65535/49592719881_41b92ed558_n.jpg",
    "id_album": "-316663319",
    "description": "KAWAII270220235174",
    "title": "KAWAII270220235174",
    "link_img": "https://live.staticflickr.com/65535/49592719881_f369e1fc47_o.jpg",
    "id_image": "KAWAII270220235174",
    "count_view": 0
  },
  {
    "link_thumb": "https://live.staticflickr.com/65535/49548715926_c11836b31f_n.jpg",
    "id_album": "-422187261",
    "description": "KAWAII1702202238439",
    "title": "KAWAII1702202238439",
    "link_img": "https://live.staticflickr.com/65535/49548715926_bc37b6ac4d_o.jpg",
    "id_image": "KAWAII1702202238439",
    "count_view": 0
  },
  {
    "link_thumb": "https://live.staticflickr.com/65535/49742364083_b360349d2c_n.jpg",
    "id_album": "-1741487325",
    "description": "KAWAII060420214912175",
    "title": "KAWAII060420214912175",
    "link_img": "https://live.staticflickr.com/65535/49742364083_1b34810e8a_o.jpg",
    "id_image": "KAWAII060420214912175",
    "count_view": 0
  },
  {
    "link_thumb": "https://live.staticflickr.com/65535/49693587498_ae99d125d9_n.jpg",
    "id_album": "1226948986",
    "description": "TOTORO22032015428",
    "title": "TOTORO22032015428",
    "link_img": "https://live.staticflickr.com/65535/49693587498_8001c33ca7_o.jpg",
    "id_image": "TOTORO22032015428",
    "count_view": 0
  },
  {
    "link_thumb": "https://live.staticflickr.com/65535/49548807387_2f23a09639_n.jpg",
    "id_album": "-1741487325",
    "description": "KAWAII12091826",
    "title": "KAWAII12091826",
    "link_img": "https://live.staticflickr.com/65535/49548807387_3f7d724a79_o.jpg",
    "id_image": "KAWAII12091826",
    "count_view": 0
  },
  {
    "link_thumb": "https://live.staticflickr.com/65535/49548819262_0081057c24_n.jpg",
    "id_album": "-316663319",
    "description": "KAWAII120918307",
    "title": "KAWAII120918307",
    "link_img": "https://live.staticflickr.com/65535/49548819262_2eea310c23_o.jpg",
    "id_image": "KAWAII120918307",
    "count_view": 0
  },
  {
    "link_thumb": "https://live.staticflickr.com/65535/49694125931_f8f3987c14_n.jpg",
    "id_album": "-358592519",
    "description": "KAWAII1702202239568",
    "title": "KAWAII1702202239568",
    "link_img": "https://live.staticflickr.com/65535/49694125931_361e3743c3_o.jpg",
    "id_image": "KAWAII1702202239568",
    "count_view": 0
  },
  {
    "link_thumb": "https://live.staticflickr.com/65535/49592954677_18103c624d_n.jpg",
    "id_album": "-1741487325",
    "description": "KAWAII270220235170",
    "title": "KAWAII270220235170",
    "link_img": "https://live.staticflickr.com/65535/49592954677_c4b8f4783a_o.jpg",
    "id_image": "KAWAII270220235170",
    "count_view": 0
  },
  {
    "link_thumb": "https://live.staticflickr.com/65535/49693524538_039d1e5efc_n.jpg",
    "id_album": "-1741487325",
    "description": "KAWAII2702202351104",
    "title": "KAWAII2702202351104",
    "link_img": "https://live.staticflickr.com/65535/49693524538_272d708b2d_o.jpg",
    "id_image": "KAWAII2702202351104",
    "count_view": 0
  },
  {
    "link_thumb": "https://live.staticflickr.com/65535/49742928076_aa5cc0962e_n.jpg",
    "id_album": "-316663319",
    "description": "KAWAII060420214915218",
    "title": "KAWAII060420214915218",
    "link_img": "https://live.staticflickr.com/65535/49742928076_9374722011_o.jpg",
    "id_image": "KAWAII060420214915218",
    "count_view": 0
  },
  {
    "link_thumb": "https://live.staticflickr.com/65535/49623114102_c4b0e64840_n.jpg",
    "id_album": "-406350429",
    "description": "KAWAII0503202021115",
    "title": "KAWAII0503202021115",
    "link_img": "https://live.staticflickr.com/65535/49623114102_63275bcc45_o.jpg",
    "id_image": "KAWAII0503202021115",
    "count_view": 0
  },
  {
    "link_thumb": "https://live.staticflickr.com/65535/49622332363_9dcb2579a8_n.jpg",
    "id_album": "-406350429",
    "description": "KAWAII0503202021268",
    "title": "KAWAII0503202021268",
    "link_img": "https://live.staticflickr.com/65535/49622332363_25d01093c7_o.jpg",
    "id_image": "KAWAII0503202021268",
    "count_view": 0
  },
  {
    "link_thumb": "https://live.staticflickr.com/65535/49548624861_25dfed5587_n.jpg",
    "id_album": "-316663319",
    "description": "KAWAII170220223321",
    "title": "KAWAII170220223321",
    "link_img": "https://live.staticflickr.com/65535/49548624861_ea60be6153_o.jpg",
    "id_image": "KAWAII170220223321",
    "count_view": 0
  },
  {
    "link_thumb": "https://live.staticflickr.com/65535/49727429366_4dc911d79c_n.jpg",
    "id_album": "-1741487325",
    "description": "KAWAII02042019451286",
    "title": "KAWAII02042019451286",
    "link_img": "https://live.staticflickr.com/65535/49727429366_9d132547f7_o.jpg",
    "id_image": "KAWAII02042019451286",
    "count_view": 0
  },
  {
    "link_thumb": "https://live.staticflickr.com/65535/49727738537_69ce1e2250_n.jpg",
    "id_album": "-1694302085",
    "description": "KAWAII020420194508122",
    "title": "KAWAII020420194508122",
    "link_img": "https://live.staticflickr.com/65535/49727738537_b847239a4a_o.jpg",
    "id_image": "KAWAII020420194508122",
    "count_view": 0
  },
  {
    "link_thumb": "https://live.staticflickr.com/65535/49727741722_17f9282083_n.jpg",
    "id_album": "-1694302085",
    "description": "KAWAII190220211121",
    "title": "KAWAII190220211121",
    "link_img": "https://live.staticflickr.com/65535/49727741722_8916e5b55d_o.jpg",
    "id_image": "KAWAII190220211121",
    "count_view": 0
  },
  {
    "link_thumb": "https://live.staticflickr.com/65535/49548049443_31ab26d006_n.jpg",
    "id_album": "-422187261",
    "description": "KAWAII120918129",
    "title": "KAWAII120918129",
    "link_img": "https://live.staticflickr.com/65535/49548049443_2473f62d23_o.jpg",
    "id_image": "KAWAII120918129",
    "count_view": 0
  },
  {
    "link_thumb": "https://live.staticflickr.com/65535/49693555748_fafc0c40c6_n.jpg",
    "id_album": "1201366373",
    "description": "KAWAII120918279",
    "title": "KAWAII120918279",
    "link_img": "https://live.staticflickr.com/65535/49693555748_6c68d75bc0_o.jpg",
    "id_image": "KAWAII120918279",
    "count_view": 0
  },
  {
    "link_thumb": "https://live.staticflickr.com/65535/49592950957_761b2dfd03_n.jpg",
    "id_album": "1396902986",
    "description": "KAWAII270220235156",
    "title": "KAWAII270220235156",
    "link_img": "https://live.staticflickr.com/65535/49592950957_b165c6d881_o.jpg",
    "id_image": "KAWAII270220235156",
    "count_view": 0
  },
  {
    "link_thumb": "https://live.staticflickr.com/65535/49622331253_409fec308c_n.jpg",
    "id_album": "-406350429",
    "description": "KAWAII0503202021251",
    "title": "KAWAII0503202021251",
    "link_img": "https://live.staticflickr.com/65535/49622331253_957a9a1d10_o.jpg",
    "id_image": "KAWAII0503202021251",
    "count_view": 0
  },
  {
    "link_thumb": "https://live.staticflickr.com/65535/49694365907_ce28f0a332_n.jpg",
    "id_album": "1699819648",
    "description": "KAWAII0503202021143",
    "title": "KAWAII0503202021143",
    "link_img": "https://live.staticflickr.com/65535/49694365907_be0377e56b_o.jpg",
    "id_image": "KAWAII0503202021143",
    "count_view": 0
  },
  {
    "link_thumb": "https://live.staticflickr.com/65535/49727781682_2040643dc2_n.jpg",
    "id_album": "-1862561193",
    "description": "KAWAII02042019450961",
    "title": "KAWAII02042019450961",
    "link_img": "https://live.staticflickr.com/65535/49727781682_3cb61d2e09_o.jpg",
    "id_image": "KAWAII02042019450961",
    "count_view": 0
  },
  {
    "link_thumb": "https://live.staticflickr.com/65535/49743236517_585777528f_n.jpg",
    "id_album": "-1741487325",
    "description": "KAWAII060420214918140",
    "title": "KAWAII060420214918140",
    "link_img": "https://live.staticflickr.com/65535/49743236517_c67a517862_o.jpg",
    "id_image": "KAWAII060420214918140",
    "count_view": 0
  },
  {
    "link_thumb": "https://live.staticflickr.com/65535/49592954487_25b10e6300_n.jpg",
    "id_album": "-1741487325",
    "description": "KAWAII270220235150",
    "title": "KAWAII270220235150",
    "link_img": "https://live.staticflickr.com/65535/49592954487_925a645ab0_o.jpg",
    "id_image": "KAWAII270220235150",
    "count_view": 0
  },
  {
    "link_thumb": "https://live.staticflickr.com/65535/49694077516_8d3d9517bb_n.jpg",
    "id_album": "-643980979",
    "description": "KAWAII050320202167",
    "title": "KAWAII050320202167",
    "link_img": "https://live.staticflickr.com/65535/49694077516_f2232cf1c9_o.jpg",
    "id_image": "KAWAII050320202167",
    "count_view": 0
  },
  {
    "link_thumb": "https://live.staticflickr.com/65535/49623077172_16baeb5882_n.jpg",
    "id_album": "1396902986",
    "description": "KAWAII05032020216",
    "title": "KAWAII05032020216",
    "link_img": "https://live.staticflickr.com/65535/49623077172_bbd401916a_o.jpg",
    "id_image": "KAWAII05032020216",
    "count_view": 0
  },
  {
    "link_thumb": "https://live.staticflickr.com/65535/49694400417_835f6f8b25_n.jpg",
    "id_album": "1201366373",
    "description": "KAWAII120918273",
    "title": "KAWAII120918273",
    "link_img": "https://live.staticflickr.com/65535/49694400417_dc43c44077_o.jpg",
    "id_image": "KAWAII120918273",
    "count_view": 0
  },
  {
    "link_thumb": "https://live.staticflickr.com/65535/49622809301_6b0684800f_n.jpg",
    "id_album": "-1694302085",
    "description": "KAWAII0503202021105",
    "title": "KAWAII0503202021105",
    "link_img": "https://live.staticflickr.com/65535/49622809301_e17339301c_o.jpg",
    "id_image": "KAWAII0503202021105",
    "count_view": 0
  },
  {
    "link_thumb": "https://live.staticflickr.com/65535/49726888268_378c11866f_n.jpg",
    "id_album": "-316663319",
    "description": "KAWAII020420194507136",
    "title": "KAWAII020420194507136",
    "link_img": "https://live.staticflickr.com/65535/49726888268_6343a99482_o.jpg",
    "id_image": "KAWAII020420194507136",
    "count_view": 0
  },
  {
    "link_thumb": "https://live.staticflickr.com/65535/49694412777_2edfee1cdb_n.jpg",
    "id_album": "-643980979",
    "description": "KAWAII1702202236290",
    "title": "KAWAII1702202236290",
    "link_img": "https://live.staticflickr.com/65535/49694412777_7acf31a874_o.jpg",
    "id_image": "KAWAII1702202236290",
    "count_view": 0
  },
  {
    "link_thumb": "https://live.staticflickr.com/65535/49727426901_aa4714b602_n.jpg",
    "id_album": "-1694302085",
    "description": "KAWAII1702202235162",
    "title": "KAWAII1702202235162",
    "link_img": "https://live.staticflickr.com/65535/49727426901_c3b836d30b_o.jpg",
    "id_image": "KAWAII1702202235162",
    "count_view": 0
  },
  {
    "link_thumb": "https://live.staticflickr.com/65535/49693548538_9dba595413_n.jpg",
    "id_album": "1201366373",
    "description": "KAWAII12091822",
    "title": "KAWAII12091822",
    "link_img": "https://live.staticflickr.com/65535/49693548538_28b68d2128_o.jpg",
    "id_image": "KAWAII12091822",
    "count_view": 0
  },
  {
    "link_thumb": "https://live.staticflickr.com/65535/49742943546_140855094f_n.jpg",
    "id_album": "-1779286820",
    "description": "KAWAII060420214913190",
    "title": "KAWAII060420214913190",
    "link_img": "https://live.staticflickr.com/65535/49742943546_0b980a0a42_o.jpg",
    "id_image": "KAWAII060420214913190",
    "count_view": 0
  },
  {
    "link_thumb": "https://live.staticflickr.com/65535/49693672998_18981af17b_n.jpg",
    "id_album": "-1741487325",
    "description": "KAWAII0503202021121",
    "title": "KAWAII0503202021121",
    "link_img": "https://live.staticflickr.com/65535/49693672998_32a6f17ddf_o.jpg",
    "id_image": "KAWAII0503202021121",
    "count_view": 0
  },
  {
    "link_thumb": "https://live.staticflickr.com/65535/49548627951_1abdc4fe57_n.jpg",
    "id_album": "-316663319",
    "description": "KAWAII170220223335",
    "title": "KAWAII170220223335",
    "link_img": "https://live.staticflickr.com/65535/49548627951_b5dc7ff754_o.jpg",
    "id_image": "KAWAII170220223335",
    "count_view": 0
  },
  {
    "link_thumb": "https://live.staticflickr.com/65535/49592977537_6b698f11fb_n.jpg",
    "id_album": "431597977",
    "description": "KAWAII2702202351127",
    "title": "KAWAII2702202351127",
    "link_img": "https://live.staticflickr.com/65535/49592977537_9ce2167b2c_o.jpg",
    "id_image": "KAWAII2702202351127",
    "count_view": 0
  },
  {
    "link_thumb": "https://live.staticflickr.com/65535/49548566801_954692e382_n.jpg",
    "id_album": "-316663319",
    "description": "KAWAII120918193",
    "title": "KAWAII120918193",
    "link_img": "https://live.staticflickr.com/65535/49548566801_9b9ece4a00_o.jpg",
    "id_image": "KAWAII120918193",
    "count_view": 0
  },
  {
    "link_thumb": "https://live.staticflickr.com/65535/49592949777_fc39988613_n.jpg",
    "id_album": "1396902986",
    "description": "KAWAII270220235115",
    "title": "KAWAII270220235115",
    "link_img": "https://live.staticflickr.com/65535/49592949777_f8055c5f8e_o.jpg",
    "id_image": "KAWAII270220235115",
    "count_view": 0
  },
  {
    "link_thumb": "https://live.staticflickr.com/65535/49727753397_4be244d399_n.jpg",
    "id_album": "-316663319",
    "description": "KAWAII0204201945112",
    "title": "KAWAII0204201945112",
    "link_img": "https://live.staticflickr.com/65535/49727753397_6f21a34d4b_o.jpg",
    "id_image": "KAWAII0204201945112",
    "count_view": 0
  },
  {
    "link_thumb": "https://live.staticflickr.com/65535/49742900706_1b37181690_n.jpg",
    "id_album": "-1913845949",
    "description": "KAWAII060420214912227",
    "title": "KAWAII060420214912227",
    "link_img": "https://live.staticflickr.com/65535/49742900706_25e8c5e60f_o.jpg",
    "id_image": "KAWAII060420214912227",
    "count_view": 0
  },
  {
    "link_thumb": "https://live.staticflickr.com/65535/49548566286_1178d84f81_n.jpg",
    "id_album": "1396902986",
    "description": "KAWAII120918190",
    "title": "KAWAII120918190",
    "link_img": "https://live.staticflickr.com/65535/49548566286_983818521d_o.jpg",
    "id_image": "KAWAII120918190",
    "count_view": 0
  },
  {
    "link_thumb": "https://live.staticflickr.com/65535/49693556048_0c840bf754_n.jpg",
    "id_album": "1201366373",
    "description": "KAWAII120918284",
    "title": "KAWAII120918284",
    "link_img": "https://live.staticflickr.com/65535/49693556048_4db1d42147_o.jpg",
    "id_image": "KAWAII120918284",
    "count_view": 0
  },
  {
    "link_thumb": "https://live.staticflickr.com/65535/49743252577_c5c37b428b_n.jpg",
    "id_album": "-316663319",
    "description": "KAWAII060420214915250",
    "title": "KAWAII060420214915250",
    "link_img": "https://live.staticflickr.com/65535/49743252577_4990f8d560_o.jpg",
    "id_image": "KAWAII060420214915250",
    "count_view": 0
  },
  {
    "link_thumb": "https://live.staticflickr.com/65535/49742397923_5400472641_n.jpg",
    "id_album": "-1779286820",
    "description": "KAWAII060420214918235",
    "title": "KAWAII060420214918235",
    "link_img": "https://live.staticflickr.com/65535/49742397923_43c8a44628_o.jpg",
    "id_image": "KAWAII060420214918235",
    "count_view": 0
  },
  {
    "link_thumb": "https://live.staticflickr.com/65535/49727439176_c706ab0e38_n.jpg",
    "id_album": "-316663319",
    "description": "KAWAII020420194511234",
    "title": "KAWAII020420194511234",
    "link_img": "https://live.staticflickr.com/65535/49727439176_2b557b3b19_o.jpg",
    "id_image": "KAWAII020420194511234",
    "count_view": 0
  },
  {
    "link_thumb": "https://live.staticflickr.com/65535/49743272922_9784ee7c02_n.jpg",
    "id_album": "1396902986",
    "description": "KAWAII060420214915233",
    "title": "KAWAII060420214915233",
    "link_img": "https://live.staticflickr.com/65535/49743272922_1f2442eeac_o.jpg",
    "id_image": "KAWAII060420214915233",
    "count_view": 0
  },
  {
    "link_thumb": "https://live.staticflickr.com/65535/49711145752_b428a36eb6_n.jpg",
    "id_album": "-1599896063",
    "description": "LITTLEMONK29032012063817",
    "title": "LITTLEMONK29032012063817",
    "link_img": "https://live.staticflickr.com/65535/49711145752_3b11773dd6_o.jpg",
    "id_image": "LITTLEMONK29032012063817",
    "count_view": 0
  },
  {
    "link_thumb": "https://live.staticflickr.com/65535/49548834887_675f3dd3b1_n.jpg",
    "id_album": "-1741487325",
    "description": "KAWAII120918369",
    "title": "KAWAII120918369",
    "link_img": "https://live.staticflickr.com/65535/49548834887_e90e9472a9_o.jpg",
    "id_image": "KAWAII120918369",
    "count_view": 0
  },
  {
    "link_thumb": "https://live.staticflickr.com/65535/49694226081_6569eac63c_n.jpg",
    "id_album": "1226948986",
    "description": "KAWAII24032022050150",
    "title": "KAWAII24032022050150",
    "link_img": "https://live.staticflickr.com/65535/49694226081_3ee90bb1c7_o.jpg",
    "id_image": "KAWAII24032022050150",
    "count_view": 0
  },
  {
    "link_thumb": "https://live.staticflickr.com/65535/49694403817_304ff6bec8_n.jpg",
    "id_album": "1201366373",
    "description": "KAWAII1209184",
    "title": "KAWAII1209184",
    "link_img": "https://live.staticflickr.com/65535/49694403817_7b234b0c3d_o.jpg",
    "id_image": "KAWAII1209184",
    "count_view": 0
  },
  {
    "link_thumb": "https://live.staticflickr.com/65535/49727739842_08815b2b29_n.jpg",
    "id_album": "-1694302085",
    "description": "KAWAII02042019450876",
    "title": "KAWAII02042019450876",
    "link_img": "https://live.staticflickr.com/65535/49727739842_d9ba38723e_o.jpg",
    "id_image": "KAWAII02042019450876",
    "count_view": 0
  },
  {
    "link_thumb": "https://live.staticflickr.com/65535/49592952392_4c43bf382f_n.jpg",
    "id_album": "-1741487325",
    "description": "KAWAII1702202237338",
    "title": "KAWAII1702202237338",
    "link_img": "https://live.staticflickr.com/65535/49592952392_4bb44f63a9_o.jpg",
    "id_image": "KAWAII1702202237338",
    "count_view": 0
  },
  {
    "link_thumb": "https://live.staticflickr.com/65535/49693686563_02b03fcd19_n.jpg",
    "id_album": "1226948986",
    "description": "KAWAII24032022050259",
    "title": "KAWAII24032022050259",
    "link_img": "https://live.staticflickr.com/65535/49693686563_edfd6d82e3_o.jpg",
    "id_image": "KAWAII24032022050259",
    "count_view": 0
  },
  {
    "link_thumb": "https://live.staticflickr.com/65535/49694222031_32f2a3a884_n.jpg",
    "id_album": "-316663319",
    "description": "KAWAII24032022050211",
    "title": "KAWAII24032022050211",
    "link_img": "https://live.staticflickr.com/65535/49694222031_6565d723ca_o.jpg",
    "id_image": "KAWAII24032022050211",
    "count_view": 0
  },
  {
    "link_thumb": "https://live.staticflickr.com/65535/49743238712_63dded63b7_n.jpg",
    "id_album": "-1497779911",
    "description": "KAWAII06042021491445",
    "title": "KAWAII06042021491445",
    "link_img": "https://live.staticflickr.com/65535/49743238712_d4ec543d5d_o.jpg",
    "id_image": "KAWAII06042021491445",
    "count_view": 0
  },
  {
    "link_thumb": "https://live.staticflickr.com/65535/49693686013_12dd2df714_n.jpg",
    "id_album": "1226948986",
    "description": "KAWAII24032022050251",
    "title": "KAWAII24032022050251",
    "link_img": "https://live.staticflickr.com/65535/49693686013_6fa519d395_o.jpg",
    "id_image": "KAWAII24032022050251",
    "count_view": 0
  },
  {
    "link_thumb": "https://live.staticflickr.com/65535/49548993507_d5f98f1ded_n.jpg",
    "id_album": "-1741487325",
    "description": "KAWAII1709183",
    "title": "KAWAII1709183",
    "link_img": "https://live.staticflickr.com/65535/49548993507_a7333853ac_o.jpg",
    "id_image": "KAWAII1709183",
    "count_view": 0
  },
  {
    "link_thumb": "https://live.staticflickr.com/65535/49624534756_bbaab8afc8_n.jpg",
    "id_album": "-422187261",
    "description": "KAWAII050320202179",
    "title": "KAWAII050320202179",
    "link_img": "https://live.staticflickr.com/65535/49624534756_21dbeda38b_o.jpg",
    "id_image": "KAWAII050320202179",
    "count_view": 0
  },
  {
    "link_thumb": "https://live.staticflickr.com/65535/49727450881_7c7958f382_n.jpg",
    "id_album": "742877173",
    "description": "KAWAII020420194513138",
    "title": "KAWAII020420194513138",
    "link_img": "https://live.staticflickr.com/65535/49727450881_916c922e16_o.jpg",
    "id_image": "KAWAII020420194513138",
    "count_view": 0
  },
  {
    "link_thumb": "https://live.staticflickr.com/65535/49548831437_5f1799ae82_n.jpg",
    "id_album": "-1741487325",
    "description": "KAWAII120918356",
    "title": "KAWAII120918356",
    "link_img": "https://live.staticflickr.com/65535/49548831437_157df654a0_o.jpg",
    "id_image": "KAWAII120918356",
    "count_view": 0
  },
  {
    "link_thumb": "https://live.staticflickr.com/65535/49548939692_eeedcea466_n.jpg",
    "id_album": "1396902986",
    "description": "KAWAII1702202238425",
    "title": "KAWAII1702202238425",
    "link_img": "https://live.staticflickr.com/65535/49548939692_4661bebe6c_o.jpg",
    "id_image": "KAWAII1702202238425",
    "count_view": 0
  },
  {
    "link_thumb": "https://live.staticflickr.com/65535/49743281817_2825112c88_n.jpg",
    "id_album": "1226948986",
    "description": "KAWAII060420214918133",
    "title": "KAWAII060420214918133",
    "link_img": "https://live.staticflickr.com/65535/49743281817_0d8a529dd2_o.jpg",
    "id_image": "KAWAII060420214918133",
    "count_view": 0
  },
  {
    "link_thumb": "https://live.staticflickr.com/65535/49743253522_c8065f3f05_n.jpg",
    "id_album": "-316663319",
    "description": "KAWAII060420214915308",
    "title": "KAWAII060420214915308",
    "link_img": "https://live.staticflickr.com/65535/49743253522_a0950615cb_o.jpg",
    "id_image": "KAWAII060420214915308",
    "count_view": 0
  },
  {
    "link_thumb": "https://live.staticflickr.com/65535/49742386178_0cfdce1133_n.jpg",
    "id_album": "742877173",
    "description": "KAWAII06042021491858",
    "title": "KAWAII06042021491858",
    "link_img": "https://live.staticflickr.com/65535/49742386178_b932cbaa6d_o.jpg",
    "id_image": "KAWAII06042021491858",
    "count_view": 0
  },
  {
    "link_thumb": "https://live.staticflickr.com/65535/49548245093_44f9fbb385_n.jpg",
    "id_album": "-422187261",
    "description": "KAWAII1702202239551",
    "title": "KAWAII1702202239551",
    "link_img": "https://live.staticflickr.com/65535/49548245093_46504f58cf_o.jpg",
    "id_image": "KAWAII1702202239551",
    "count_view": 0
  },
  {
    "link_thumb": "https://live.staticflickr.com/65535/49552757127_65080a2967_n.jpg",
    "id_album": "-1694302085",
    "description": "KAWAII12091825180220205921",
    "title": "KAWAII12091825180220205921",
    "link_img": "https://live.staticflickr.com/65535/49552757127_aebd87c41d_o.jpg",
    "id_image": "KAWAII12091825180220205921",
    "count_view": 0
  },
  {
    "link_thumb": "https://live.staticflickr.com/65535/49693557238_c6b6635ea4_n.jpg",
    "id_album": "1201366373",
    "description": "KAWAII120918309",
    "title": "KAWAII120918309",
    "link_img": "https://live.staticflickr.com/65535/49693557238_c50d74d2b9_o.jpg",
    "id_image": "KAWAII120918309",
    "count_view": 0
  },
  {
    "link_thumb": "https://live.staticflickr.com/65535/49742366173_9c888d39a5_n.jpg",
    "id_album": "-1497779911",
    "description": "KAWAII060420214912135",
    "title": "KAWAII060420214912135",
    "link_img": "https://live.staticflickr.com/65535/49742366173_fde6d7dc49_o.jpg",
    "id_image": "KAWAII060420214912135",
    "count_view": 0
  },
  {
    "link_thumb": "https://live.staticflickr.com/65535/49743259907_59f31bfa3e_n.jpg",
    "id_album": "-1473448477",
    "description": "KAWAII060420214915206",
    "title": "KAWAII060420214915206",
    "link_img": "https://live.staticflickr.com/65535/49743259907_c31226ddb4_o.jpg",
    "id_image": "KAWAII060420214915206",
    "count_view": 0
  },
  {
    "link_thumb": "https://live.staticflickr.com/65535/49548154838_4fc30f774c_n.jpg",
    "id_album": "-422187261",
    "description": "KAWAII1702202235170",
    "title": "KAWAII1702202235170",
    "link_img": "https://live.staticflickr.com/65535/49548154838_a22527a35f_o.jpg",
    "id_image": "KAWAII1702202235170",
    "count_view": 0
  },
  {
    "link_thumb": "https://live.staticflickr.com/65535/49694223711_9936d6d2f6_n.jpg",
    "id_album": "-1862561193",
    "description": "KAWAII24032022050147",
    "title": "KAWAII24032022050147",
    "link_img": "https://live.staticflickr.com/65535/49694223711_6553dda6a5_o.jpg",
    "id_image": "KAWAII24032022050147",
    "count_view": 0
  },
  {
    "link_thumb": "https://live.staticflickr.com/65535/49727761562_d26642ae62_n.jpg",
    "id_album": "742877173",
    "description": "KAWAII020420194510252",
    "title": "KAWAII020420194510252",
    "link_img": "https://live.staticflickr.com/65535/49727761562_19abf3a209_o.jpg",
    "id_image": "KAWAII020420194510252",
    "count_view": 0
  },
  {
    "link_thumb": "https://live.staticflickr.com/65535/49693527218_5bce209935_n.jpg",
    "id_album": "1201366373",
    "description": "KAWAII050320202116",
    "title": "KAWAII050320202116",
    "link_img": "https://live.staticflickr.com/65535/49693527218_3359fd468d_o.jpg",
    "id_image": "KAWAII050320202116",
    "count_view": 0
  },
  {
    "link_thumb": "https://live.staticflickr.com/65535/49693561393_32242b0474_n.jpg",
    "id_album": "1201366373",
    "description": "KAWAII12091886",
    "title": "KAWAII12091886",
    "link_img": "https://live.staticflickr.com/65535/49693561393_bb7b7c09f6_o.jpg",
    "id_image": "KAWAII12091886",
    "count_view": 0
  },
  {
    "link_thumb": "https://live.staticflickr.com/65535/49742954436_79e38cee5f_n.jpg",
    "id_album": "-1431786825",
    "description": "KAWAII060420214912268",
    "title": "KAWAII060420214912268",
    "link_img": "https://live.staticflickr.com/65535/49742954436_2ae6f8afb5_o.jpg",
    "id_image": "KAWAII060420214912268",
    "count_view": 0
  },
  {
    "link_thumb": "https://live.staticflickr.com/65535/49592732326_ec544b524b_n.jpg",
    "id_album": "949200594",
    "description": "KAWAII27022023513",
    "title": "KAWAII27022023513",
    "link_img": "https://live.staticflickr.com/65535/49592732326_5d44a7d439_o.jpg",
    "id_image": "KAWAII27022023513",
    "count_view": 0
  },
  {
    "link_thumb": "https://live.staticflickr.com/65535/49548662521_495fec0c6f_n.jpg",
    "id_album": "1396902986",
    "description": "KAWAII1702202235199",
    "title": "KAWAII1702202235199",
    "link_img": "https://live.staticflickr.com/65535/49548662521_41402ffbc9_o.jpg",
    "id_image": "KAWAII1702202235199",
    "count_view": 0
  },
  {
    "link_thumb": "https://live.staticflickr.com/65535/49694385017_b791a594e0_n.jpg",
    "id_album": "1201366373",
    "description": "KAWAII12091812",
    "title": "KAWAII12091812",
    "link_img": "https://live.staticflickr.com/65535/49694385017_dd00ae1d86_o.jpg",
    "id_image": "KAWAII12091812",
    "count_view": 0
  },
  {
    "link_thumb": "https://live.staticflickr.com/65535/49592734571_e7317aa3f2_n.jpg",
    "id_album": "949200594",
    "description": "KAWAII270220235193",
    "title": "KAWAII270220235193",
    "link_img": "https://live.staticflickr.com/65535/49592734571_d36286450a_o.jpg",
    "id_image": "KAWAII270220235193",
    "count_view": 0
  },
  {
    "link_thumb": "https://live.staticflickr.com/65535/49592204528_636523a09a_n.jpg",
    "id_album": "1396902986",
    "description": "KAWAII2702202351149",
    "title": "KAWAII2702202351149",
    "link_img": "https://live.staticflickr.com/65535/49592204528_f30129f846_o.jpg",
    "id_image": "KAWAII2702202351149",
    "count_view": 0
  },
  {
    "link_thumb": "https://live.staticflickr.com/65535/49548950137_20fe5592c7_n.jpg",
    "id_album": "-422187261",
    "description": "KAWAII1702202238466",
    "title": "KAWAII1702202238466",
    "link_img": "https://live.staticflickr.com/65535/49548950137_9c34f5805d_o.jpg",
    "id_image": "KAWAII1702202238466",
    "count_view": 0
  },
  {
    "link_thumb": "https://live.staticflickr.com/65535/49622816726_7c2109c3a2_n.jpg",
    "id_album": "-316663319",
    "description": "KAWAII050320202113",
    "title": "KAWAII050320202113",
    "link_img": "https://live.staticflickr.com/65535/49622816726_09a020b17f_o.jpg",
    "id_image": "KAWAII050320202113",
    "count_view": 0
  },
  {
    "link_thumb": "https://live.staticflickr.com/65535/49548219163_b7c23d2f73_n.jpg",
    "id_album": "-422187261",
    "description": "KAWAII1702202238454",
    "title": "KAWAII1702202238454",
    "link_img": "https://live.staticflickr.com/65535/49548219163_85206ac23f_o.jpg",
    "id_image": "KAWAII1702202238454",
    "count_view": 0
  },
  {
    "link_thumb": "https://live.staticflickr.com/65535/49592203818_4be5912330_n.jpg",
    "id_album": "1396902986",
    "description": "KAWAII2702202351117",
    "title": "KAWAII2702202351117",
    "link_img": "https://live.staticflickr.com/65535/49592203818_07fb022dd1_o.jpg",
    "id_image": "KAWAII2702202351117",
    "count_view": 0
  },
  {
    "link_thumb": "https://live.staticflickr.com/65535/49694071171_cd5ac07c04_n.jpg",
    "id_album": "-643980979",
    "description": "KAWAII0503202021165",
    "title": "KAWAII0503202021165",
    "link_img": "https://live.staticflickr.com/65535/49694071171_d1e527d8fc_o.jpg",
    "id_image": "KAWAII0503202021165",
    "count_view": 0
  },
  {
    "link_thumb": "https://live.staticflickr.com/65535/49694115256_2cb04d6c80_n.jpg",
    "id_album": "-643980979",
    "description": "KAWAII170220234611",
    "title": "KAWAII170220234611",
    "link_img": "https://live.staticflickr.com/65535/49694115256_299f262f28_o.jpg",
    "id_image": "KAWAII170220234611",
    "count_view": 0
  },
  {
    "link_thumb": "https://live.staticflickr.com/65535/49742915231_bdcaf55483_n.jpg",
    "id_album": "-1497779911",
    "description": "KAWAII06042021491499",
    "title": "KAWAII06042021491499",
    "link_img": "https://live.staticflickr.com/65535/49742915231_530e7591da_o.jpg",
    "id_image": "KAWAII06042021491499",
    "count_view": 0
  },
  {
    "link_thumb": "https://live.staticflickr.com/65535/49727448541_087b7b8cab_n.jpg",
    "id_album": "742877173",
    "description": "KAWAII02042019451188",
    "title": "KAWAII02042019451188",
    "link_img": "https://live.staticflickr.com/65535/49727448541_16fd383dcc_o.jpg",
    "id_image": "KAWAII02042019451188",
    "count_view": 0
  },
  {
    "link_thumb": "https://live.staticflickr.com/65535/49592722066_77739185e0_n.jpg",
    "id_album": "-316663319",
    "description": "KAWAII270220235194",
    "title": "KAWAII270220235194",
    "link_img": "https://live.staticflickr.com/65535/49592722066_a13ae2d18a_o.jpg",
    "id_image": "KAWAII270220235194",
    "count_view": 0
  },
  {
    "link_thumb": "https://live.staticflickr.com/65535/49694218436_5e85cee4f6_n.jpg",
    "id_album": "-643980979",
    "description": "KAWAII24032022050213",
    "title": "KAWAII24032022050213",
    "link_img": "https://live.staticflickr.com/65535/49694218436_ac6a12492e_o.jpg",
    "id_image": "KAWAII24032022050213",
    "count_view": 0
  },
  {
    "link_thumb": "https://live.staticflickr.com/65535/49726885228_f3551204a1_n.jpg",
    "id_album": "-1497779911",
    "description": "KAWAII050320202164",
    "title": "KAWAII050320202164",
    "link_img": "https://live.staticflickr.com/65535/49726885228_3207863863_o.jpg",
    "id_image": "KAWAII050320202164",
    "count_view": 0
  },
  {
    "link_thumb": "https://live.staticflickr.com/65535/49622828946_a3ec03670c_n.jpg",
    "id_album": "-316663319",
    "description": "KAWAII0503202021276",
    "title": "KAWAII0503202021276",
    "link_img": "https://live.staticflickr.com/65535/49622828946_b9f0ca563d_o.jpg",
    "id_image": "KAWAII0503202021276",
    "count_view": 0
  },
  {
    "link_thumb": "https://live.staticflickr.com/65535/49743248487_2470e7d2eb_n.jpg",
    "id_album": "-316663319",
    "description": "KAWAII060420214913307",
    "title": "KAWAII060420214913307",
    "link_img": "https://live.staticflickr.com/65535/49743248487_0739556b42_o.jpg",
    "id_image": "KAWAII060420214913307",
    "count_view": 0
  },
  {
    "link_thumb": "https://live.staticflickr.com/65535/49694375002_c347401b0e_n.jpg",
    "id_album": "-643980979",
    "description": "KAWAII0503202021225",
    "title": "KAWAII0503202021225",
    "link_img": "https://live.staticflickr.com/65535/49694375002_7e97191bb9_o.jpg",
    "id_image": "KAWAII0503202021225",
    "count_view": 0
  },
  {
    "link_thumb": "https://live.staticflickr.com/65535/49592951312_d3cd4b1750_n.jpg",
    "id_album": "1396902986",
    "description": "KAWAII270220235178",
    "title": "KAWAII270220235178",
    "link_img": "https://live.staticflickr.com/65535/49592951312_88327c789a_o.jpg",
    "id_image": "KAWAII270220235178",
    "count_view": 0
  },
  {
    "link_thumb": "https://live.staticflickr.com/65535/49727431766_5c3398f5a8_n.jpg",
    "id_album": "-1497779911",
    "description": "KAWAII0503202021213",
    "title": "KAWAII0503202021213",
    "link_img": "https://live.staticflickr.com/65535/49727431766_e3e4f14fba_o.jpg",
    "id_image": "KAWAII0503202021213",
    "count_view": 0
  },
  {
    "link_thumb": "https://live.staticflickr.com/65535/49694092616_66efc7466f_n.jpg",
    "id_album": "1201366373",
    "description": "KAWAII120918224",
    "title": "KAWAII120918224",
    "link_img": "https://live.staticflickr.com/65535/49694092616_a1a1582151_o.jpg",
    "id_image": "KAWAII120918224",
    "count_view": 0
  },
  {
    "link_thumb": "https://live.staticflickr.com/65535/49548183848_ded9940ffb_n.jpg",
    "id_album": "-316663319",
    "description": "KAWAII1702202237312",
    "title": "KAWAII1702202237312",
    "link_img": "https://live.staticflickr.com/65535/49548183848_e66a9dce38_o.jpg",
    "id_image": "KAWAII1702202237312",
    "count_view": 0
  },
  {
    "link_thumb": "https://live.staticflickr.com/65535/49743237517_b351117ef9_n.jpg",
    "id_album": "-1497779911",
    "description": "KAWAII06042021491250",
    "title": "KAWAII06042021491250",
    "link_img": "https://live.staticflickr.com/65535/49743237517_e4792d6594_o.jpg",
    "id_image": "KAWAII06042021491250",
    "count_view": 0
  },
  {
    "link_thumb": "https://live.staticflickr.com/65535/49622830626_266953618e_n.jpg",
    "id_album": "-316663319",
    "description": "KAWAII0503202021296",
    "title": "KAWAII0503202021296",
    "link_img": "https://live.staticflickr.com/65535/49622830626_87f88097db_o.jpg",
    "id_image": "KAWAII0503202021296",
    "count_view": 0
  },
  {
    "link_thumb": "https://live.staticflickr.com/65535/49743270952_69c55ff46c_n.jpg",
    "id_album": "1396902986",
    "description": "KAWAII060420214912204",
    "title": "KAWAII060420214912204",
    "link_img": "https://live.staticflickr.com/65535/49743270952_1285abea5b_o.jpg",
    "id_image": "KAWAII060420214912204",
    "count_view": 0
  },
  {
    "link_thumb": "https://live.staticflickr.com/65535/49742406923_1631d0f5fc_n.jpg",
    "id_album": "-1431786825",
    "description": "KAWAII06042021491268",
    "title": "KAWAII06042021491268",
    "link_img": "https://live.staticflickr.com/65535/49742406923_797826b5f0_o.jpg",
    "id_image": "KAWAII06042021491268",
    "count_view": 0
  },
  {
    "link_thumb": "https://live.staticflickr.com/65535/49710822066_8d26e98f9b_n.jpg",
    "id_album": "-1599896063",
    "description": "LITTLEMONK29032012063819",
    "title": "LITTLEMONK29032012063819",
    "link_img": "https://live.staticflickr.com/65535/49710822066_fb594062e3_o.jpg",
    "id_image": "LITTLEMONK29032012063819",
    "count_view": 0
  },
  {
    "link_thumb": "https://live.staticflickr.com/65535/49548887602_4a0528ff2f_n.jpg",
    "id_album": "-1741487325",
    "description": "KAWAII1702202235188",
    "title": "KAWAII1702202235188",
    "link_img": "https://live.staticflickr.com/65535/49548887602_753e3e4750_o.jpg",
    "id_image": "KAWAII1702202235188",
    "count_view": 0
  },
  {
    "link_thumb": "https://live.staticflickr.com/65535/49694106931_e84516a41d_n.jpg",
    "id_album": "-643980979",
    "description": "KAWAII170220223443",
    "title": "KAWAII170220223443",
    "link_img": "https://live.staticflickr.com/65535/49694106931_9d7422bb05_o.jpg",
    "id_image": "KAWAII170220223443",
    "count_view": 0
  },
  {
    "link_thumb": "https://live.staticflickr.com/65535/49742935991_5706ce237f_n.jpg",
    "id_album": "-1473448477",
    "description": "KAWAII060420214915181",
    "title": "KAWAII060420214915181",
    "link_img": "https://live.staticflickr.com/65535/49742935991_5bf8ff0426_o.jpg",
    "id_image": "KAWAII060420214915181",
    "count_view": 0
  },
  {
    "link_thumb": "https://live.staticflickr.com/65535/49623077527_f75a4ccf12_n.jpg",
    "id_album": "1396902986",
    "description": "KAWAII050320202189",
    "title": "KAWAII050320202189",
    "link_img": "https://live.staticflickr.com/65535/49623077527_f93d23b57d_o.jpg",
    "id_image": "KAWAII050320202189",
    "count_view": 0
  },
  {
    "link_thumb": "https://live.staticflickr.com/65535/49548997357_9ce11ec73d_n.jpg",
    "id_album": "-1741487325",
    "description": "KAWAII17091842",
    "title": "KAWAII17091842",
    "link_img": "https://live.staticflickr.com/65535/49548997357_47b164462a_o.jpg",
    "id_image": "KAWAII17091842",
    "count_view": 0
  },
  {
    "link_thumb": "https://live.staticflickr.com/65535/49623071782_a7599b790b_n.jpg",
    "id_album": "1396902986",
    "description": "KAWAII0503202021122",
    "title": "KAWAII0503202021122",
    "link_img": "https://live.staticflickr.com/65535/49623071782_ea285afbfa_o.jpg",
    "id_image": "KAWAII0503202021122",
    "count_view": 0
  },
  {
    "link_thumb": "https://live.staticflickr.com/65535/49727754157_91cc09de26_n.jpg",
    "id_album": "-316663319",
    "description": "KAWAII020420194512160",
    "title": "KAWAII020420194512160",
    "link_img": "https://live.staticflickr.com/65535/49727754157_1ab4982a2a_o.jpg",
    "id_image": "KAWAII020420194512160",
    "count_view": 0
  },
  {
    "link_thumb": "https://live.staticflickr.com/65535/49552021163_d9561b31fa_n.jpg",
    "id_album": "-1694302085",
    "description": "KAWAII12091825180220205918",
    "title": "KAWAII12091825180220205918",
    "link_img": "https://live.staticflickr.com/65535/49552021163_bde41e67f8_o.jpg",
    "id_image": "KAWAII12091825180220205918",
    "count_view": 0
  },
  {
    "link_thumb": "https://live.staticflickr.com/65535/49548120603_dacbbc6809_n.jpg",
    "id_album": "-1099943053",
    "description": "KAWAII170220223310",
    "title": "KAWAII170220223310",
    "link_img": "https://live.staticflickr.com/65535/49548120603_9955480543_o.jpg",
    "id_image": "KAWAII170220223310",
    "count_view": 0
  },
  {
    "link_thumb": "https://live.staticflickr.com/65535/49552020238_5f3b69df12_n.jpg",
    "id_album": "431597977",
    "description": "KAWAII12091825180220205910",
    "title": "KAWAII12091825180220205910",
    "link_img": "https://live.staticflickr.com/65535/49552020238_8e8b804ebf_o.jpg",
    "id_image": "KAWAII12091825180220205910",
    "count_view": 0
  }
]