[
  {
    "link_thumb": "https://live.staticflickr.com/65535/49592207433_e6d261d1a6_n.jpg",
    "id_album": "-1741487325",
    "description": "KAWAII1702202237382",
    "title": "KAWAII1702202237382",
    "link_img": "https://live.staticflickr.com/65535/49592207433_5dde2b2cd3_o.jpg",
    "id_image": "KAWAII1702202237382",
    "count_view": 0
  },
  {
    "link_thumb": "https://live.staticflickr.com/65535/49727789982_c0d5cc323f_n.jpg",
    "id_album": "1226948986",
    "description": "KAWAII020420194509198",
    "title": "KAWAII020420194509198",
    "link_img": "https://live.staticflickr.com/65535/49727789982_3e0937c593_o.jpg",
    "id_image": "KAWAII020420194509198",
    "count_view": 0
  },
  {
    "link_thumb": "https://live.staticflickr.com/65535/49726888268_378c11866f_n.jpg",
    "id_album": "-316663319",
    "description": "KAWAII020420194507136",
    "title": "KAWAII020420194507136",
    "link_img": "https://live.staticflickr.com/65535/49726888268_6343a99482_o.jpg",
    "id_image": "KAWAII020420194507136",
    "count_view": 0
  },
  {
    "link_thumb": "https://live.staticflickr.com/65535/49694388417_0823b76ba4_n.jpg",
    "id_album": "1201366373",
    "description": "KAWAII120918162",
    "title": "KAWAII120918162",
    "link_img": "https://live.staticflickr.com/65535/49694388417_d1d490b578_o.jpg",
    "id_image": "KAWAII120918162",
    "count_view": 0
  },
  {
    "link_thumb": "https://live.staticflickr.com/65535/49623098177_593ccafa87_n.jpg",
    "id_album": "-316663319",
    "description": "KAWAII0503202021239",
    "title": "KAWAII0503202021239",
    "link_img": "https://live.staticflickr.com/65535/49623098177_df7a844bd6_o.jpg",
    "id_image": "KAWAII0503202021239",
    "count_view": 0
  },
  {
    "link_thumb": "https://live.staticflickr.com/65535/49694114116_91ecefcb2a_n.jpg",
    "id_album": "1201366373",
    "description": "KAWAII1702202239544",
    "title": "KAWAII1702202239544",
    "link_img": "https://live.staticflickr.com/65535/49694114116_740b4357a9_o.jpg",
    "id_image": "KAWAII1702202239544",
    "count_view": 0
  },
  {
    "link_thumb": "https://live.staticflickr.com/65535/49592715936_b6563ff9cf_n.jpg",
    "id_album": "-316663319",
    "description": "KAWAII2702202351151",
    "title": "KAWAII2702202351151",
    "link_img": "https://live.staticflickr.com/65535/49592715936_a826674ff2_o.jpg",
    "id_image": "KAWAII2702202351151",
    "count_view": 0
  },
  {
    "link_thumb": "https://live.staticflickr.com/65535/49743237037_f8b55e401d_n.jpg",
    "id_album": "-1497779911",
    "description": "KAWAII060420214912104",
    "title": "KAWAII060420214912104",
    "link_img": "https://live.staticflickr.com/65535/49743237037_7d4cda70dd_o.jpg",
    "id_image": "KAWAII060420214912104",
    "count_view": 0
  },
  {
    "link_thumb": "https://live.staticflickr.com/65535/49727755717_c911ae91a5_n.jpg",
    "id_album": "742877173",
    "description": "KAWAII020420194507215",
    "title": "KAWAII020420194507215",
    "link_img": "https://live.staticflickr.com/65535/49727755717_9a4a305ae8_o.jpg",
    "id_image": "KAWAII020420194507215",
    "count_view": 0
  },
  {
    "link_thumb": "https://live.staticflickr.com/65535/49727451156_2cb9eeaf11_n.jpg",
    "id_album": "742877173",
    "description": "KAWAII020420194513192",
    "title": "KAWAII020420194513192",
    "link_img": "https://live.staticflickr.com/65535/49727451156_412c0019a3_o.jpg",
    "id_image": "KAWAII020420194513192",
    "count_view": 0
  },
  {
    "link_thumb": "https://live.staticflickr.com/65535/49548729716_6f0234abdf_n.jpg",
    "id_album": "-422187261",
    "description": "KAWAII1702202238492",
    "title": "KAWAII1702202238492",
    "link_img": "https://live.staticflickr.com/65535/49548729716_ed726a82ce_o.jpg",
    "id_image": "KAWAII1702202238492",
    "count_view": 0
  },
  {
    "link_thumb": "https://live.staticflickr.com/65535/49548745676_34bdbfa0cf_n.jpg",
    "id_album": "431597977",
    "description": "KAWAII1702202239552",
    "title": "KAWAII1702202239552",
    "link_img": "https://live.staticflickr.com/65535/49548745676_c9217c51d5_o.jpg",
    "id_image": "KAWAII1702202239552",
    "count_view": 0
  },
  {
    "link_thumb": "https://live.staticflickr.com/65535/49548611391_66f9798221_n.jpg",
    "id_album": "-1432180061",
    "description": "KAWAII12091848",
    "title": "KAWAII12091848",
    "link_img": "https://live.staticflickr.com/65535/49548611391_173cf43b70_o.jpg",
    "id_image": "KAWAII12091848",
    "count_view": 0
  },
  {
    "link_thumb": "https://live.staticflickr.com/65535/49548883037_90f47a531b_n.jpg",
    "id_album": "-1099943053",
    "description": "KAWAII1702202235167",
    "title": "KAWAII1702202235167",
    "link_img": "https://live.staticflickr.com/65535/49548883037_5000aae354_o.jpg",
    "id_image": "KAWAII1702202235167",
    "count_view": 0
  },
  {
    "link_thumb": "https://live.staticflickr.com/65535/49548130028_19e352e618_n.jpg",
    "id_album": "431597977",
    "description": "KAWAII1702202234112",
    "title": "KAWAII1702202234112",
    "link_img": "https://live.staticflickr.com/65535/49548130028_a7604ab514_o.jpg",
    "id_image": "KAWAII1702202234112",
    "count_view": 0
  },
  {
    "link_thumb": "https://live.staticflickr.com/65535/49727759597_d1afff97f9_n.jpg",
    "id_album": "742877173",
    "description": "KAWAII020420194510107",
    "title": "KAWAII020420194510107",
    "link_img": "https://live.staticflickr.com/65535/49727759597_b05e372b1b_o.jpg",
    "id_image": "KAWAII020420194510107",
    "count_view": 0
  },
  {
    "link_thumb": "https://live.staticflickr.com/65535/49727450881_7c7958f382_n.jpg",
    "id_album": "742877173",
    "description": "KAWAII020420194513138",
    "title": "KAWAII020420194513138",
    "link_img": "https://live.staticflickr.com/65535/49727450881_916c922e16_o.jpg",
    "id_image": "KAWAII020420194513138",
    "count_view": 0
  },
  {
    "link_thumb": "https://live.staticflickr.com/65535/49578748666_73e1c62044_n.jpg",
    "id_album": "-422187261",
    "description": "KAWAII19022021117",
    "title": "KAWAII19022021117",
    "link_img": "https://live.staticflickr.com/65535/49578748666_5d76e47b1c_o.jpg",
    "id_image": "KAWAII19022021117",
    "count_view": 0
  },
  {
    "link_thumb": "https://live.staticflickr.com/65535/49693564098_3a86af7d55_n.jpg",
    "id_album": "1201366373",
    "description": "KAWAII170220223439",
    "title": "KAWAII170220223439",
    "link_img": "https://live.staticflickr.com/65535/49693564098_c448ab54f0_o.jpg",
    "id_image": "KAWAII170220223439",
    "count_view": 0
  },
  {
    "link_thumb": "https://live.staticflickr.com/65535/49548830407_1885e519e1_n.jpg",
    "id_album": "-1099943053",
    "description": "KAWAII120918351",
    "title": "KAWAII120918351",
    "link_img": "https://live.staticflickr.com/65535/49548830407_e3d8f85daa_o.jpg",
    "id_image": "KAWAII120918351",
    "count_view": 0
  },
  {
    "link_thumb": "https://live.staticflickr.com/65535/49548867492_3d9cb6c0b4_n.jpg",
    "id_album": "-316663319",
    "description": "KAWAII170220223468",
    "title": "KAWAII170220223468",
    "link_img": "https://live.staticflickr.com/65535/49548867492_84aca2cf5a_o.jpg",
    "id_image": "KAWAII170220223468",
    "count_view": 0
  },
  {
    "link_thumb": "https://live.staticflickr.com/65535/49726880823_8e2104a30d_n.jpg",
    "id_album": "-1694302085",
    "description": "KAWAII270220235124",
    "title": "KAWAII270220235124",
    "link_img": "https://live.staticflickr.com/65535/49726880823_a91d8682c0_o.jpg",
    "id_image": "KAWAII270220235124",
    "count_view": 0
  },
  {
    "link_thumb": "https://live.staticflickr.com/65535/49592711586_5567f36eaf_n.jpg",
    "id_album": "-1741487325",
    "description": "KAWAII270220235125",
    "title": "KAWAII270220235125",
    "link_img": "https://live.staticflickr.com/65535/49592711586_efbfdb630f_o.jpg",
    "id_image": "KAWAII270220235125",
    "count_view": 0
  },
  {
    "link_thumb": "https://live.staticflickr.com/65535/49549002497_aaa50141cc_n.jpg",
    "id_album": "-1741487325",
    "description": "KAWAII17091860",
    "title": "KAWAII17091860",
    "link_img": "https://live.staticflickr.com/65535/49549002497_07c7c5db22_o.jpg",
    "id_image": "KAWAII17091860",
    "count_view": 0
  },
  {
    "link_thumb": "https://live.staticflickr.com/65535/49548731631_730093018a_n.jpg",
    "id_album": "-422187261",
    "description": "KAWAII1702202238498",
    "title": "KAWAII1702202238498",
    "link_img": "https://live.staticflickr.com/65535/49548731631_cb19aed3bd_o.jpg",
    "id_image": "KAWAII1702202238498",
    "count_view": 0
  },
  {
    "link_thumb": "https://live.staticflickr.com/65535/49548913477_92e37deab5_n.jpg",
    "id_album": "-1432180061",
    "description": "KAWAII1702202237316",
    "title": "KAWAII1702202237316",
    "link_img": "https://live.staticflickr.com/65535/49548913477_c9c6ed692f_o.jpg",
    "id_image": "KAWAII1702202237316",
    "count_view": 0
  },
  {
    "link_thumb": "https://live.staticflickr.com/65535/49548864702_23c49122e7_n.jpg",
    "id_album": "-422187261",
    "description": "KAWAII170220223456",
    "title": "KAWAII170220223456",
    "link_img": "https://live.staticflickr.com/65535/49548864702_e87776d95f_o.jpg",
    "id_image": "KAWAII170220223456",
    "count_view": 0
  },
  {
    "link_thumb": "https://live.staticflickr.com/65535/49694532017_2f599c40e0_n.jpg",
    "id_album": "1226948986",
    "description": "KAWAII24032022050237",
    "title": "KAWAII24032022050237",
    "link_img": "https://live.staticflickr.com/65535/49694532017_1504776f2b_o.jpg",
    "id_image": "KAWAII24032022050237",
    "count_view": 0
  },
  {
    "link_thumb": "https://live.staticflickr.com/65535/49743268837_23516a0724_n.jpg",
    "id_album": "-1779286820",
    "description": "KAWAII060420214918103",
    "title": "KAWAII060420214918103",
    "link_img": "https://live.staticflickr.com/65535/49743268837_894b3edc40_o.jpg",
    "id_image": "KAWAII060420214918103",
    "count_view": 0
  },
  {
    "link_thumb": "https://live.staticflickr.com/65535/49548842647_98cc1d909e_n.jpg",
    "id_album": "-422187261",
    "description": "KAWAII12091866",
    "title": "KAWAII12091866",
    "link_img": "https://live.staticflickr.com/65535/49548842647_e426b9680e_o.jpg",
    "id_image": "KAWAII12091866",
    "count_view": 0
  },
  {
    "link_thumb": "https://live.staticflickr.com/65535/49743251107_e88cc269cf_n.jpg",
    "id_album": "-316663319",
    "description": "KAWAII060420214915164",
    "title": "KAWAII060420214915164",
    "link_img": "https://live.staticflickr.com/65535/49743251107_4266a8506e_o.jpg",
    "id_image": "KAWAII060420214915164",
    "count_view": 0
  },
  {
    "link_thumb": "https://live.staticflickr.com/65535/49622290498_4b0b08cd85_n.jpg",
    "id_album": "-1741487325",
    "description": "KAWAII0503202021117",
    "title": "KAWAII0503202021117",
    "link_img": "https://live.staticflickr.com/65535/49622290498_c9f4c4f7ae_o.jpg",
    "id_image": "KAWAII0503202021117",
    "count_view": 0
  },
  {
    "link_thumb": "https://live.staticflickr.com/65535/49548091663_f7151a01e2_n.jpg",
    "id_album": "-1741487325",
    "description": "KAWAII120918312",
    "title": "KAWAII120918312",
    "link_img": "https://live.staticflickr.com/65535/49548091663_14c5731e46_o.jpg",
    "id_image": "KAWAII120918312",
    "count_view": 0
  },
  {
    "link_thumb": "https://live.staticflickr.com/65535/49694218436_5e85cee4f6_n.jpg",
    "id_album": "-643980979",
    "description": "KAWAII24032022050213",
    "title": "KAWAII24032022050213",
    "link_img": "https://live.staticflickr.com/65535/49694218436_ac6a12492e_o.jpg",
    "id_image": "KAWAII24032022050213",
    "count_view": 0
  },
  {
    "link_thumb": "https://live.staticflickr.com/65535/49726883238_c1f6625ddc_n.jpg",
    "id_album": "-1497779911",
    "description": "KAWAII020420194512169",
    "title": "KAWAII020420194512169",
    "link_img": "https://live.staticflickr.com/65535/49726883238_e983ae8813_o.jpg",
    "id_image": "KAWAII020420194512169",
    "count_view": 0
  },
  {
    "link_thumb": "https://live.staticflickr.com/65535/49552026338_0531aab024_n.jpg",
    "id_album": "-316663319",
    "description": "KAWAII1209182518022020597",
    "title": "KAWAII1209182518022020597",
    "link_img": "https://live.staticflickr.com/65535/49552026338_a9506c28a3_o.jpg",
    "id_image": "KAWAII1209182518022020597",
    "count_view": 0
  },
  {
    "link_thumb": "https://live.staticflickr.com/65535/49623120682_9dbee26f80_n.jpg",
    "id_album": "-406350429",
    "description": "KAWAII0503202021316",
    "title": "KAWAII0503202021316",
    "link_img": "https://live.staticflickr.com/65535/49623120682_b6db381ece_o.jpg",
    "id_image": "KAWAII0503202021316",
    "count_view": 0
  },
  {
    "link_thumb": "https://live.staticflickr.com/65535/49592954487_25b10e6300_n.jpg",
    "id_album": "-1741487325",
    "description": "KAWAII270220235150",
    "title": "KAWAII270220235150",
    "link_img": "https://live.staticflickr.com/65535/49592954487_925a645ab0_o.jpg",
    "id_image": "KAWAII270220235150",
    "count_view": 0
  },
  {
    "link_thumb": "https://live.staticflickr.com/65535/49727754157_91cc09de26_n.jpg",
    "id_album": "-316663319",
    "description": "KAWAII020420194512160",
    "title": "KAWAII020420194512160",
    "link_img": "https://live.staticflickr.com/65535/49727754157_1ab4982a2a_o.jpg",
    "id_image": "KAWAII020420194512160",
    "count_view": 0
  },
  {
    "link_thumb": "https://live.staticflickr.com/65535/49727475936_5723e4d0a5_n.jpg",
    "id_album": "431597977",
    "description": "KAWAII020420194512109",
    "title": "KAWAII020420194512109",
    "link_img": "https://live.staticflickr.com/65535/49727475936_5f53df718a_o.jpg",
    "id_image": "KAWAII020420194512109",
    "count_view": 0
  },
  {
    "link_thumb": "https://live.staticflickr.com/65535/49693544633_dcb1b19422_n.jpg",
    "id_album": "1201366373",
    "description": "KAWAII120918183",
    "title": "KAWAII120918183",
    "link_img": "https://live.staticflickr.com/65535/49693544633_caf061f8dd_o.jpg",
    "id_image": "KAWAII120918183",
    "count_view": 0
  },
  {
    "link_thumb": "https://live.staticflickr.com/65535/49592711266_9f1c10e4a6_n.jpg",
    "id_album": "-1741487325",
    "description": "KAWAII2702202351135",
    "title": "KAWAII2702202351135",
    "link_img": "https://live.staticflickr.com/65535/49592711266_c98eb4866d_o.jpg",
    "id_image": "KAWAII2702202351135",
    "count_view": 0
  },
  {
    "link_thumb": "https://live.staticflickr.com/65535/49548274998_71e86743fb_n.jpg",
    "id_album": "-316663319",
    "description": "KAWAII17091859",
    "title": "KAWAII17091859",
    "link_img": "https://live.staticflickr.com/65535/49548274998_3834e0f3a6_o.jpg",
    "id_image": "KAWAII17091859",
    "count_view": 0
  },
  {
    "link_thumb": "https://live.staticflickr.com/65535/49592953772_c7408199a6_n.jpg",
    "id_album": "-1741487325",
    "description": "KAWAII2702202351122",
    "title": "KAWAII2702202351122",
    "link_img": "https://live.staticflickr.com/65535/49592953772_69dc6e9f46_o.jpg",
    "id_image": "KAWAII2702202351122",
    "count_view": 0
  },
  {
    "link_thumb": "https://live.staticflickr.com/65535/49742939801_400ce940f5_n.jpg",
    "id_album": "-1473448477",
    "description": "KAWAII06042021491554",
    "title": "KAWAII06042021491554",
    "link_img": "https://live.staticflickr.com/65535/49742939801_689f802c52_o.jpg",
    "id_image": "KAWAII06042021491554",
    "count_view": 0
  },
  {
    "link_thumb": "https://live.staticflickr.com/65535/49548695681_144e731b98_n.jpg",
    "id_album": "-422187261",
    "description": "KAWAII1702202237361",
    "title": "KAWAII1702202237361",
    "link_img": "https://live.staticflickr.com/65535/49548695681_c139b41cc7_o.jpg",
    "id_image": "KAWAII1702202237361",
    "count_view": 0
  },
  {
    "link_thumb": "https://live.staticflickr.com/65535/49548060263_8d7e848b2a_n.jpg",
    "id_album": "-1741487325",
    "description": "KAWAII120918173",
    "title": "KAWAII120918173",
    "link_img": "https://live.staticflickr.com/65535/49548060263_d35db328c4_o.jpg",
    "id_image": "KAWAII120918173",
    "count_view": 0
  },
  {
    "link_thumb": "https://live.staticflickr.com/65535/49548792212_18652bd969_n.jpg",
    "id_album": "-1694302085",
    "description": "KAWAII120918186",
    "title": "KAWAII120918186",
    "link_img": "https://live.staticflickr.com/65535/49548792212_2f9e4d6e30_o.jpg",
    "id_image": "KAWAII120918186",
    "count_view": 0
  },
  {
    "link_thumb": "https://live.staticflickr.com/65535/49726926883_0fd5102fc0_n.jpg",
    "id_album": "1563362783",
    "description": "KAWAII1702202236280",
    "title": "KAWAII1702202236280",
    "link_img": "https://live.staticflickr.com/65535/49726926883_5f89a6c30c_o.jpg",
    "id_image": "KAWAII1702202236280",
    "count_view": 0
  },
  {
    "link_thumb": "https://live.staticflickr.com/65535/49548110983_1e71a4b2c7_n.jpg",
    "id_album": "-1432180061",
    "description": "KAWAII12091854",
    "title": "KAWAII12091854",
    "link_img": "https://live.staticflickr.com/65535/49548110983_320ca9e4dc_o.jpg",
    "id_image": "KAWAII12091854",
    "count_view": 0
  },
  {
    "link_thumb": "https://live.staticflickr.com/65535/49622288943_90697e855d_n.jpg",
    "id_album": "1396902986",
    "description": "KAWAII050320202129",
    "title": "KAWAII050320202129",
    "link_img": "https://live.staticflickr.com/65535/49622288943_d342a9aaf7_o.jpg",
    "id_image": "KAWAII050320202129",
    "count_view": 0
  },
  {
    "link_thumb": "https://live.staticflickr.com/65535/49694064701_895becb57c_n.jpg",
    "id_album": "1699819648",
    "description": "KAWAII0503202021286",
    "title": "KAWAII0503202021286",
    "link_img": "https://live.staticflickr.com/65535/49694064701_31e0c976d2_o.jpg",
    "id_image": "KAWAII0503202021286",
    "count_view": 0
  },
  {
    "link_thumb": "https://live.staticflickr.com/65535/49742901766_c98d36b777_n.jpg",
    "id_album": "-1913845949",
    "description": "KAWAII060420214913243",
    "title": "KAWAII060420214913243",
    "link_img": "https://live.staticflickr.com/65535/49742901766_c77c801731_o.jpg",
    "id_image": "KAWAII060420214913243",
    "count_view": 0
  },
  {
    "link_thumb": "https://live.staticflickr.com/65535/49694396762_e664b34e90_n.jpg",
    "id_album": "1201366373",
    "description": "KAWAII120918244",
    "title": "KAWAII120918244",
    "link_img": "https://live.staticflickr.com/65535/49694396762_f82715b938_o.jpg",
    "id_image": "KAWAII120918244",
    "count_view": 0
  },
  {
    "link_thumb": "https://live.staticflickr.com/65535/49623096177_6bc24dae6a_n.jpg",
    "id_album": "-316663319",
    "description": "KAWAII0503202021215",
    "title": "KAWAII0503202021215",
    "link_img": "https://live.staticflickr.com/65535/49623096177_b449b4e1d1_o.jpg",
    "id_image": "KAWAII0503202021215",
    "count_view": 0
  },
  {
    "link_thumb": "https://live.staticflickr.com/65535/49592209268_d679ee2f10_n.jpg",
    "id_album": "-1432180061",
    "description": "KAWAII270220235138",
    "title": "KAWAII270220235138",
    "link_img": "https://live.staticflickr.com/65535/49592209268_998a8a6dfe_o.jpg",
    "id_image": "KAWAII270220235138",
    "count_view": 0
  },
  {
    "link_thumb": "https://live.staticflickr.com/65535/49742352583_6a2be094ce_n.jpg",
    "id_album": "-1913845949",
    "description": "KAWAII060420214912125",
    "title": "KAWAII060420214912125",
    "link_img": "https://live.staticflickr.com/65535/49742352583_485a149253_o.jpg",
    "id_image": "KAWAII060420214912125",
    "count_view": 0
  },
  {
    "link_thumb": "https://live.staticflickr.com/65535/49694395672_7f65285bda_n.jpg",
    "id_album": "1201366373",
    "description": "KAWAII120918230",
    "title": "KAWAII120918230",
    "link_img": "https://live.staticflickr.com/65535/49694395672_d8e7ccf8ef_o.jpg",
    "id_image": "KAWAII120918230",
    "count_view": 0
  },
  {
    "link_thumb": "https://live.staticflickr.com/65535/49592211593_d8bbd64d7a_n.jpg",
    "id_album": "-316663319",
    "description": "KAWAII2702202351116",
    "title": "KAWAII2702202351116",
    "link_img": "https://live.staticflickr.com/65535/49592211593_9bcae88091_o.jpg",
    "id_image": "KAWAII2702202351116",
    "count_view": 0
  },
  {
    "link_thumb": "https://live.staticflickr.com/65535/49742929001_e119c2c6f8_n.jpg",
    "id_album": "-316663319",
    "description": "KAWAII060420214915295",
    "title": "KAWAII060420214915295",
    "link_img": "https://live.staticflickr.com/65535/49742929001_b618cff33e_o.jpg",
    "id_image": "KAWAII060420214915295",
    "count_view": 0
  },
  {
    "link_thumb": "https://live.staticflickr.com/65535/49622841731_293aeeafdf_n.jpg",
    "id_album": "-406350429",
    "description": "KAWAII0503202021110",
    "title": "KAWAII0503202021110",
    "link_img": "https://live.staticflickr.com/65535/49622841731_32a943eaf2_o.jpg",
    "id_image": "KAWAII0503202021110",
    "count_view": 0
  },
  {
    "link_thumb": "https://live.staticflickr.com/65535/49552022963_0a629afafb_n.jpg",
    "id_album": "-1694302085",
    "description": "KAWAII12091825180220205931",
    "title": "KAWAII12091825180220205931",
    "link_img": "https://live.staticflickr.com/65535/49552022963_5b8deaced8_o.jpg",
    "id_image": "KAWAII12091825180220205931",
    "count_view": 0
  },
  {
    "link_thumb": "https://live.staticflickr.com/65535/49622288518_cd3af19a45_n.jpg",
    "id_album": "1396902986",
    "description": "KAWAII0503202021279",
    "title": "KAWAII0503202021279",
    "link_img": "https://live.staticflickr.com/65535/49622288518_572274970f_o.jpg",
    "id_image": "KAWAII0503202021279",
    "count_view": 0
  },
  {
    "link_thumb": "https://live.staticflickr.com/65535/49743254072_012f4c650a_n.jpg",
    "id_album": "-316663319",
    "description": "KAWAII06042021491586",
    "title": "KAWAII06042021491586",
    "link_img": "https://live.staticflickr.com/65535/49743254072_b73232a519_o.jpg",
    "id_image": "KAWAII06042021491586",
    "count_view": 0
  },
  {
    "link_thumb": "https://live.staticflickr.com/65535/49711147087_1133d035f7_n.jpg",
    "id_album": "-1599896063",
    "description": "LITTLEMONK2903201206423",
    "title": "LITTLEMONK2903201206423",
    "link_img": "https://live.staticflickr.com/65535/49711147087_9ba71648ca_o.jpg",
    "id_image": "LITTLEMONK2903201206423",
    "count_view": 0
  },
  {
    "link_thumb": "https://live.staticflickr.com/65535/49694123786_4dfbc91314_n.jpg",
    "id_album": "-358592519",
    "description": "KAWAII12091813",
    "title": "KAWAII12091813",
    "link_img": "https://live.staticflickr.com/65535/49694123786_e816227923_o.jpg",
    "id_image": "KAWAII12091813",
    "count_view": 0
  },
  {
    "link_thumb": "https://live.staticflickr.com/65535/49693548158_722aeebe32_n.jpg",
    "id_album": "1201366373",
    "description": "KAWAII120918215",
    "title": "KAWAII120918215",
    "link_img": "https://live.staticflickr.com/65535/49693548158_be2525a8f3_o.jpg",
    "id_image": "KAWAII120918215",
    "count_view": 0
  },
  {
    "link_thumb": "https://live.staticflickr.com/65535/49711147167_74ea5921e5_n.jpg",
    "id_album": "-1599896063",
    "description": "LITTLEMONK2903201206428",
    "title": "LITTLEMONK2903201206428",
    "link_img": "https://live.staticflickr.com/65535/49711147167_a8450135b1_o.jpg",
    "id_image": "LITTLEMONK2903201206428",
    "count_view": 0
  },
  {
    "link_thumb": "https://live.staticflickr.com/65535/49592732326_ec544b524b_n.jpg",
    "id_album": "949200594",
    "description": "KAWAII27022023513",
    "title": "KAWAII27022023513",
    "link_img": "https://live.staticflickr.com/65535/49592732326_5d44a7d439_o.jpg",
    "id_image": "KAWAII27022023513",
    "count_view": 0
  },
  {
    "link_thumb": "https://live.staticflickr.com/65535/49742376258_e2dfae3b26_n.jpg",
    "id_album": "-316663319",
    "description": "KAWAII06042021491321",
    "title": "KAWAII06042021491321",
    "link_img": "https://live.staticflickr.com/65535/49742376258_131657c0c2_o.jpg",
    "id_image": "KAWAII06042021491321",
    "count_view": 0
  },
  {
    "link_thumb": "https://live.staticflickr.com/65535/49742371068_caeff428eb_n.jpg",
    "id_album": "-128218148",
    "description": "KAWAII060420214912219",
    "title": "KAWAII060420214912219",
    "link_img": "https://live.staticflickr.com/65535/49742371068_280547c0b0_o.jpg",
    "id_image": "KAWAII060420214912219",
    "count_view": 0
  },
  {
    "link_thumb": "https://live.staticflickr.com/65535/49548681796_a26cc947ba_n.jpg",
    "id_album": "-422187261",
    "description": "KAWAII1702202236299",
    "title": "KAWAII1702202236299",
    "link_img": "https://live.staticflickr.com/65535/49548681796_cb8451079e_o.jpg",
    "id_image": "KAWAII1702202236299",
    "count_view": 0
  },
  {
    "link_thumb": "https://live.staticflickr.com/65535/49743264657_6b99584462_n.jpg",
    "id_album": "-1473448477",
    "description": "KAWAII06042021491622",
    "title": "KAWAII06042021491622",
    "link_img": "https://live.staticflickr.com/65535/49743264657_4a600af82d_o.jpg",
    "id_image": "KAWAII06042021491622",
    "count_view": 0
  },
  {
    "link_thumb": "https://live.staticflickr.com/65535/49743271612_8c125a7b2b_n.jpg",
    "id_album": "1396902986",
    "description": "KAWAII060420214914166",
    "title": "KAWAII060420214914166",
    "link_img": "https://live.staticflickr.com/65535/49743271612_9a21133be0_o.jpg",
    "id_image": "KAWAII060420214914166",
    "count_view": 0
  },
  {
    "link_thumb": "https://live.staticflickr.com/65535/49742958826_9d73988b98_n.jpg",
    "id_album": "1226948986",
    "description": "KAWAII060420214918254",
    "title": "KAWAII060420214918254",
    "link_img": "https://live.staticflickr.com/65535/49742958826_454e3e0b10_o.jpg",
    "id_image": "KAWAII060420214918254",
    "count_view": 0
  },
  {
    "link_thumb": "https://live.staticflickr.com/65535/49548151668_ac730e667d_n.jpg",
    "id_album": "1396902986",
    "description": "KAWAII1702202235154",
    "title": "KAWAII1702202235154",
    "link_img": "https://live.staticflickr.com/65535/49548151668_debae88f50_o.jpg",
    "id_image": "KAWAII1702202235154",
    "count_view": 0
  },
  {
    "link_thumb": "https://live.staticflickr.com/65535/49693582773_e50cbac94e_n.jpg",
    "id_album": "-358592519",
    "description": "KAWAII1702202238483",
    "title": "KAWAII1702202238483",
    "link_img": "https://live.staticflickr.com/65535/49693582773_bc3a7397b2_o.jpg",
    "id_image": "KAWAII1702202238483",
    "count_view": 0
  },
  {
    "link_thumb": "https://live.staticflickr.com/65535/49552519201_d4571ef7f6_n.jpg",
    "id_album": "-1694302085",
    "description": "KAWAII12091825180220205927",
    "title": "KAWAII12091825180220205927",
    "link_img": "https://live.staticflickr.com/65535/49552519201_c1699e990d_o.jpg",
    "id_image": "KAWAII12091825180220205927",
    "count_view": 0
  },
  {
    "link_thumb": "https://live.staticflickr.com/65535/49742393218_dc38b39716_n.jpg",
    "id_album": "-1473448477",
    "description": "KAWAII06042021491598",
    "title": "KAWAII06042021491598",
    "link_img": "https://live.staticflickr.com/65535/49742393218_3c0017912a_o.jpg",
    "id_image": "KAWAII06042021491598",
    "count_view": 0
  },
  {
    "link_thumb": "https://live.staticflickr.com/65535/49742362603_1a5c03cb89_n.jpg",
    "id_album": "-1694302085",
    "description": "KAWAII060420214913294",
    "title": "KAWAII060420214913294",
    "link_img": "https://live.staticflickr.com/65535/49742362603_df8428ccb2_o.jpg",
    "id_image": "KAWAII060420214913294",
    "count_view": 0
  },
  {
    "link_thumb": "https://live.staticflickr.com/65535/49726884778_087ace6f08_n.jpg",
    "id_album": "-1497779911",
    "description": "KAWAII0503202021248",
    "title": "KAWAII0503202021248",
    "link_img": "https://live.staticflickr.com/65535/49726884778_9344b62852_o.jpg",
    "id_image": "KAWAII0503202021248",
    "count_view": 0
  },
  {
    "link_thumb": "https://live.staticflickr.com/65535/49694423752_6f90b793a7_n.jpg",
    "id_album": "-643980979",
    "description": "KAWAII2702202351148",
    "title": "KAWAII2702202351148",
    "link_img": "https://live.staticflickr.com/65535/49694423752_47092cfd73_o.jpg",
    "id_image": "KAWAII2702202351148",
    "count_view": 0
  },
  {
    "link_thumb": "https://live.staticflickr.com/65535/49743278442_bc32367502_n.jpg",
    "id_album": "-1431786825",
    "description": "KAWAII060420214914189",
    "title": "KAWAII060420214914189",
    "link_img": "https://live.staticflickr.com/65535/49743278442_2e24886911_o.jpg",
    "id_image": "KAWAII060420214914189",
    "count_view": 0
  },
  {
    "link_thumb": "https://live.staticflickr.com/65535/49693576513_e6ef2f63db_n.jpg",
    "id_album": "-643980979",
    "description": "KAWAII17091817",
    "title": "KAWAII17091817",
    "link_img": "https://live.staticflickr.com/65535/49693576513_2cdda0be50_o.jpg",
    "id_image": "KAWAII17091817",
    "count_view": 0
  },
  {
    "link_thumb": "https://live.staticflickr.com/65535/49623106012_72c5b795af_n.jpg",
    "id_album": "-316663319",
    "description": "KAWAII0503202021329",
    "title": "KAWAII0503202021329",
    "link_img": "https://live.staticflickr.com/65535/49623106012_690d803bf8_o.jpg",
    "id_image": "KAWAII0503202021329",
    "count_view": 0
  },
  {
    "link_thumb": "https://live.staticflickr.com/65535/49548824417_efffec8b98_n.jpg",
    "id_album": "-1741487325",
    "description": "KAWAII120918328",
    "title": "KAWAII120918328",
    "link_img": "https://live.staticflickr.com/65535/49548824417_a9b7e9303d_o.jpg",
    "id_image": "KAWAII120918328",
    "count_view": 0
  },
  {
    "link_thumb": "https://live.staticflickr.com/65535/49548547066_a5fcae1d0d_n.jpg",
    "id_album": "-1741487325",
    "description": "KAWAII120918111",
    "title": "KAWAII120918111",
    "link_img": "https://live.staticflickr.com/65535/49548547066_58e63364cd_o.jpg",
    "id_image": "KAWAII120918111",
    "count_view": 0
  },
  {
    "link_thumb": "https://live.staticflickr.com/65535/49548145178_bde6cbb3d3_n.jpg",
    "id_album": "431597977",
    "description": "KAWAII170220223498",
    "title": "KAWAII170220223498",
    "link_img": "https://live.staticflickr.com/65535/49548145178_692491b783_o.jpg",
    "id_image": "KAWAII170220223498",
    "count_view": 0
  },
  {
    "link_thumb": "https://live.staticflickr.com/65535/49726884248_c550e37219_n.jpg",
    "id_album": "-1497779911",
    "description": "KAWAII0503202021211",
    "title": "KAWAII0503202021211",
    "link_img": "https://live.staticflickr.com/65535/49726884248_2c3b65451c_o.jpg",
    "id_image": "KAWAII0503202021211",
    "count_view": 0
  },
  {
    "link_thumb": "https://live.staticflickr.com/65535/49622291638_2e4139d76c_n.jpg",
    "id_album": "-1741487325",
    "description": "KAWAII0503202021160",
    "title": "KAWAII0503202021160",
    "link_img": "https://live.staticflickr.com/65535/49622291638_95aaffd762_o.jpg",
    "id_image": "KAWAII0503202021160",
    "count_view": 0
  },
  {
    "link_thumb": "https://live.staticflickr.com/65535/49742934526_c63d1f7c1c_n.jpg",
    "id_album": "-1473448477",
    "description": "KAWAII060420214915112",
    "title": "KAWAII060420214915112",
    "link_img": "https://live.staticflickr.com/65535/49742934526_e387f14521_o.jpg",
    "id_image": "KAWAII060420214915112",
    "count_view": 0
  },
  {
    "link_thumb": "https://live.staticflickr.com/65535/49592207698_9b9319dfcf_n.jpg",
    "id_album": "-1741487325",
    "description": "KAWAII1702202238422",
    "title": "KAWAII1702202238422",
    "link_img": "https://live.staticflickr.com/65535/49592207698_6744df8991_o.jpg",
    "id_image": "KAWAII1702202238422",
    "count_view": 0
  },
  {
    "link_thumb": "https://live.staticflickr.com/65535/49623103777_0910e27b3b_n.jpg",
    "id_album": "-316663319",
    "description": "KAWAII0503202021305",
    "title": "KAWAII0503202021305",
    "link_img": "https://live.staticflickr.com/65535/49623103777_4d46ebfa7a_o.jpg",
    "id_image": "KAWAII0503202021305",
    "count_view": 0
  },
  {
    "link_thumb": "https://live.staticflickr.com/65535/49726897878_1ed0277fe2_n.jpg",
    "id_album": "742877173",
    "description": "KAWAII020420194510141",
    "title": "KAWAII020420194510141",
    "link_img": "https://live.staticflickr.com/65535/49726897878_f615fe128a_o.jpg",
    "id_image": "KAWAII020420194510141",
    "count_view": 0
  },
  {
    "link_thumb": "https://live.staticflickr.com/65535/49727443746_39772e8c52_n.jpg",
    "id_album": "742877173",
    "description": "KAWAII02042019450912",
    "title": "KAWAII02042019450912",
    "link_img": "https://live.staticflickr.com/65535/49727443746_cf6dea5443_o.jpg",
    "id_image": "KAWAII02042019450912",
    "count_view": 0
  },
  {
    "link_thumb": "https://live.staticflickr.com/65535/49743250537_732aca461a_n.jpg",
    "id_album": "-316663319",
    "description": "KAWAII060420214915109",
    "title": "KAWAII060420214915109",
    "link_img": "https://live.staticflickr.com/65535/49743250537_1019c71c32_o.jpg",
    "id_image": "KAWAII060420214915109",
    "count_view": 0
  },
  {
    "link_thumb": "https://live.staticflickr.com/65535/49694129991_fbaa985ab2_n.jpg",
    "id_album": "1226948986",
    "description": "TOTORO22032015427",
    "title": "TOTORO22032015427",
    "link_img": "https://live.staticflickr.com/65535/49694129991_6217e3c921_o.jpg",
    "id_image": "TOTORO22032015427",
    "count_view": 0
  },
  {
    "link_thumb": "https://live.staticflickr.com/65535/49548575331_8576900620_n.jpg",
    "id_album": "-316663319",
    "description": "KAWAII120918231",
    "title": "KAWAII120918231",
    "link_img": "https://live.staticflickr.com/65535/49548575331_cc77fbf7e5_o.jpg",
    "id_image": "KAWAII120918231",
    "count_view": 0
  },
  {
    "link_thumb": "https://live.staticflickr.com/65535/49623076102_0d129df886_n.jpg",
    "id_album": "1396902986",
    "description": "KAWAII0503202021289",
    "title": "KAWAII0503202021289",
    "link_img": "https://live.staticflickr.com/65535/49623076102_1e9527d4c5_o.jpg",
    "id_image": "KAWAII0503202021289",
    "count_view": 0
  },
  {
    "link_thumb": "https://live.staticflickr.com/65535/49694405907_df658c7e09_n.jpg",
    "id_album": "1201366373",
    "description": "KAWAII12091867",
    "title": "KAWAII12091867",
    "link_img": "https://live.staticflickr.com/65535/49694405907_16355d3222_o.jpg",
    "id_image": "KAWAII12091867",
    "count_view": 0
  },
  {
    "link_thumb": "https://live.staticflickr.com/65535/49548783112_1458102d7c_n.jpg",
    "id_album": "-422187261",
    "description": "KAWAII120918147",
    "title": "KAWAII120918147",
    "link_img": "https://live.staticflickr.com/65535/49548783112_bc54d6cfca_o.jpg",
    "id_image": "KAWAII120918147",
    "count_view": 0
  },
  {
    "link_thumb": "https://live.staticflickr.com/65535/49727781257_ec3d442756_n.jpg",
    "id_album": "-1862561193",
    "description": "KAWAII020420194509212",
    "title": "KAWAII020420194509212",
    "link_img": "https://live.staticflickr.com/65535/49727781257_cd45f4ed66_o.jpg",
    "id_image": "KAWAII020420194509212",
    "count_view": 0
  },
  {
    "link_thumb": "https://live.staticflickr.com/65535/49694395392_08a2bd609a_n.jpg",
    "id_album": "1201366373",
    "description": "KAWAII120918227",
    "title": "KAWAII120918227",
    "link_img": "https://live.staticflickr.com/65535/49694395392_53d4fb2179_o.jpg",
    "id_image": "KAWAII120918227",
    "count_view": 0
  },
  {
    "link_thumb": "https://live.staticflickr.com/65535/49727437436_c6c1274a44_n.jpg",
    "id_album": "-316663319",
    "description": "KAWAII020420194510260",
    "title": "KAWAII020420194510260",
    "link_img": "https://live.staticflickr.com/65535/49727437436_fdae47b3bc_o.jpg",
    "id_image": "KAWAII020420194510260",
    "count_view": 0
  },
  {
    "link_thumb": "https://live.staticflickr.com/65535/49592961752_8a46053810_n.jpg",
    "id_album": "-316663319",
    "description": "KAWAII270220235165",
    "title": "KAWAII270220235165",
    "link_img": "https://live.staticflickr.com/65535/49592961752_f7ab543b0a_o.jpg",
    "id_image": "KAWAII270220235165",
    "count_view": 0
  },
  {
    "link_thumb": "https://live.staticflickr.com/65535/49622282488_3d68eeeb21_n.jpg",
    "id_album": "-422187261",
    "description": "KAWAII05032020214",
    "title": "KAWAII05032020214",
    "link_img": "https://live.staticflickr.com/65535/49622282488_75d958fc73_o.jpg",
    "id_image": "KAWAII05032020214",
    "count_view": 0
  },
  {
    "link_thumb": "https://live.staticflickr.com/65535/49693548643_f895171502_n.jpg",
    "id_album": "-643980979",
    "description": "KAWAII120918221",
    "title": "KAWAII120918221",
    "link_img": "https://live.staticflickr.com/65535/49693548643_4a459079ff_o.jpg",
    "id_image": "KAWAII120918221",
    "count_view": 0
  },
  {
    "link_thumb": "https://live.staticflickr.com/65535/49622845556_8beb801bb0_n.jpg",
    "id_album": "-406350429",
    "description": "KAWAII0503202021243",
    "title": "KAWAII0503202021243",
    "link_img": "https://live.staticflickr.com/65535/49622845556_e6dd85b368_o.jpg",
    "id_image": "KAWAII0503202021243",
    "count_view": 0
  },
  {
    "link_thumb": "https://live.staticflickr.com/65535/49694531007_1e94f1ab70_n.jpg",
    "id_album": "1226948986",
    "description": "KAWAII24032022050218",
    "title": "KAWAII24032022050218",
    "link_img": "https://live.staticflickr.com/65535/49694531007_44459561a6_o.jpg",
    "id_image": "KAWAII24032022050218",
    "count_view": 0
  },
  {
    "link_thumb": "https://live.staticflickr.com/65535/49694393827_79181ed563_n.jpg",
    "id_album": "-643980979",
    "description": "KAWAII120918210",
    "title": "KAWAII120918210",
    "link_img": "https://live.staticflickr.com/65535/49694393827_2b14e6a69c_o.jpg",
    "id_image": "KAWAII120918210",
    "count_view": 0
  },
  {
    "link_thumb": "https://live.staticflickr.com/65535/49727752447_13493c610e_n.jpg",
    "id_album": "-316663319",
    "description": "KAWAII02042019451031",
    "title": "KAWAII02042019451031",
    "link_img": "https://live.staticflickr.com/65535/49727752447_5c7a9ecc13_o.jpg",
    "id_image": "KAWAII02042019451031",
    "count_view": 0
  },
  {
    "link_thumb": "https://live.staticflickr.com/65535/49693556048_0c840bf754_n.jpg",
    "id_album": "1201366373",
    "description": "KAWAII120918284",
    "title": "KAWAII120918284",
    "link_img": "https://live.staticflickr.com/65535/49693556048_4db1d42147_o.jpg",
    "id_image": "KAWAII120918284",
    "count_view": 0
  },
  {
    "link_thumb": "https://live.staticflickr.com/65535/49742900241_e939992b5b_n.jpg",
    "id_album": "-1913845949",
    "description": "KAWAII06042021491144",
    "title": "KAWAII06042021491144",
    "link_img": "https://live.staticflickr.com/65535/49742900241_c60f6d444d_o.jpg",
    "id_image": "KAWAII06042021491144",
    "count_view": 0
  },
  {
    "link_thumb": "https://live.staticflickr.com/65535/49742383978_dc2f7e6b51_n.jpg",
    "id_album": "-316663319",
    "description": "KAWAII060420214917274",
    "title": "KAWAII060420214917274",
    "link_img": "https://live.staticflickr.com/65535/49742383978_41a4e29da8_o.jpg",
    "id_image": "KAWAII060420214917274",
    "count_view": 0
  },
  {
    "link_thumb": "https://live.staticflickr.com/65535/49623101327_a4ea561390_n.jpg",
    "id_album": "-316663319",
    "description": "KAWAII0503202021283",
    "title": "KAWAII0503202021283",
    "link_img": "https://live.staticflickr.com/65535/49623101327_b84e9853b2_o.jpg",
    "id_image": "KAWAII0503202021283",
    "count_view": 0
  },
  {
    "link_thumb": "https://live.staticflickr.com/65535/49742409188_22e72030a2_n.jpg",
    "id_album": "-1431786825",
    "description": "KAWAII060420214917183",
    "title": "KAWAII060420214917183",
    "link_img": "https://live.staticflickr.com/65535/49742409188_e13fbcc783_o.jpg",
    "id_image": "KAWAII060420214917183",
    "count_view": 0
  },
  {
    "link_thumb": "https://live.staticflickr.com/65535/49548866362_12816ef6b5_n.jpg",
    "id_album": "-1432180061",
    "description": "KAWAII170220223463",
    "title": "KAWAII170220223463",
    "link_img": "https://live.staticflickr.com/65535/49548866362_4041334eae_o.jpg",
    "id_image": "KAWAII170220223463",
    "count_view": 0
  },
  {
    "link_thumb": "https://live.staticflickr.com/65535/49548648206_fc77f7e2f5_n.jpg",
    "id_album": "1396902986",
    "description": "KAWAII1702202235130",
    "title": "KAWAII1702202235130",
    "link_img": "https://live.staticflickr.com/65535/49548648206_5d6c93a8e1_o.jpg",
    "id_image": "KAWAII1702202235130",
    "count_view": 0
  },
  {
    "link_thumb": "https://live.staticflickr.com/65535/49743269112_a8e02d0f29_n.jpg",
    "id_album": "-1779286820",
    "description": "KAWAII060420214918209",
    "title": "KAWAII060420214918209",
    "link_img": "https://live.staticflickr.com/65535/49743269112_803209a4a3_o.jpg",
    "id_image": "KAWAII060420214918209",
    "count_view": 0
  },
  {
    "link_thumb": "https://live.staticflickr.com/65535/49694385017_b791a594e0_n.jpg",
    "id_album": "1201366373",
    "description": "KAWAII12091812",
    "title": "KAWAII12091812",
    "link_img": "https://live.staticflickr.com/65535/49694385017_dd00ae1d86_o.jpg",
    "id_image": "KAWAII12091812",
    "count_view": 0
  },
  {
    "link_thumb": "https://live.staticflickr.com/65535/49592707881_8f77d6f622_n.jpg",
    "id_album": "1396902986",
    "description": "KAWAII270220235122",
    "title": "KAWAII270220235122",
    "link_img": "https://live.staticflickr.com/65535/49592707881_cdd5baa49e_o.jpg",
    "id_image": "KAWAII270220235122",
    "count_view": 0
  },
  {
    "link_thumb": "https://live.staticflickr.com/65535/49742933571_6e9e9f413c_n.jpg",
    "id_album": "742877173",
    "description": "KAWAII060420214918237",
    "title": "KAWAII060420214918237",
    "link_img": "https://live.staticflickr.com/65535/49742933571_e39f3a2b2a_o.jpg",
    "id_image": "KAWAII060420214918237",
    "count_view": 0
  },
  {
    "link_thumb": "https://live.staticflickr.com/65535/49694424167_9ca4b99ed0_n.jpg",
    "id_album": "-643980979",
    "description": "KAWAII2702202351163",
    "title": "KAWAII2702202351163",
    "link_img": "https://live.staticflickr.com/65535/49694424167_56c10c06d2_o.jpg",
    "id_image": "KAWAII2702202351163",
    "count_view": 0
  },
  {
    "link_thumb": "https://live.staticflickr.com/65535/49548630381_63d31e5726_n.jpg",
    "id_album": "-1432180061",
    "description": "KAWAII1702202234106",
    "title": "KAWAII1702202234106",
    "link_img": "https://live.staticflickr.com/65535/49548630381_ede726d8da_o.jpg",
    "id_image": "KAWAII1702202234106",
    "count_view": 0
  },
  {
    "link_thumb": "https://live.staticflickr.com/65535/49743281657_9e4050ddeb_n.jpg",
    "id_album": "1226948986",
    "description": "KAWAII060420214918100",
    "title": "KAWAII060420214918100",
    "link_img": "https://live.staticflickr.com/65535/49743281657_b5d2110d32_o.jpg",
    "id_image": "KAWAII060420214918100",
    "count_view": 0
  },
  {
    "link_thumb": "https://live.staticflickr.com/65535/49694388992_a614bef23a_n.jpg",
    "id_album": "1201366373",
    "description": "KAWAII120918168",
    "title": "KAWAII120918168",
    "link_img": "https://live.staticflickr.com/65535/49694388992_28366d1188_o.jpg",
    "id_image": "KAWAII120918168",
    "count_view": 0
  },
  {
    "link_thumb": "https://live.staticflickr.com/65535/49727790872_fe112749e1_n.jpg",
    "id_album": "431597977",
    "description": "KAWAII0204201945124",
    "title": "KAWAII0204201945124",
    "link_img": "https://live.staticflickr.com/65535/49727790872_fed9586986_o.jpg",
    "id_image": "KAWAII0204201945124",
    "count_view": 0
  },
  {
    "link_thumb": "https://live.staticflickr.com/65535/49742931951_0bf3561d19_n.jpg",
    "id_album": "-316663319",
    "description": "KAWAII060420214917289",
    "title": "KAWAII060420214917289",
    "link_img": "https://live.staticflickr.com/65535/49742931951_2356bb7793_o.jpg",
    "id_image": "KAWAII060420214917289",
    "count_view": 0
  },
  {
    "link_thumb": "https://live.staticflickr.com/65535/49548659521_aa9eaafa9e_n.jpg",
    "id_album": "-422187261",
    "description": "KAWAII1702202235187",
    "title": "KAWAII1702202235187",
    "link_img": "https://live.staticflickr.com/65535/49548659521_185a302931_o.jpg",
    "id_image": "KAWAII1702202235187",
    "count_view": 0
  },
  {
    "link_thumb": "https://live.staticflickr.com/65535/49743226692_5476773f2b_n.jpg",
    "id_album": "-1913845949",
    "description": "KAWAII060420214915145",
    "title": "KAWAII060420214915145",
    "link_img": "https://live.staticflickr.com/65535/49743226692_8d41fa8dc2_o.jpg",
    "id_image": "KAWAII060420214915145",
    "count_view": 0
  },
  {
    "link_thumb": "https://live.staticflickr.com/65535/49742906436_89f93e8695_n.jpg",
    "id_album": "1699819648",
    "description": "KAWAII02042019450858",
    "title": "KAWAII02042019450858",
    "link_img": "https://live.staticflickr.com/65535/49742906436_63f0d7b2be_o.jpg",
    "id_image": "KAWAII02042019450858",
    "count_view": 0
  },
  {
    "link_thumb": "https://live.staticflickr.com/65535/49548624096_f438edf6e3_n.jpg",
    "id_album": "1396902986",
    "description": "KAWAII170220223318",
    "title": "KAWAII170220223318",
    "link_img": "https://live.staticflickr.com/65535/49548624096_5f1f26a17b_o.jpg",
    "id_image": "KAWAII170220223318",
    "count_view": 0
  },
  {
    "link_thumb": "https://live.staticflickr.com/65535/49694092616_66efc7466f_n.jpg",
    "id_album": "1201366373",
    "description": "KAWAII120918224",
    "title": "KAWAII120918224",
    "link_img": "https://live.staticflickr.com/65535/49694092616_a1a1582151_o.jpg",
    "id_image": "KAWAII120918224",
    "count_view": 0
  },
  {
    "link_thumb": "https://live.staticflickr.com/65535/49548106158_d03a1ba093_n.jpg",
    "id_album": "-1741487325",
    "description": "KAWAII120918372",
    "title": "KAWAII120918372",
    "link_img": "https://live.staticflickr.com/65535/49548106158_77f555b9e7_o.jpg",
    "id_image": "KAWAII120918372",
    "count_view": 0
  },
  {
    "link_thumb": "https://live.staticflickr.com/65535/49693562268_2210e22661_n.jpg",
    "id_album": "1201366373",
    "description": "KAWAII12091899",
    "title": "KAWAII12091899",
    "link_img": "https://live.staticflickr.com/65535/49693562268_e18dd1bf79_o.jpg",
    "id_image": "KAWAII12091899",
    "count_view": 0
  },
  {
    "link_thumb": "https://live.staticflickr.com/65535/49549001717_8ec64f1a0b_n.jpg",
    "id_album": "949200594",
    "description": "KAWAII17091858",
    "title": "KAWAII17091858",
    "link_img": "https://live.staticflickr.com/65535/49549001717_cf02f085f2_o.jpg",
    "id_image": "KAWAII17091858",
    "count_view": 0
  },
  {
    "link_thumb": "https://live.staticflickr.com/65535/49592707666_c6e0083116_n.jpg",
    "id_album": "1396902986",
    "description": "KAWAII2702202351156",
    "title": "KAWAII2702202351156",
    "link_img": "https://live.staticflickr.com/65535/49592707666_31403892d7_o.jpg",
    "id_image": "KAWAII2702202351156",
    "count_view": 0
  },
  {
    "link_thumb": "https://live.staticflickr.com/65535/49693534803_6fd2b6ce19_n.jpg",
    "id_album": "-643980979",
    "description": "KAWAII050320202181",
    "title": "KAWAII050320202181",
    "link_img": "https://live.staticflickr.com/65535/49693534803_d4a668e179_o.jpg",
    "id_image": "KAWAII050320202181",
    "count_view": 0
  },
  {
    "link_thumb": "https://live.staticflickr.com/65535/49742354413_6dc8252d9d_n.jpg",
    "id_album": "-1913845949",
    "description": "KAWAII060420214914280",
    "title": "KAWAII060420214914280",
    "link_img": "https://live.staticflickr.com/65535/49742354413_e00fcae2fc_o.jpg",
    "id_image": "KAWAII060420214914280",
    "count_view": 0
  },
  {
    "link_thumb": "https://live.staticflickr.com/65535/49742908731_2b16e95803_n.jpg",
    "id_album": "-422187261",
    "description": "KAWAII2702202351106",
    "title": "KAWAII2702202351106",
    "link_img": "https://live.staticflickr.com/65535/49742908731_a95f1d5e95_o.jpg",
    "id_image": "KAWAII2702202351106",
    "count_view": 0
  },
  {
    "link_thumb": "https://live.staticflickr.com/65535/49693568038_916ee82a8f_n.jpg",
    "id_album": "1201366373",
    "description": "KAWAII1702202237342",
    "title": "KAWAII1702202237342",
    "link_img": "https://live.staticflickr.com/65535/49693568038_c81c3ed181_o.jpg",
    "id_image": "KAWAII1702202237342",
    "count_view": 0
  },
  {
    "link_thumb": "https://live.staticflickr.com/65535/49727438706_b9603057a0_n.jpg",
    "id_album": "-316663319",
    "description": "KAWAII020420194511149",
    "title": "KAWAII020420194511149",
    "link_img": "https://live.staticflickr.com/65535/49727438706_77d57e8b5d_o.jpg",
    "id_image": "KAWAII020420194511149",
    "count_view": 0
  },
  {
    "link_thumb": "https://live.staticflickr.com/65535/49622307713_80ee8ee40d_n.jpg",
    "id_album": "-316663319",
    "description": "KAWAII05032020212",
    "title": "KAWAII05032020212",
    "link_img": "https://live.staticflickr.com/65535/49622307713_39424e7f74_o.jpg",
    "id_image": "KAWAII05032020212",
    "count_view": 0
  },
  {
    "link_thumb": "https://live.staticflickr.com/65535/49694092836_c5f7363490_n.jpg",
    "id_album": "1201366373",
    "description": "KAWAII120918225",
    "title": "KAWAII120918225",
    "link_img": "https://live.staticflickr.com/65535/49694092836_31f5c3c766_o.jpg",
    "id_image": "KAWAII120918225",
    "count_view": 0
  },
  {
    "link_thumb": "https://live.staticflickr.com/65535/49693672713_f0ae745203_n.jpg",
    "id_album": "-1694302085",
    "description": "KAWAII2403202205022",
    "title": "KAWAII2403202205022",
    "link_img": "https://live.staticflickr.com/65535/49693672713_486f4578a4_o.jpg",
    "id_image": "KAWAII2403202205022",
    "count_view": 0
  },
  {
    "link_thumb": "https://live.staticflickr.com/65535/49548633176_6ac21f02a2_n.jpg",
    "id_album": "1396902986",
    "description": "KAWAII1702202234124",
    "title": "KAWAII1702202234124",
    "link_img": "https://live.staticflickr.com/65535/49548633176_1d50f4508e_o.jpg",
    "id_image": "KAWAII1702202234124",
    "count_view": 0
  },
  {
    "link_thumb": "https://live.staticflickr.com/65535/49727453196_7151bc12f8_n.jpg",
    "id_album": "742877173",
    "description": "KAWAII02042019451430",
    "title": "KAWAII02042019451430",
    "link_img": "https://live.staticflickr.com/65535/49727453196_a3fe118243_o.jpg",
    "id_image": "KAWAII02042019451430",
    "count_view": 0
  },
  {
    "link_thumb": "https://live.staticflickr.com/65535/49622316283_db9e9926f0_n.jpg",
    "id_album": "-316663319",
    "description": "KAWAII05032020213",
    "title": "KAWAII05032020213",
    "link_img": "https://live.staticflickr.com/65535/49622316283_31fda07e1c_o.jpg",
    "id_image": "KAWAII05032020213",
    "count_view": 0
  },
  {
    "link_thumb": "https://live.staticflickr.com/65535/49592709616_dbb1dc7bb1_n.jpg",
    "id_album": "-1741487325",
    "description": "KAWAII170220223486",
    "title": "KAWAII170220223486",
    "link_img": "https://live.staticflickr.com/65535/49592709616_b051e88591_o.jpg",
    "id_image": "KAWAII170220223486",
    "count_view": 0
  },
  {
    "link_thumb": "https://live.staticflickr.com/65535/49693528903_122ff17fb2_n.jpg",
    "id_album": "-643980979",
    "description": "KAWAII0503202021221",
    "title": "KAWAII0503202021221",
    "link_img": "https://live.staticflickr.com/65535/49693528903_94f5696501_o.jpg",
    "id_image": "KAWAII0503202021221",
    "count_view": 0
  },
  {
    "link_thumb": "https://live.staticflickr.com/65535/49592207248_426b3e5f30_n.jpg",
    "id_album": "-1741487325",
    "description": "KAWAII1702202235146",
    "title": "KAWAII1702202235146",
    "link_img": "https://live.staticflickr.com/65535/49592207248_43f8e028ce_o.jpg",
    "id_image": "KAWAII1702202235146",
    "count_view": 0
  },
  {
    "link_thumb": "https://live.staticflickr.com/65535/49548727196_7af34f5e15_n.jpg",
    "id_album": "-1741487325",
    "description": "KAWAII1702202238481",
    "title": "KAWAII1702202238481",
    "link_img": "https://live.staticflickr.com/65535/49548727196_c37f3180b8_o.jpg",
    "id_image": "KAWAII1702202238481",
    "count_view": 0
  },
  {
    "link_thumb": "https://live.staticflickr.com/65535/49727431301_fa11480e57_n.jpg",
    "id_album": "-1497779911",
    "description": "KAWAII0503202021134",
    "title": "KAWAII0503202021134",
    "link_img": "https://live.staticflickr.com/65535/49727431301_7604ab6cb8_o.jpg",
    "id_image": "KAWAII0503202021134",
    "count_view": 0
  },
  {
    "link_thumb": "https://live.staticflickr.com/65535/49592974992_b01a77ba76_n.jpg",
    "id_album": "949200594",
    "description": "KAWAII270220235155",
    "title": "KAWAII270220235155",
    "link_img": "https://live.staticflickr.com/65535/49592974992_f48b60d8d5_o.jpg",
    "id_image": "KAWAII270220235155",
    "count_view": 0
  },
  {
    "link_thumb": "https://live.staticflickr.com/65535/49742948196_812509692d_n.jpg",
    "id_album": "1396902986",
    "description": "KAWAII060420214915116",
    "title": "KAWAII060420214915116",
    "link_img": "https://live.staticflickr.com/65535/49742948196_ac769a297d_o.jpg",
    "id_image": "KAWAII060420214915116",
    "count_view": 0
  },
  {
    "link_thumb": "https://live.staticflickr.com/65535/49693561193_9c73ba3d04_n.jpg",
    "id_album": "1201366373",
    "description": "KAWAII12091885",
    "title": "KAWAII12091885",
    "link_img": "https://live.staticflickr.com/65535/49693561193_49366dbf09_o.jpg",
    "id_image": "KAWAII12091885",
    "count_view": 0
  },
  {
    "link_thumb": "https://live.staticflickr.com/65535/49693681963_54f345268e_n.jpg",
    "id_album": "46674803",
    "description": "KAWAII24032022050224",
    "title": "KAWAII24032022050224",
    "link_img": "https://live.staticflickr.com/65535/49693681963_82e07e92be_o.jpg",
    "id_image": "KAWAII24032022050224",
    "count_view": 0
  },
  {
    "link_thumb": "https://live.staticflickr.com/65535/49726925693_708ef6ca57_n.jpg",
    "id_album": "-1431786825",
    "description": "KAWAII020420194511158",
    "title": "KAWAII020420194511158",
    "link_img": "https://live.staticflickr.com/65535/49726925693_70f7508396_o.jpg",
    "id_image": "KAWAII020420194511158",
    "count_view": 0
  },
  {
    "link_thumb": "https://live.staticflickr.com/65535/49552023193_1168d96f1a_n.jpg",
    "id_album": "-1694302085",
    "description": "KAWAII12091825180220205933",
    "title": "KAWAII12091825180220205933",
    "link_img": "https://live.staticflickr.com/65535/49552023193_984f322a4e_o.jpg",
    "id_image": "KAWAII12091825180220205933",
    "count_view": 0
  },
  {
    "link_thumb": "https://live.staticflickr.com/65535/49742389923_e272274913_n.jpg",
    "id_album": "-1473448477",
    "description": "KAWAII060420214915240",
    "title": "KAWAII060420214915240",
    "link_img": "https://live.staticflickr.com/65535/49742389923_3c886ac146_o.jpg",
    "id_image": "KAWAII060420214915240",
    "count_view": 0
  },
  {
    "link_thumb": "https://live.staticflickr.com/65535/49742948581_82717c9931_n.jpg",
    "id_album": "1396902986",
    "description": "KAWAII060420214915119",
    "title": "KAWAII060420214915119",
    "link_img": "https://live.staticflickr.com/65535/49742948581_b2ef97035f_o.jpg",
    "id_image": "KAWAII060420214915119",
    "count_view": 0
  },
  {
    "link_thumb": "https://live.staticflickr.com/65535/49694523462_66c879f542_n.jpg",
    "id_album": "-643980979",
    "description": "KAWAII24032022050248",
    "title": "KAWAII24032022050248",
    "link_img": "https://live.staticflickr.com/65535/49694523462_1630cbd1e5_o.jpg",
    "id_image": "KAWAII24032022050248",
    "count_view": 0
  },
  {
    "link_thumb": "https://live.staticflickr.com/65535/49548144938_89248b4901_n.jpg",
    "id_album": "-1099943053",
    "description": "KAWAII170220223497",
    "title": "KAWAII170220223497",
    "link_img": "https://live.staticflickr.com/65535/49548144938_69b1952f1a_o.jpg",
    "id_image": "KAWAII170220223497",
    "count_view": 0
  },
  {
    "link_thumb": "https://live.staticflickr.com/65535/49622329373_ee5b1507ff_n.jpg",
    "id_album": "-406350429",
    "description": "KAWAII0503202021196",
    "title": "KAWAII0503202021196",
    "link_img": "https://live.staticflickr.com/65535/49622329373_3d1c00cf08_o.jpg",
    "id_image": "KAWAII0503202021196",
    "count_view": 0
  },
  {
    "link_thumb": "https://live.staticflickr.com/65535/49622284133_b3dbb6b9e6_n.jpg",
    "id_album": "1396902986",
    "description": "KAWAII0503202021116",
    "title": "KAWAII0503202021116",
    "link_img": "https://live.staticflickr.com/65535/49622284133_9419bac00a_o.jpg",
    "id_image": "KAWAII0503202021116",
    "count_view": 0
  },
  {
    "link_thumb": "https://live.staticflickr.com/65535/49622802016_1558a39696_n.jpg",
    "id_album": "1396902986",
    "description": "KAWAII0503202021231",
    "title": "KAWAII0503202021231",
    "link_img": "https://live.staticflickr.com/65535/49622802016_e5b340f81d_o.jpg",
    "id_image": "KAWAII0503202021231",
    "count_view": 0
  },
  {
    "link_thumb": "https://live.staticflickr.com/65535/49622838741_3cea7265f8_n.jpg",
    "id_album": "-316663319",
    "description": "KAWAII050320202163",
    "title": "KAWAII050320202163",
    "link_img": "https://live.staticflickr.com/65535/49622838741_984a95b2fb_o.jpg",
    "id_image": "KAWAII050320202163",
    "count_view": 0
  },
  {
    "link_thumb": "https://live.staticflickr.com/65535/49548833852_d878829ec5_n.jpg",
    "id_album": "-1741487325",
    "description": "KAWAII120918365",
    "title": "KAWAII120918365",
    "link_img": "https://live.staticflickr.com/65535/49548833852_1826f5a600_o.jpg",
    "id_image": "KAWAII120918365",
    "count_view": 0
  },
  {
    "link_thumb": "https://live.staticflickr.com/65535/49592729676_51ee2d2792_n.jpg",
    "id_album": "949200594",
    "description": "KAWAII2702202351121",
    "title": "KAWAII2702202351121",
    "link_img": "https://live.staticflickr.com/65535/49592729676_4bae3275f4_o.jpg",
    "id_image": "KAWAII2702202351121",
    "count_view": 0
  },
  {
    "link_thumb": "https://live.staticflickr.com/65535/49622295503_702dda537d_n.jpg",
    "id_album": "-316663319",
    "description": "KAWAII0503202021114",
    "title": "KAWAII0503202021114",
    "link_img": "https://live.staticflickr.com/65535/49622295503_74778609a0_o.jpg",
    "id_image": "KAWAII0503202021114",
    "count_view": 0
  },
  {
    "link_thumb": "https://live.staticflickr.com/65535/49726894163_b411a85f1f_n.jpg",
    "id_album": "742877173",
    "description": "KAWAII020420194508123",
    "title": "KAWAII020420194508123",
    "link_img": "https://live.staticflickr.com/65535/49726894163_5942702466_o.jpg",
    "id_image": "KAWAII020420194508123",
    "count_view": 0
  },
  {
    "link_thumb": "https://live.staticflickr.com/65535/49727757637_721191975f_n.jpg",
    "id_album": "742877173",
    "description": "KAWAII0204201945085",
    "title": "KAWAII0204201945085",
    "link_img": "https://live.staticflickr.com/65535/49727757637_2281b4fa3d_o.jpg",
    "id_image": "KAWAII0204201945085",
    "count_view": 0
  },
  {
    "link_thumb": "https://live.staticflickr.com/65535/49694125931_f8f3987c14_n.jpg",
    "id_album": "-358592519",
    "description": "KAWAII1702202239568",
    "title": "KAWAII1702202239568",
    "link_img": "https://live.staticflickr.com/65535/49694125931_361e3743c3_o.jpg",
    "id_image": "KAWAII1702202239568",
    "count_view": 0
  },
  {
    "link_thumb": "https://live.staticflickr.com/65535/49548262878_df4979d677_n.jpg",
    "id_album": "949200594",
    "description": "KAWAII1709182",
    "title": "KAWAII1709182",
    "link_img": "https://live.staticflickr.com/65535/49548262878_9031c1d28c_o.jpg",
    "id_image": "KAWAII1709182",
    "count_view": 0
  },
  {
    "link_thumb": "https://live.staticflickr.com/65535/49548925197_9c7158b9c0_n.jpg",
    "id_album": "-316663319",
    "description": "KAWAII1702202237368",
    "title": "KAWAII1702202237368",
    "link_img": "https://live.staticflickr.com/65535/49548925197_f0ba9aa5b0_o.jpg",
    "id_image": "KAWAII1702202237368",
    "count_view": 0
  },
  {
    "link_thumb": "https://live.staticflickr.com/65535/49727445436_f3b8dd6fbf_n.jpg",
    "id_album": "742877173",
    "description": "KAWAII020420194510129",
    "title": "KAWAII020420194510129",
    "link_img": "https://live.staticflickr.com/65535/49727445436_f64afefd76_o.jpg",
    "id_image": "KAWAII020420194510129",
    "count_view": 0
  },
  {
    "link_thumb": "https://live.staticflickr.com/65535/49592953492_b84fb37449_n.jpg",
    "id_album": "-1741487325",
    "description": "KAWAII17091831",
    "title": "KAWAII17091831",
    "link_img": "https://live.staticflickr.com/65535/49592953492_ee077b4196_o.jpg",
    "id_image": "KAWAII17091831",
    "count_view": 0
  },
  {
    "link_thumb": "https://live.staticflickr.com/65535/49623114102_c4b0e64840_n.jpg",
    "id_album": "-406350429",
    "description": "KAWAII0503202021115",
    "title": "KAWAII0503202021115",
    "link_img": "https://live.staticflickr.com/65535/49623114102_63275bcc45_o.jpg",
    "id_image": "KAWAII0503202021115",
    "count_view": 0
  },
  {
    "link_thumb": "https://live.staticflickr.com/65535/49727434356_c3ff8953bd_n.jpg",
    "id_album": "-1497779911",
    "description": "KAWAII1702202235125",
    "title": "KAWAII1702202235125",
    "link_img": "https://live.staticflickr.com/65535/49727434356_b768281799_o.jpg",
    "id_image": "KAWAII1702202235125",
    "count_view": 0
  },
  {
    "link_thumb": "https://live.staticflickr.com/65535/49592951312_d3cd4b1750_n.jpg",
    "id_album": "1396902986",
    "description": "KAWAII270220235178",
    "title": "KAWAII270220235178",
    "link_img": "https://live.staticflickr.com/65535/49592951312_88327c789a_o.jpg",
    "id_image": "KAWAII270220235178",
    "count_view": 0
  },
  {
    "link_thumb": "https://live.staticflickr.com/65535/49622287383_fc159ea83c_n.jpg",
    "id_album": "1396902986",
    "description": "KAWAII0503202021250",
    "title": "KAWAII0503202021250",
    "link_img": "https://live.staticflickr.com/65535/49622287383_a1edc87a33_o.jpg",
    "id_image": "KAWAII0503202021250",
    "count_view": 0
  },
  {
    "link_thumb": "https://live.staticflickr.com/65535/49743232392_29738dfe21_n.jpg",
    "id_album": "1271846417",
    "description": "KAWAII060420214912138",
    "title": "KAWAII060420214912138",
    "link_img": "https://live.staticflickr.com/65535/49743232392_1f728b0705_o.jpg",
    "id_image": "KAWAII060420214912138",
    "count_view": 0
  },
  {
    "link_thumb": "https://live.staticflickr.com/65535/49693526623_5940574ea7_n.jpg",
    "id_album": "-643980979",
    "description": "KAWAII0503202021135",
    "title": "KAWAII0503202021135",
    "link_img": "https://live.staticflickr.com/65535/49693526623_d46d8c02b6_o.jpg",
    "id_image": "KAWAII0503202021135",
    "count_view": 0
  },
  {
    "link_thumb": "https://live.staticflickr.com/65535/49548846807_90eed5ba80_n.jpg",
    "id_album": "-1741487325",
    "description": "KAWAII12091887",
    "title": "KAWAII12091887",
    "link_img": "https://live.staticflickr.com/65535/49548846807_a8b7b527ac_o.jpg",
    "id_image": "KAWAII12091887",
    "count_view": 0
  },
  {
    "link_thumb": "https://live.staticflickr.com/65535/49727471611_58cc6cbf82_n.jpg",
    "id_album": "-1862561193",
    "description": "KAWAII02042019451248",
    "title": "KAWAII02042019451248",
    "link_img": "https://live.staticflickr.com/65535/49727471611_e695fa35a5_o.jpg",
    "id_image": "KAWAII02042019451248",
    "count_view": 0
  },
  {
    "link_thumb": "https://live.staticflickr.com/65535/49743262177_b32b106415_n.jpg",
    "id_album": "-1473448477",
    "description": "KAWAII06042021491528",
    "title": "KAWAII06042021491528",
    "link_img": "https://live.staticflickr.com/65535/49743262177_5c9f2f0140_o.jpg",
    "id_image": "KAWAII06042021491528",
    "count_view": 0
  },
  {
    "link_thumb": "https://live.staticflickr.com/65535/49548864942_39e13f80e8_n.jpg",
    "id_album": "-1099943053",
    "description": "KAWAII170220223457",
    "title": "KAWAII170220223457",
    "link_img": "https://live.staticflickr.com/65535/49548864942_4a4a17a743_o.jpg",
    "id_image": "KAWAII170220223457",
    "count_view": 0
  },
  {
    "link_thumb": "https://live.staticflickr.com/65535/49693550458_389a7c3a92_n.jpg",
    "id_album": "1201366373",
    "description": "KAWAII120918240",
    "title": "KAWAII120918240",
    "link_img": "https://live.staticflickr.com/65535/49693550458_4c71bcbf04_o.jpg",
    "id_image": "KAWAII120918240",
    "count_view": 0
  },
  {
    "link_thumb": "https://live.staticflickr.com/65535/49693545928_61f463169e_n.jpg",
    "id_album": "1201366373",
    "description": "KAWAII120918196",
    "title": "KAWAII120918196",
    "link_img": "https://live.staticflickr.com/65535/49693545928_b65581381d_o.jpg",
    "id_image": "KAWAII120918196",
    "count_view": 0
  },
  {
    "link_thumb": "https://live.staticflickr.com/65535/49622284898_9e965641df_n.jpg",
    "id_album": "1396902986",
    "description": "KAWAII0503202021155",
    "title": "KAWAII0503202021155",
    "link_img": "https://live.staticflickr.com/65535/49622284898_19d82e608c_o.jpg",
    "id_image": "KAWAII0503202021155",
    "count_view": 0
  },
  {
    "link_thumb": "https://live.staticflickr.com/65535/49726884508_99c8e18231_n.jpg",
    "id_album": "-1497779911",
    "description": "KAWAII0503202021218",
    "title": "KAWAII0503202021218",
    "link_img": "https://live.staticflickr.com/65535/49726884508_1c0456b6bb_o.jpg",
    "id_image": "KAWAII0503202021218",
    "count_view": 0
  },
  {
    "link_thumb": "https://live.staticflickr.com/65535/49548570486_dc709ec43b_n.jpg",
    "id_album": "-1694302085",
    "description": "KAWAII120918209",
    "title": "KAWAII120918209",
    "link_img": "https://live.staticflickr.com/65535/49548570486_5138dfca7b_o.jpg",
    "id_image": "KAWAII120918209",
    "count_view": 0
  },
  {
    "link_thumb": "https://live.staticflickr.com/65535/49726924473_3f8ea1d665_n.jpg",
    "id_album": "-1862561193",
    "description": "KAWAII020420194513106",
    "title": "KAWAII020420194513106",
    "link_img": "https://live.staticflickr.com/65535/49726924473_6c8e71e23c_o.jpg",
    "id_image": "KAWAII020420194513106",
    "count_view": 0
  },
  {
    "link_thumb": "https://live.staticflickr.com/65535/49693527218_5bce209935_n.jpg",
    "id_album": "1201366373",
    "description": "KAWAII050320202116",
    "title": "KAWAII050320202116",
    "link_img": "https://live.staticflickr.com/65535/49693527218_3359fd468d_o.jpg",
    "id_image": "KAWAII050320202116",
    "count_view": 0
  },
  {
    "link_thumb": "https://live.staticflickr.com/65535/49694391622_de8f6e2f40_n.jpg",
    "id_album": "1201366373",
    "description": "KAWAII120918194",
    "title": "KAWAII120918194",
    "link_img": "https://live.staticflickr.com/65535/49694391622_134e8f2aed_o.jpg",
    "id_image": "KAWAII120918194",
    "count_view": 0
  },
  {
    "link_thumb": "https://live.staticflickr.com/65535/49592203478_94e007ee2a_n.jpg",
    "id_album": "1396902986",
    "description": "KAWAII2702202351101",
    "title": "KAWAII2702202351101",
    "link_img": "https://live.staticflickr.com/65535/49592203478_565de20aab_o.jpg",
    "id_image": "KAWAII2702202351101",
    "count_view": 0
  },
  {
    "link_thumb": "https://live.staticflickr.com/65535/49742939091_f985427249_n.jpg",
    "id_album": "-1473448477",
    "description": "KAWAII06042021491534",
    "title": "KAWAII06042021491534",
    "link_img": "https://live.staticflickr.com/65535/49742939091_c33b080428_o.jpg",
    "id_image": "KAWAII06042021491534",
    "count_view": 0
  },
  {
    "link_thumb": "https://live.staticflickr.com/65535/49727765847_fe43354fea_n.jpg",
    "id_album": "742877173",
    "description": "KAWAII02042019451329",
    "title": "KAWAII02042019451329",
    "link_img": "https://live.staticflickr.com/65535/49727765847_9eb8ddd9dd_o.jpg",
    "id_image": "KAWAII02042019451329",
    "count_view": 0
  },
  {
    "link_thumb": "https://live.staticflickr.com/65535/49742360793_90892a6399_n.jpg",
    "id_album": "-422187261",
    "description": "KAWAII06042021491595",
    "title": "KAWAII06042021491595",
    "link_img": "https://live.staticflickr.com/65535/49742360793_ae488deb4b_o.jpg",
    "id_image": "KAWAII06042021491595",
    "count_view": 0
  },
  {
    "link_thumb": "https://live.staticflickr.com/65535/49743233892_8006c1c9bf_n.jpg",
    "id_album": "-1694302085",
    "description": "KAWAII060420214917292",
    "title": "KAWAII060420214917292",
    "link_img": "https://live.staticflickr.com/65535/49743233892_aa0b5ce156_o.jpg",
    "id_image": "KAWAII060420214917292",
    "count_view": 0
  },
  {
    "link_thumb": "https://live.staticflickr.com/65535/49694387657_ca79ea691c_n.jpg",
    "id_album": "1201366373",
    "description": "KAWAII120918157",
    "title": "KAWAII120918157",
    "link_img": "https://live.staticflickr.com/65535/49694387657_6176250974_o.jpg",
    "id_image": "KAWAII120918157",
    "count_view": 0
  },
  {
    "link_thumb": "https://live.staticflickr.com/65535/49694419002_e65fc5005a_n.jpg",
    "id_album": "-643980979",
    "description": "KAWAII170220234618",
    "title": "KAWAII170220234618",
    "link_img": "https://live.staticflickr.com/65535/49694419002_8ab9b82634_o.jpg",
    "id_image": "KAWAII170220234618",
    "count_view": 0
  },
  {
    "link_thumb": "https://live.staticflickr.com/65535/49548797477_8571510e7c_n.jpg",
    "id_album": "-316663319",
    "description": "KAWAII120918211",
    "title": "KAWAII120918211",
    "link_img": "https://live.staticflickr.com/65535/49548797477_695593c1eb_o.jpg",
    "id_image": "KAWAII120918211",
    "count_view": 0
  },
  {
    "link_thumb": "https://live.staticflickr.com/65535/49694117356_8149fb4ae4_n.jpg",
    "id_album": "-643980979",
    "description": "KAWAII17022023465",
    "title": "KAWAII17022023465",
    "link_img": "https://live.staticflickr.com/65535/49694117356_dd7c59f695_o.jpg",
    "id_image": "KAWAII17022023465",
    "count_view": 0
  },
  {
    "link_thumb": "https://live.staticflickr.com/65535/49622335103_64a8defb90_n.jpg",
    "id_album": "-406350429",
    "description": "KAWAII05032020219",
    "title": "KAWAII05032020219",
    "link_img": "https://live.staticflickr.com/65535/49622335103_1cc8197d63_o.jpg",
    "id_image": "KAWAII05032020219",
    "count_view": 0
  },
  {
    "link_thumb": "https://live.staticflickr.com/65535/49727475381_d6c16969bd_n.jpg",
    "id_album": "1226948986",
    "description": "KAWAII020420194509140",
    "title": "KAWAII020420194509140",
    "link_img": "https://live.staticflickr.com/65535/49727475381_b1e3ecfe87_o.jpg",
    "id_image": "KAWAII020420194509140",
    "count_view": 0
  },
  {
    "link_thumb": "https://live.staticflickr.com/65535/49693525448_a81c777647_n.jpg",
    "id_album": "416744915",
    "description": "KAWAII1702202238408",
    "title": "KAWAII1702202238408",
    "link_img": "https://live.staticflickr.com/65535/49693525448_3ba600859d_o.jpg",
    "id_image": "KAWAII1702202238408",
    "count_view": 0
  },
  {
    "link_thumb": "https://live.staticflickr.com/65535/49694379132_7e13b1e716_n.jpg",
    "id_album": "-643980979",
    "description": "KAWAII050320202150",
    "title": "KAWAII050320202150",
    "link_img": "https://live.staticflickr.com/65535/49694379132_e6f9e621e0_o.jpg",
    "id_image": "KAWAII050320202150",
    "count_view": 0
  },
  {
    "link_thumb": "https://live.staticflickr.com/65535/49727761257_5ac0c27d19_n.jpg",
    "id_album": "742877173",
    "description": "KAWAII020420194510239",
    "title": "KAWAII020420194510239",
    "link_img": "https://live.staticflickr.com/65535/49727761257_d57cc01515_o.jpg",
    "id_image": "KAWAII020420194510239",
    "count_view": 0
  },
  {
    "link_thumb": "https://live.staticflickr.com/65535/49727466646_be3177e0ae_n.jpg",
    "id_album": "-1862561193",
    "description": "KAWAII020420194509184",
    "title": "KAWAII020420194509184",
    "link_img": "https://live.staticflickr.com/65535/49727466646_dce2693bf9_o.jpg",
    "id_image": "KAWAII020420194509184",
    "count_view": 0
  },
  {
    "link_thumb": "https://live.staticflickr.com/65535/49693682153_6a151a8e91_n.jpg",
    "id_album": "46674803",
    "description": "KAWAII24032022050229",
    "title": "KAWAII24032022050229",
    "link_img": "https://live.staticflickr.com/65535/49693682153_a93dd7337a_o.jpg",
    "id_image": "KAWAII24032022050229",
    "count_view": 0
  },
  {
    "link_thumb": "https://live.staticflickr.com/65535/49592231873_ddb759420f_n.jpg",
    "id_album": "-1431786825",
    "description": "KAWAII270220235123",
    "title": "KAWAII270220235123",
    "link_img": "https://live.staticflickr.com/65535/49592231873_cbc9d93ce9_o.jpg",
    "id_image": "KAWAII270220235123",
    "count_view": 0
  },
  {
    "link_thumb": "https://live.staticflickr.com/65535/49548587041_497fdce4ca_n.jpg",
    "id_album": "-316663319",
    "description": "KAWAII120918288",
    "title": "KAWAII120918288",
    "link_img": "https://live.staticflickr.com/65535/49548587041_cf1d84938a_o.jpg",
    "id_image": "KAWAII120918288",
    "count_view": 0
  },
  {
    "link_thumb": "https://live.staticflickr.com/65535/49592961902_36a60df5c5_n.jpg",
    "id_album": "-316663319",
    "description": "KAWAII270220235167",
    "title": "KAWAII270220235167",
    "link_img": "https://live.staticflickr.com/65535/49592961902_d801422df7_o.jpg",
    "id_image": "KAWAII270220235167",
    "count_view": 0
  },
  {
    "link_thumb": "https://live.staticflickr.com/65535/49694411482_dccb80dd9f_n.jpg",
    "id_album": "-643980979",
    "description": "KAWAII1702202235196",
    "title": "KAWAII1702202235196",
    "link_img": "https://live.staticflickr.com/65535/49694411482_4d17f04c9f_o.jpg",
    "id_image": "KAWAII1702202235196",
    "count_view": 0
  },
  {
    "link_thumb": "https://live.staticflickr.com/65535/49693564863_d451c3d21c_n.jpg",
    "id_album": "1201366373",
    "description": "KAWAII170220223488",
    "title": "KAWAII170220223488",
    "link_img": "https://live.staticflickr.com/65535/49693564863_846111a703_o.jpg",
    "id_image": "KAWAII170220223488",
    "count_view": 0
  },
  {
    "link_thumb": "https://live.staticflickr.com/65535/49548829712_507eb00ccd_n.jpg",
    "id_album": "-1099943053",
    "description": "KAWAII120918349",
    "title": "KAWAII120918349",
    "link_img": "https://live.staticflickr.com/65535/49548829712_07620e2619_o.jpg",
    "id_image": "KAWAII120918349",
    "count_view": 0
  },
  {
    "link_thumb": "https://live.staticflickr.com/65535/49548648001_2de5d741fa_n.jpg",
    "id_album": "-1741487325",
    "description": "KAWAII1702202235129",
    "title": "KAWAII1702202235129",
    "link_img": "https://live.staticflickr.com/65535/49548648001_3ffc32f97c_o.jpg",
    "id_image": "KAWAII1702202235129",
    "count_view": 0
  },
  {
    "link_thumb": "https://live.staticflickr.com/65535/49548613636_486776df81_n.jpg",
    "id_album": "-1741487325",
    "description": "KAWAII1209186",
    "title": "KAWAII1209186",
    "link_img": "https://live.staticflickr.com/65535/49548613636_d72c4dae0a_o.jpg",
    "id_image": "KAWAII1209186",
    "count_view": 0
  },
  {
    "link_thumb": "https://live.staticflickr.com/65535/49727433661_9a7b17c68b_n.jpg",
    "id_album": "-1497779911",
    "description": "KAWAII120918274",
    "title": "KAWAII120918274",
    "link_img": "https://live.staticflickr.com/65535/49727433661_6a4aa19005_o.jpg",
    "id_image": "KAWAII120918274",
    "count_view": 0
  },
  {
    "link_thumb": "https://live.staticflickr.com/65535/49592730316_ed0a33a677_n.jpg",
    "id_album": "949200594",
    "description": "KAWAII2702202351125",
    "title": "KAWAII2702202351125",
    "link_img": "https://live.staticflickr.com/65535/49592730316_b1b244bfb2_o.jpg",
    "id_image": "KAWAII2702202351125",
    "count_view": 0
  },
  {
    "link_thumb": "https://live.staticflickr.com/65535/49693528458_2508564005_n.jpg",
    "id_album": "-643980979",
    "description": "KAWAII050320202119",
    "title": "KAWAII050320202119",
    "link_img": "https://live.staticflickr.com/65535/49693528458_51366de5c9_o.jpg",
    "id_image": "KAWAII050320202119",
    "count_view": 0
  },
  {
    "link_thumb": "https://live.staticflickr.com/65535/49622285663_33e9e60699_n.jpg",
    "id_album": "1396902986",
    "description": "KAWAII0503202021200",
    "title": "KAWAII0503202021200",
    "link_img": "https://live.staticflickr.com/65535/49622285663_9bb454601f_o.jpg",
    "id_image": "KAWAII0503202021200",
    "count_view": 0
  },
  {
    "link_thumb": "https://live.staticflickr.com/65535/49548162338_78fe406fcf_n.jpg",
    "id_album": "-316663319",
    "description": "KAWAII1702202235204",
    "title": "KAWAII1702202235204",
    "link_img": "https://live.staticflickr.com/65535/49548162338_8bbf3e7c04_o.jpg",
    "id_image": "KAWAII1702202235204",
    "count_view": 0
  },
  {
    "link_thumb": "https://live.staticflickr.com/65535/49694394307_ce4ef3eaf2_n.jpg",
    "id_album": "-643980979",
    "description": "KAWAII120918216",
    "title": "KAWAII120918216",
    "link_img": "https://live.staticflickr.com/65535/49694394307_024ed829e4_o.jpg",
    "id_image": "KAWAII120918216",
    "count_view": 0
  },
  {
    "link_thumb": "https://live.staticflickr.com/65535/49694088261_c7e88863a1_n.jpg",
    "id_album": "1201366373",
    "description": "KAWAII120918182",
    "title": "KAWAII120918182",
    "link_img": "https://live.staticflickr.com/65535/49694088261_64926e6b21_o.jpg",
    "id_image": "KAWAII120918182",
    "count_view": 0
  },
  {
    "link_thumb": "https://live.staticflickr.com/65535/49622847721_e1602f2634_n.jpg",
    "id_album": "-406350429",
    "description": "KAWAII0503202021278",
    "title": "KAWAII0503202021278",
    "link_img": "https://live.staticflickr.com/65535/49622847721_093f75abe6_o.jpg",
    "id_image": "KAWAII0503202021278",
    "count_view": 0
  },
  {
    "link_thumb": "https://live.staticflickr.com/65535/49548694021_aac1a408ab_n.jpg",
    "id_album": "-422187261",
    "description": "KAWAII1702202237355",
    "title": "KAWAII1702202237355",
    "link_img": "https://live.staticflickr.com/65535/49548694021_8570f5a361_o.jpg",
    "id_image": "KAWAII1702202237355",
    "count_view": 0
  },
  {
    "link_thumb": "https://live.staticflickr.com/65535/49727433241_36125f0001_n.jpg",
    "id_album": "-1497779911",
    "description": "KAWAII120918214",
    "title": "KAWAII120918214",
    "link_img": "https://live.staticflickr.com/65535/49727433241_3d532940ac_o.jpg",
    "id_image": "KAWAII120918214",
    "count_view": 0
  },
  {
    "link_thumb": "https://live.staticflickr.com/65535/49592953622_ed10c76b9d_n.jpg",
    "id_album": "-1741487325",
    "description": "KAWAII2702202351103",
    "title": "KAWAII2702202351103",
    "link_img": "https://live.staticflickr.com/65535/49592953622_5b9fa45da4_o.jpg",
    "id_image": "KAWAII2702202351103",
    "count_view": 0
  },
  {
    "link_thumb": "https://live.staticflickr.com/65535/49693562678_666524c205_n.jpg",
    "id_album": "1201366373",
    "description": "KAWAII17022022333",
    "title": "KAWAII17022022333",
    "link_img": "https://live.staticflickr.com/65535/49693562678_002115e5c4_o.jpg",
    "id_image": "KAWAII17022022333",
    "count_view": 0
  },
  {
    "link_thumb": "https://live.staticflickr.com/65535/49548885487_672752375d_n.jpg",
    "id_album": "431597977",
    "description": "KAWAII1702202235178",
    "title": "KAWAII1702202235178",
    "link_img": "https://live.staticflickr.com/65535/49548885487_3e60b2de35_o.jpg",
    "id_image": "KAWAII1702202235178",
    "count_view": 0
  },
  {
    "link_thumb": "https://live.staticflickr.com/65535/49693558183_a469f8695b_n.jpg",
    "id_album": "1201366373",
    "description": "KAWAII12091837",
    "title": "KAWAII12091837",
    "link_img": "https://live.staticflickr.com/65535/49693558183_d571b7c6ef_o.jpg",
    "id_image": "KAWAII12091837",
    "count_view": 0
  },
  {
    "link_thumb": "https://live.staticflickr.com/65535/49726878558_b8a8b44afd_n.jpg",
    "id_album": "-1694302085",
    "description": "KAWAII0503202021156",
    "title": "KAWAII0503202021156",
    "link_img": "https://live.staticflickr.com/65535/49726878558_27c639290a_o.jpg",
    "id_image": "KAWAII0503202021156",
    "count_view": 0
  },
  {
    "link_thumb": "https://live.staticflickr.com/65535/49548910507_30b6984d2f_n.jpg",
    "id_album": "-316663319",
    "description": "KAWAII1702202236304",
    "title": "KAWAII1702202236304",
    "link_img": "https://live.staticflickr.com/65535/49548910507_619db8d005_o.jpg",
    "id_image": "KAWAII1702202236304",
    "count_view": 0
  },
  {
    "link_thumb": "https://live.staticflickr.com/65535/49742390688_6c1335e846_n.jpg",
    "id_album": "-1473448477",
    "description": "KAWAII060420214915278",
    "title": "KAWAII060420214915278",
    "link_img": "https://live.staticflickr.com/65535/49742390688_e32c909954_o.jpg",
    "id_image": "KAWAII060420214915278",
    "count_view": 0
  },
  {
    "link_thumb": "https://live.staticflickr.com/65535/49694227926_f1cd878911_n.jpg",
    "id_album": "1226948986",
    "description": "KAWAII24032022050226",
    "title": "KAWAII24032022050226",
    "link_img": "https://live.staticflickr.com/65535/49694227926_69285a2df3_o.jpg",
    "id_image": "KAWAII24032022050226",
    "count_view": 0
  },
  {
    "link_thumb": "https://live.staticflickr.com/65535/49548139298_6e5456530b_n.jpg",
    "id_album": "-422187261",
    "description": "KAWAII170220223471",
    "title": "KAWAII170220223471",
    "link_img": "https://live.staticflickr.com/65535/49548139298_ba29e127e1_o.jpg",
    "id_image": "KAWAII170220223471",
    "count_view": 0
  },
  {
    "link_thumb": "https://live.staticflickr.com/65535/49742931276_e90d41b7b3_n.jpg",
    "id_album": "-316663319",
    "description": "KAWAII060420214917221",
    "title": "KAWAII060420214917221",
    "link_img": "https://live.staticflickr.com/65535/49742931276_bcc8e8dc72_o.jpg",
    "id_image": "KAWAII060420214917221",
    "count_view": 0
  },
  {
    "link_thumb": "https://live.staticflickr.com/65535/49694099141_6079f0800d_n.jpg",
    "id_album": "1201366373",
    "description": "KAWAII120918285",
    "title": "KAWAII120918285",
    "link_img": "https://live.staticflickr.com/65535/49694099141_d0069c4ce2_o.jpg",
    "id_image": "KAWAII120918285",
    "count_view": 0
  },
  {
    "link_thumb": "https://live.staticflickr.com/65535/49693684043_a164af7b2f_n.jpg",
    "id_album": "1226948986",
    "description": "KAWAII24032022050214",
    "title": "KAWAII24032022050214",
    "link_img": "https://live.staticflickr.com/65535/49693684043_ee586dface_o.jpg",
    "id_image": "KAWAII24032022050214",
    "count_view": 0
  },
  {
    "link_thumb": "https://live.staticflickr.com/65535/49694377812_aa7b39c844_n.jpg",
    "id_album": "1201366373",
    "description": "KAWAII0503202021312",
    "title": "KAWAII0503202021312",
    "link_img": "https://live.staticflickr.com/65535/49694377812_bc1e2c0c94_o.jpg",
    "id_image": "KAWAII0503202021312",
    "count_view": 0
  },
  {
    "link_thumb": "https://live.staticflickr.com/65535/49592204528_636523a09a_n.jpg",
    "id_album": "1396902986",
    "description": "KAWAII2702202351149",
    "title": "KAWAII2702202351149",
    "link_img": "https://live.staticflickr.com/65535/49592204528_f30129f846_o.jpg",
    "id_image": "KAWAII2702202351149",
    "count_view": 0
  },
  {
    "link_thumb": "https://live.staticflickr.com/65535/49742407823_323f75a2aa_n.jpg",
    "id_album": "-1431786825",
    "description": "KAWAII060420214914275",
    "title": "KAWAII060420214914275",
    "link_img": "https://live.staticflickr.com/65535/49742407823_2e8d533bf4_o.jpg",
    "id_image": "KAWAII060420214914275",
    "count_view": 0
  },
  {
    "link_thumb": "https://live.staticflickr.com/65535/49694228911_22e5202745_n.jpg",
    "id_album": "1226948986",
    "description": "KAWAII24032022050252",
    "title": "KAWAII24032022050252",
    "link_img": "https://live.staticflickr.com/65535/49694228911_fae9953d61_o.jpg",
    "id_image": "KAWAII24032022050252",
    "count_view": 0
  },
  {
    "link_thumb": "https://live.staticflickr.com/65535/49727763682_55f3936388_n.jpg",
    "id_album": "742877173",
    "description": "KAWAII020420194512206",
    "title": "KAWAII020420194512206",
    "link_img": "https://live.staticflickr.com/65535/49727763682_6017d5924b_o.jpg",
    "id_image": "KAWAII020420194512206",
    "count_view": 0
  },
  {
    "link_thumb": "https://live.staticflickr.com/65535/49743266352_ef3704ed25_n.jpg",
    "id_album": "-1779286820",
    "description": "KAWAII060420214912201",
    "title": "KAWAII060420214912201",
    "link_img": "https://live.staticflickr.com/65535/49743266352_55704f23f8_o.jpg",
    "id_image": "KAWAII060420214912201",
    "count_view": 0
  },
  {
    "link_thumb": "https://live.staticflickr.com/65535/49742930621_46cbfcebfa_n.jpg",
    "id_album": "-316663319",
    "description": "KAWAII060420214917101",
    "title": "KAWAII060420214917101",
    "link_img": "https://live.staticflickr.com/65535/49742930621_c8a5efe622_o.jpg",
    "id_image": "KAWAII060420214917101",
    "count_view": 0
  },
  {
    "link_thumb": "https://live.staticflickr.com/65535/49742356873_a75b1528ac_n.jpg",
    "id_album": "-1913845949",
    "description": "KAWAII06042021491565",
    "title": "KAWAII06042021491565",
    "link_img": "https://live.staticflickr.com/65535/49742356873_ab7a02cb9b_o.jpg",
    "id_image": "KAWAII06042021491565",
    "count_view": 0
  },
  {
    "link_thumb": "https://live.staticflickr.com/65535/49693540143_bacb5cc03a_n.jpg",
    "id_album": "1201366373",
    "description": "KAWAII120918142",
    "title": "KAWAII120918142",
    "link_img": "https://live.staticflickr.com/65535/49693540143_7dacd41cac_o.jpg",
    "id_image": "KAWAII120918142",
    "count_view": 0
  }
]