[
  {
    "total_img": 0,
    "number_page": 0,
    "title": "Other",
    "tag": "Other,",
    "description": "Other",
    "link_thumb": "https://live.staticflickr.com/65535/49727465951_4e77bb1429_n.jpg",
    "id_album": "-1862561193",
    "total_view": 60
  }
]