[
  {
    "total_img": 0,
    "number_page": 0,
    "title": "Dog",
    "tag": "Dog,",
    "description": "Dog",
    "link_thumb": "https://live.staticflickr.com/65535/49623078737_e12156ab87_n.jpg",
    "id_album": "-1432180061",
    "total_view": 45
  }
]