[
  {
    "link_thumb": "https://live.staticflickr.com/65535/49548097683_dce4ccbd7e_n.jpg",
    "id_album": "1396902986",
    "description": "KAWAII120918338",
    "title": "KAWAII120918338",
    "link_img": "https://live.staticflickr.com/65535/49548097683_818d033f2d_o.jpg",
    "id_image": "KAWAII120918338",
    "count_view": 0
  },
  {
    "link_thumb": "https://live.staticflickr.com/65535/49548991617_4db3ec9d8e_n.jpg",
    "id_album": "-422187261",
    "description": "KAWAII17091824",
    "title": "KAWAII17091824",
    "link_img": "https://live.staticflickr.com/65535/49548991617_f9fd738220_o.jpg",
    "id_image": "KAWAII17091824",
    "count_view": 0
  },
  {
    "link_thumb": "https://live.staticflickr.com/65535/49592976712_6ea68c4873_n.jpg",
    "id_album": "949200594",
    "description": "KAWAII270220235196",
    "title": "KAWAII270220235196",
    "link_img": "https://live.staticflickr.com/65535/49592976712_7432caba44_o.jpg",
    "id_image": "KAWAII270220235196",
    "count_view": 0
  },
  {
    "link_thumb": "https://live.staticflickr.com/65535/49694421177_bd95152de0_n.jpg",
    "id_album": "1201366373",
    "description": "KAWAII17022023502",
    "title": "KAWAII17022023502",
    "link_img": "https://live.staticflickr.com/65535/49694421177_18922e9cb6_o.jpg",
    "id_image": "KAWAII17022023502",
    "count_view": 0
  },
  {
    "link_thumb": "https://live.staticflickr.com/65535/49727752447_13493c610e_n.jpg",
    "id_album": "-316663319",
    "description": "KAWAII02042019451031",
    "title": "KAWAII02042019451031",
    "link_img": "https://live.staticflickr.com/65535/49727752447_5c7a9ecc13_o.jpg",
    "id_image": "KAWAII02042019451031",
    "count_view": 0
  },
  {
    "link_thumb": "https://live.staticflickr.com/65535/49694388512_b37270390e_n.jpg",
    "id_album": "1201366373",
    "description": "KAWAII120918163",
    "title": "KAWAII120918163",
    "link_img": "https://live.staticflickr.com/65535/49694388512_4d13cf57f1_o.jpg",
    "id_image": "KAWAII120918163",
    "count_view": 0
  },
  {
    "link_thumb": "https://live.staticflickr.com/65535/49548887602_4a0528ff2f_n.jpg",
    "id_album": "-1741487325",
    "description": "KAWAII1702202235188",
    "title": "KAWAII1702202235188",
    "link_img": "https://live.staticflickr.com/65535/49548887602_753e3e4750_o.jpg",
    "id_image": "KAWAII1702202235188",
    "count_view": 0
  },
  {
    "link_thumb": "https://live.staticflickr.com/65535/49727752792_9bf6e0ced5_n.jpg",
    "id_album": "-316663319",
    "description": "KAWAII020420194511112",
    "title": "KAWAII020420194511112",
    "link_img": "https://live.staticflickr.com/65535/49727752792_1bf4696a5e_o.jpg",
    "id_image": "KAWAII020420194511112",
    "count_view": 0
  },
  {
    "link_thumb": "https://live.staticflickr.com/65535/49623091427_8ecb0dc677_n.jpg",
    "id_album": "-316663319",
    "description": "KAWAII0503202021173",
    "title": "KAWAII0503202021173",
    "link_img": "https://live.staticflickr.com/65535/49623091427_08332a44e9_o.jpg",
    "id_image": "KAWAII0503202021173",
    "count_view": 0
  },
  {
    "link_thumb": "https://live.staticflickr.com/65535/49727465396_43aa8d7c90_n.jpg",
    "id_album": "1396902986",
    "description": "KAWAII02042019451249",
    "title": "KAWAII02042019451249",
    "link_img": "https://live.staticflickr.com/65535/49727465396_a64da1a456_o.jpg",
    "id_image": "KAWAII02042019451249",
    "count_view": 0
  },
  {
    "link_thumb": "https://live.staticflickr.com/65535/49742357843_50649d48d6_n.jpg",
    "id_album": "-1913845949",
    "description": "KAWAII060420214918161",
    "title": "KAWAII060420214918161",
    "link_img": "https://live.staticflickr.com/65535/49742357843_b193694e5e_o.jpg",
    "id_image": "KAWAII060420214918161",
    "count_view": 0
  },
  {
    "link_thumb": "https://live.staticflickr.com/65535/49742957246_359ec56fb7_n.jpg",
    "id_album": "-1431786825",
    "description": "KAWAII060420214917258",
    "title": "KAWAII060420214917258",
    "link_img": "https://live.staticflickr.com/65535/49742957246_e27771f7b9_o.jpg",
    "id_image": "KAWAII060420214917258",
    "count_view": 0
  },
  {
    "link_thumb": "https://live.staticflickr.com/65535/49727475936_5723e4d0a5_n.jpg",
    "id_album": "431597977",
    "description": "KAWAII020420194512109",
    "title": "KAWAII020420194512109",
    "link_img": "https://live.staticflickr.com/65535/49727475936_5f53df718a_o.jpg",
    "id_image": "KAWAII020420194512109",
    "count_view": 0
  },
  {
    "link_thumb": "https://live.staticflickr.com/65535/49693682353_8b39a5992c_n.jpg",
    "id_album": "46674803",
    "description": "KAWAII24032022050233",
    "title": "KAWAII24032022050233",
    "link_img": "https://live.staticflickr.com/65535/49693682353_ffce88a729_o.jpg",
    "id_image": "KAWAII24032022050233",
    "count_view": 0
  },
  {
    "link_thumb": "https://live.staticflickr.com/65535/49743257167_612d045ff3_n.jpg",
    "id_album": "-316663319",
    "description": "KAWAII06042021491882",
    "title": "KAWAII06042021491882",
    "link_img": "https://live.staticflickr.com/65535/49743257167_867127abd9_o.jpg",
    "id_image": "KAWAII06042021491882",
    "count_view": 0
  },
  {
    "link_thumb": "https://live.staticflickr.com/65535/49710287133_c88fa54bb0_n.jpg",
    "id_album": "-1599896063",
    "description": "LITTLEMONK29032012063529",
    "title": "LITTLEMONK29032012063529",
    "link_img": "https://live.staticflickr.com/65535/49710287133_b5e17895be_o.jpg",
    "id_image": "LITTLEMONK29032012063529",
    "count_view": 0
  },
  {
    "link_thumb": "https://live.staticflickr.com/65535/49726920378_5fe622b19f_n.jpg",
    "id_album": "-1862561193",
    "description": "KAWAII02042019450970",
    "title": "KAWAII02042019450970",
    "link_img": "https://live.staticflickr.com/65535/49726920378_b7e012f436_o.jpg",
    "id_image": "KAWAII02042019450970",
    "count_view": 0
  },
  {
    "link_thumb": "https://live.staticflickr.com/65535/49742928611_e115991e55_n.jpg",
    "id_album": "-316663319",
    "description": "KAWAII060420214915247",
    "title": "KAWAII060420214915247",
    "link_img": "https://live.staticflickr.com/65535/49742928611_c3a8ea8e41_o.jpg",
    "id_image": "KAWAII060420214915247",
    "count_view": 0
  },
  {
    "link_thumb": "https://live.staticflickr.com/65535/49726902843_0b4e5de194_n.jpg",
    "id_album": "742877173",
    "description": "KAWAII02042019451244",
    "title": "KAWAII02042019451244",
    "link_img": "https://live.staticflickr.com/65535/49726902843_ce66e3eb60_o.jpg",
    "id_image": "KAWAII02042019451244",
    "count_view": 0
  },
  {
    "link_thumb": "https://live.staticflickr.com/65535/49711146377_82eb555582_n.jpg",
    "id_album": "-1599896063",
    "description": "LITTLEMONK29032012064018",
    "title": "LITTLEMONK29032012064018",
    "link_img": "https://live.staticflickr.com/65535/49711146377_944993cde7_o.jpg",
    "id_image": "LITTLEMONK29032012064018",
    "count_view": 0
  },
  {
    "link_thumb": "https://live.staticflickr.com/65535/49742368198_a78aea33e3_n.jpg",
    "id_album": "-1497779911",
    "description": "KAWAII060420214917131",
    "title": "KAWAII060420214917131",
    "link_img": "https://live.staticflickr.com/65535/49742368198_ec94c1902b_o.jpg",
    "id_image": "KAWAII060420214917131",
    "count_view": 0
  },
  {
    "link_thumb": "https://live.staticflickr.com/65535/49592206538_8eb7abfc3e_n.jpg",
    "id_album": "1396902986",
    "description": "KAWAII270220235180",
    "title": "KAWAII270220235180",
    "link_img": "https://live.staticflickr.com/65535/49592206538_39174b06ac_o.jpg",
    "id_image": "KAWAII270220235180",
    "count_view": 0
  },
  {
    "link_thumb": "https://live.staticflickr.com/65535/49548991382_a3038cb70f_n.jpg",
    "id_album": "1396902986",
    "description": "KAWAII17091823",
    "title": "KAWAII17091823",
    "link_img": "https://live.staticflickr.com/65535/49548991382_b7990f7462_o.jpg",
    "id_image": "KAWAII17091823",
    "count_view": 0
  },
  {
    "link_thumb": "https://live.staticflickr.com/65535/49548884902_c9ea1d67e8_n.jpg",
    "id_album": "-422187261",
    "description": "KAWAII1702202235175",
    "title": "KAWAII1702202235175",
    "link_img": "https://live.staticflickr.com/65535/49548884902_f126b3f549_o.jpg",
    "id_image": "KAWAII1702202235175",
    "count_view": 0
  },
  {
    "link_thumb": "https://live.staticflickr.com/65535/49694381982_22f65d6e4b_n.jpg",
    "id_album": "-643980979",
    "description": "KAWAII050320202188",
    "title": "KAWAII050320202188",
    "link_img": "https://live.staticflickr.com/65535/49694381982_3672308b8b_o.jpg",
    "id_image": "KAWAII050320202188",
    "count_view": 0
  },
  {
    "link_thumb": "https://live.staticflickr.com/65535/49743236852_27bb7c199f_n.jpg",
    "id_album": "-1497779911",
    "description": "KAWAII060420214911124",
    "title": "KAWAII060420214911124",
    "link_img": "https://live.staticflickr.com/65535/49743236852_719f1ee19a_o.jpg",
    "id_image": "KAWAII060420214911124",
    "count_view": 0
  },
  {
    "link_thumb": "https://live.staticflickr.com/65535/49743264657_6b99584462_n.jpg",
    "id_album": "-1473448477",
    "description": "KAWAII06042021491622",
    "title": "KAWAII06042021491622",
    "link_img": "https://live.staticflickr.com/65535/49743264657_4a600af82d_o.jpg",
    "id_image": "KAWAII06042021491622",
    "count_view": 0
  },
  {
    "link_thumb": "https://live.staticflickr.com/65535/49592953277_fa9f56b16b_n.jpg",
    "id_album": "-1741487325",
    "description": "KAWAII17091829",
    "title": "KAWAII17091829",
    "link_img": "https://live.staticflickr.com/65535/49592953277_874a2deb29_o.jpg",
    "id_image": "KAWAII17091829",
    "count_view": 0
  },
  {
    "link_thumb": "https://live.staticflickr.com/65535/49727428866_b94445e179_n.jpg",
    "id_album": "-1741487325",
    "description": "KAWAII020420194509190",
    "title": "KAWAII020420194509190",
    "link_img": "https://live.staticflickr.com/65535/49727428866_92a2cc237b_o.jpg",
    "id_image": "KAWAII020420194509190",
    "count_view": 0
  },
  {
    "link_thumb": "https://live.staticflickr.com/65535/49727749397_d14c03d1d7_n.jpg",
    "id_album": "-1497779911",
    "description": "KAWAII1702202239535",
    "title": "KAWAII1702202239535",
    "link_img": "https://live.staticflickr.com/65535/49727749397_2315de8422_o.jpg",
    "id_image": "KAWAII1702202239535",
    "count_view": 0
  },
  {
    "link_thumb": "https://live.staticflickr.com/65535/49726901483_c516a361ae_n.jpg",
    "id_album": "742877173",
    "description": "KAWAII020420194512151",
    "title": "KAWAII020420194512151",
    "link_img": "https://live.staticflickr.com/65535/49726901483_e39374deff_o.jpg",
    "id_image": "KAWAII020420194512151",
    "count_view": 0
  },
  {
    "link_thumb": "https://live.staticflickr.com/65535/49727441211_3a0d701017_n.jpg",
    "id_album": "742877173",
    "description": "KAWAII020420194508105",
    "title": "KAWAII020420194508105",
    "link_img": "https://live.staticflickr.com/65535/49727441211_8f9d2e417f_o.jpg",
    "id_image": "KAWAII020420194508105",
    "count_view": 0
  },
  {
    "link_thumb": "https://live.staticflickr.com/65535/49694123786_4dfbc91314_n.jpg",
    "id_album": "-358592519",
    "description": "KAWAII12091813",
    "title": "KAWAII12091813",
    "link_img": "https://live.staticflickr.com/65535/49694123786_e816227923_o.jpg",
    "id_image": "KAWAII12091813",
    "count_view": 0
  },
  {
    "link_thumb": "https://live.staticflickr.com/65535/49693583773_018250407a_n.jpg",
    "id_album": "1563362783",
    "description": "KAWAII12091825180220205945",
    "title": "KAWAII12091825180220205945",
    "link_img": "https://live.staticflickr.com/65535/49693583773_40f0fef43b_o.jpg",
    "id_image": "KAWAII12091825180220205945",
    "count_view": 0
  },
  {
    "link_thumb": "https://live.staticflickr.com/65535/49726905103_8e4ab5e108_n.jpg",
    "id_album": "742877173",
    "description": "KAWAII020420194514202",
    "title": "KAWAII020420194514202",
    "link_img": "https://live.staticflickr.com/65535/49726905103_1594caaa95_o.jpg",
    "id_image": "KAWAII020420194514202",
    "count_view": 0
  },
  {
    "link_thumb": "https://live.staticflickr.com/65535/49742911686_9ff0af5e21_n.jpg",
    "id_album": "-1741487325",
    "description": "KAWAII060420214912184",
    "title": "KAWAII060420214912184",
    "link_img": "https://live.staticflickr.com/65535/49742911686_c7bee8c3a9_o.jpg",
    "id_image": "KAWAII060420214912184",
    "count_view": 0
  },
  {
    "link_thumb": "https://live.staticflickr.com/65535/49727784842_cbc255ac83_n.jpg",
    "id_album": "-1862561193",
    "description": "KAWAII02042019451180",
    "title": "KAWAII02042019451180",
    "link_img": "https://live.staticflickr.com/65535/49727784842_13f09cf695_o.jpg",
    "id_image": "KAWAII02042019451180",
    "count_view": 0
  },
  {
    "link_thumb": "https://live.staticflickr.com/65535/49727442071_a7c0d8a3f0_n.jpg",
    "id_album": "742877173",
    "description": "KAWAII020420194508171",
    "title": "KAWAII020420194508171",
    "link_img": "https://live.staticflickr.com/65535/49727442071_7a61685d45_o.jpg",
    "id_image": "KAWAII020420194508171",
    "count_view": 0
  },
  {
    "link_thumb": "https://live.staticflickr.com/65535/49742931276_e90d41b7b3_n.jpg",
    "id_album": "-316663319",
    "description": "KAWAII060420214917221",
    "title": "KAWAII060420214917221",
    "link_img": "https://live.staticflickr.com/65535/49742931276_bcc8e8dc72_o.jpg",
    "id_image": "KAWAII060420214917221",
    "count_view": 0
  },
  {
    "link_thumb": "https://live.staticflickr.com/65535/49592712591_65f92a548f_n.jpg",
    "id_album": "-1694302085",
    "description": "KAWAII12091825180220205912",
    "title": "KAWAII12091825180220205912",
    "link_img": "https://live.staticflickr.com/65535/49592712591_4eac5111e0_o.jpg",
    "id_image": "KAWAII12091825180220205912",
    "count_view": 0
  },
  {
    "link_thumb": "https://live.staticflickr.com/65535/49693549298_c7eaef73cb_n.jpg",
    "id_album": "1201366373",
    "description": "KAWAII120918226",
    "title": "KAWAII120918226",
    "link_img": "https://live.staticflickr.com/65535/49693549298_789a292352_o.jpg",
    "id_image": "KAWAII120918226",
    "count_view": 0
  },
  {
    "link_thumb": "https://live.staticflickr.com/65535/49743240127_a27ab55489_n.jpg",
    "id_album": "-643980979",
    "description": "KAWAII060420214915151",
    "title": "KAWAII060420214915151",
    "link_img": "https://live.staticflickr.com/65535/49743240127_0e1c01ba4a_o.jpg",
    "id_image": "KAWAII060420214915151",
    "count_view": 0
  },
  {
    "link_thumb": "https://live.staticflickr.com/65535/49742357218_998358f25d_n.jpg",
    "id_album": "-1913845949",
    "description": "KAWAII06042021491719",
    "title": "KAWAII06042021491719",
    "link_img": "https://live.staticflickr.com/65535/49742357218_847a0f458e_o.jpg",
    "id_image": "KAWAII06042021491719",
    "count_view": 0
  },
  {
    "link_thumb": "https://live.staticflickr.com/65535/49743281817_2825112c88_n.jpg",
    "id_album": "1226948986",
    "description": "KAWAII060420214918133",
    "title": "KAWAII060420214918133",
    "link_img": "https://live.staticflickr.com/65535/49743281817_0d8a529dd2_o.jpg",
    "id_image": "KAWAII060420214918133",
    "count_view": 0
  },
  {
    "link_thumb": "https://live.staticflickr.com/65535/49693569493_bcc9abe5f7_n.jpg",
    "id_album": "1201366373",
    "description": "KAWAII1702202238478",
    "title": "KAWAII1702202238478",
    "link_img": "https://live.staticflickr.com/65535/49693569493_ce73b63e12_o.jpg",
    "id_image": "KAWAII1702202238478",
    "count_view": 0
  },
  {
    "link_thumb": "https://live.staticflickr.com/65535/49548783417_8fb83743c1_n.jpg",
    "id_album": "-316663319",
    "description": "KAWAII120918149",
    "title": "KAWAII120918149",
    "link_img": "https://live.staticflickr.com/65535/49548783417_2e592593da_o.jpg",
    "id_image": "KAWAII120918149",
    "count_view": 0
  },
  {
    "link_thumb": "https://live.staticflickr.com/65535/49548064628_d02e014ab6_n.jpg",
    "id_album": "-316663319",
    "description": "KAWAII120918191",
    "title": "KAWAII120918191",
    "link_img": "https://live.staticflickr.com/65535/49548064628_78deddcd7e_o.jpg",
    "id_image": "KAWAII120918191",
    "count_view": 0
  },
  {
    "link_thumb": "https://live.staticflickr.com/65535/49693561008_21ae6f4694_n.jpg",
    "id_album": "1201366373",
    "description": "KAWAII12091875",
    "title": "KAWAII12091875",
    "link_img": "https://live.staticflickr.com/65535/49693561008_345b6b4f6a_o.jpg",
    "id_image": "KAWAII12091875",
    "count_view": 0
  },
  {
    "link_thumb": "https://live.staticflickr.com/65535/49743229022_18f1dffec0_n.jpg",
    "id_album": "-1913845949",
    "description": "KAWAII060420214918319",
    "title": "KAWAII060420214918319",
    "link_img": "https://live.staticflickr.com/65535/49743229022_a755296381_o.jpg",
    "id_image": "KAWAII060420214918319",
    "count_view": 0
  },
  {
    "link_thumb": "https://live.staticflickr.com/65535/49694116601_dd81e1197d_n.jpg",
    "id_album": "-643980979",
    "description": "KAWAII170220234619",
    "title": "KAWAII170220234619",
    "link_img": "https://live.staticflickr.com/65535/49694116601_5f6ba4f4f0_o.jpg",
    "id_image": "KAWAII170220234619",
    "count_view": 0
  },
  {
    "link_thumb": "https://live.staticflickr.com/65535/49727443936_beae1b9b89_n.jpg",
    "id_album": "742877173",
    "description": "KAWAII020420194509187",
    "title": "KAWAII020420194509187",
    "link_img": "https://live.staticflickr.com/65535/49727443936_a0e4d324d8_o.jpg",
    "id_image": "KAWAII020420194509187",
    "count_view": 0
  },
  {
    "link_thumb": "https://live.staticflickr.com/65535/49548631296_5f6f495d45_n.jpg",
    "id_album": "-316663319",
    "description": "KAWAII1702202234111",
    "title": "KAWAII1702202234111",
    "link_img": "https://live.staticflickr.com/65535/49548631296_4e556fbc92_o.jpg",
    "id_image": "KAWAII1702202234111",
    "count_view": 0
  },
  {
    "link_thumb": "https://live.staticflickr.com/65535/49711146627_ecd37057a1_n.jpg",
    "id_album": "-1599896063",
    "description": "LITTLEMONK29032012064022",
    "title": "LITTLEMONK29032012064022",
    "link_img": "https://live.staticflickr.com/65535/49711146627_b08b52fb70_o.jpg",
    "id_image": "LITTLEMONK29032012064022",
    "count_view": 0
  },
  {
    "link_thumb": "https://live.staticflickr.com/65535/49548169653_65379b73e3_n.jpg",
    "id_album": "-1099943053",
    "description": "KAWAII1702202236241",
    "title": "KAWAII1702202236241",
    "link_img": "https://live.staticflickr.com/65535/49548169653_8a7c4e836a_o.jpg",
    "id_image": "KAWAII1702202236241",
    "count_view": 0
  },
  {
    "link_thumb": "https://live.staticflickr.com/65535/49592715936_b6563ff9cf_n.jpg",
    "id_album": "-316663319",
    "description": "KAWAII2702202351151",
    "title": "KAWAII2702202351151",
    "link_img": "https://live.staticflickr.com/65535/49592715936_a826674ff2_o.jpg",
    "id_image": "KAWAII2702202351151",
    "count_view": 0
  },
  {
    "link_thumb": "https://live.staticflickr.com/65535/49742932331_dd92b481c5_n.jpg",
    "id_album": "-316663319",
    "description": "KAWAII06042021491767",
    "title": "KAWAII06042021491767",
    "link_img": "https://live.staticflickr.com/65535/49742932331_ce3f21680a_o.jpg",
    "id_image": "KAWAII06042021491767",
    "count_view": 0
  },
  {
    "link_thumb": "https://live.staticflickr.com/65535/49693677093_8a9bf78dcc_n.jpg",
    "id_album": "-1432180061",
    "description": "KAWAII120918263",
    "title": "KAWAII120918263",
    "link_img": "https://live.staticflickr.com/65535/49693677093_3b554b7c07_o.jpg",
    "id_image": "KAWAII120918263",
    "count_view": 0
  },
  {
    "link_thumb": "https://live.staticflickr.com/65535/49693686563_02b03fcd19_n.jpg",
    "id_album": "1226948986",
    "description": "KAWAII24032022050259",
    "title": "KAWAII24032022050259",
    "link_img": "https://live.staticflickr.com/65535/49693686563_edfd6d82e3_o.jpg",
    "id_image": "KAWAII24032022050259",
    "count_view": 0
  },
  {
    "link_thumb": "https://live.staticflickr.com/65535/49592212928_405a8dd919_n.jpg",
    "id_album": "-316663319",
    "description": "KAWAII2702202351143",
    "title": "KAWAII2702202351143",
    "link_img": "https://live.staticflickr.com/65535/49592212928_3f4652a666_o.jpg",
    "id_image": "KAWAII2702202351143",
    "count_view": 0
  },
  {
    "link_thumb": "https://live.staticflickr.com/65535/49693576513_e6ef2f63db_n.jpg",
    "id_album": "-643980979",
    "description": "KAWAII17091817",
    "title": "KAWAII17091817",
    "link_img": "https://live.staticflickr.com/65535/49693576513_2cdda0be50_o.jpg",
    "id_image": "KAWAII17091817",
    "count_view": 0
  },
  {
    "link_thumb": "https://live.staticflickr.com/65535/49548898952_07f6c9e509_n.jpg",
    "id_album": "1396902986",
    "description": "KAWAII1702202236246",
    "title": "KAWAII1702202236246",
    "link_img": "https://live.staticflickr.com/65535/49548898952_b34c40a11f_o.jpg",
    "id_image": "KAWAII1702202236246",
    "count_view": 0
  },
  {
    "link_thumb": "https://live.staticflickr.com/65535/49622830001_eb9b004f6c_n.jpg",
    "id_album": "-316663319",
    "description": "KAWAII0503202021290",
    "title": "KAWAII0503202021290",
    "link_img": "https://live.staticflickr.com/65535/49622830001_1cb79bebf2_o.jpg",
    "id_image": "KAWAII0503202021290",
    "count_view": 0
  },
  {
    "link_thumb": "https://live.staticflickr.com/65535/49693672998_18981af17b_n.jpg",
    "id_album": "-1741487325",
    "description": "KAWAII0503202021121",
    "title": "KAWAII0503202021121",
    "link_img": "https://live.staticflickr.com/65535/49693672998_32a6f17ddf_o.jpg",
    "id_image": "KAWAII0503202021121",
    "count_view": 0
  },
  {
    "link_thumb": "https://live.staticflickr.com/65535/49726883238_c1f6625ddc_n.jpg",
    "id_album": "-1497779911",
    "description": "KAWAII020420194512169",
    "title": "KAWAII020420194512169",
    "link_img": "https://live.staticflickr.com/65535/49726883238_e983ae8813_o.jpg",
    "id_image": "KAWAII020420194512169",
    "count_view": 0
  },
  {
    "link_thumb": "https://live.staticflickr.com/65535/49548761011_a854ffae56_n.jpg",
    "id_album": "-1741487325",
    "description": "KAWAII17091812",
    "title": "KAWAII17091812",
    "link_img": "https://live.staticflickr.com/65535/49548761011_2a9b4eef60_o.jpg",
    "id_image": "KAWAII17091812",
    "count_view": 0
  },
  {
    "link_thumb": "https://live.staticflickr.com/65535/49548119988_4e6f381ed7_n.jpg",
    "id_album": "-316663319",
    "description": "KAWAII12091898",
    "title": "KAWAII12091898",
    "link_img": "https://live.staticflickr.com/65535/49548119988_638fe1d01a_o.jpg",
    "id_image": "KAWAII12091898",
    "count_view": 0
  },
  {
    "link_thumb": "https://live.staticflickr.com/65535/49548993507_d5f98f1ded_n.jpg",
    "id_album": "-1741487325",
    "description": "KAWAII1709183",
    "title": "KAWAII1709183",
    "link_img": "https://live.staticflickr.com/65535/49548993507_a7333853ac_o.jpg",
    "id_image": "KAWAII1709183",
    "count_view": 0
  },
  {
    "link_thumb": "https://live.staticflickr.com/65535/49743268837_23516a0724_n.jpg",
    "id_album": "-1779286820",
    "description": "KAWAII060420214918103",
    "title": "KAWAII060420214918103",
    "link_img": "https://live.staticflickr.com/65535/49743268837_894b3edc40_o.jpg",
    "id_image": "KAWAII060420214918103",
    "count_view": 0
  },
  {
    "link_thumb": "https://live.staticflickr.com/65535/49592962932_0c0df353dc_n.jpg",
    "id_album": "-316663319",
    "description": "KAWAII270220235187",
    "title": "KAWAII270220235187",
    "link_img": "https://live.staticflickr.com/65535/49592962932_3900739668_o.jpg",
    "id_image": "KAWAII270220235187",
    "count_view": 0
  },
  {
    "link_thumb": "https://live.staticflickr.com/65535/49694397282_ee9e7004e9_n.jpg",
    "id_album": "1201366373",
    "description": "KAWAII120918248",
    "title": "KAWAII120918248",
    "link_img": "https://live.staticflickr.com/65535/49694397282_e3e2589734_o.jpg",
    "id_image": "KAWAII120918248",
    "count_view": 0
  },
  {
    "link_thumb": "https://live.staticflickr.com/65535/49727745482_f382fce553_n.jpg",
    "id_album": "-1497779911",
    "description": "KAWAII0503202021126",
    "title": "KAWAII0503202021126",
    "link_img": "https://live.staticflickr.com/65535/49727745482_731a05e64f_o.jpg",
    "id_image": "KAWAII0503202021126",
    "count_view": 0
  },
  {
    "link_thumb": "https://live.staticflickr.com/65535/49548902482_4e5301c113_n.jpg",
    "id_album": "-1694302085",
    "description": "KAWAII1702202236264",
    "title": "KAWAII1702202236264",
    "link_img": "https://live.staticflickr.com/65535/49548902482_d915b835fa_o.jpg",
    "id_image": "KAWAII1702202236264",
    "count_view": 0
  },
  {
    "link_thumb": "https://live.staticflickr.com/65535/49548732716_c1b3db900e_n.jpg",
    "id_album": "-422187261",
    "description": "KAWAII1702202239502",
    "title": "KAWAII1702202239502",
    "link_img": "https://live.staticflickr.com/65535/49548732716_9fd25203e7_o.jpg",
    "id_image": "KAWAII1702202239502",
    "count_view": 0
  },
  {
    "link_thumb": "https://live.staticflickr.com/65535/49694110351_5db1d489ac_n.jpg",
    "id_album": "-643980979",
    "description": "KAWAII1702202236295",
    "title": "KAWAII1702202236295",
    "link_img": "https://live.staticflickr.com/65535/49694110351_b45f617bf8_o.jpg",
    "id_image": "KAWAII1702202236295",
    "count_view": 0
  },
  {
    "link_thumb": "https://live.staticflickr.com/65535/49548662521_495fec0c6f_n.jpg",
    "id_album": "1396902986",
    "description": "KAWAII1702202235199",
    "title": "KAWAII1702202235199",
    "link_img": "https://live.staticflickr.com/65535/49548662521_41402ffbc9_o.jpg",
    "id_image": "KAWAII1702202235199",
    "count_view": 0
  },
  {
    "link_thumb": "https://live.staticflickr.com/65535/49694380432_89f3889088_n.jpg",
    "id_album": "-643980979",
    "description": "KAWAII050320202175",
    "title": "KAWAII050320202175",
    "link_img": "https://live.staticflickr.com/65535/49694380432_579e059c17_o.jpg",
    "id_image": "KAWAII050320202175",
    "count_view": 0
  },
  {
    "link_thumb": "https://live.staticflickr.com/65535/49742383238_ea87b68092_n.jpg",
    "id_album": "-316663319",
    "description": "KAWAII060420214917130",
    "title": "KAWAII060420214917130",
    "link_img": "https://live.staticflickr.com/65535/49742383238_5cf925f38d_o.jpg",
    "id_image": "KAWAII060420214917130",
    "count_view": 0
  },
  {
    "link_thumb": "https://live.staticflickr.com/65535/49727751687_7a731233df_n.jpg",
    "id_album": "-316663319",
    "description": "KAWAII020420194510235",
    "title": "KAWAII020420194510235",
    "link_img": "https://live.staticflickr.com/65535/49727751687_d43218505f_o.jpg",
    "id_image": "KAWAII020420194510235",
    "count_view": 0
  },
  {
    "link_thumb": "https://live.staticflickr.com/65535/49548208343_1835ca9b10_n.jpg",
    "id_album": "431597977",
    "description": "KAWAII1702202238413",
    "title": "KAWAII1702202238413",
    "link_img": "https://live.staticflickr.com/65535/49548208343_ee01e69020_o.jpg",
    "id_image": "KAWAII1702202238413",
    "count_view": 0
  },
  {
    "link_thumb": "https://live.staticflickr.com/65535/49548224413_f058009119_n.jpg",
    "id_album": "-1099943053",
    "description": "KAWAII1702202238472",
    "title": "KAWAII1702202238472",
    "link_img": "https://live.staticflickr.com/65535/49548224413_3f5cb366f2_o.jpg",
    "id_image": "KAWAII1702202238472",
    "count_view": 0
  },
  {
    "link_thumb": "https://live.staticflickr.com/65535/49548120603_dacbbc6809_n.jpg",
    "id_album": "-1099943053",
    "description": "KAWAII170220223310",
    "title": "KAWAII170220223310",
    "link_img": "https://live.staticflickr.com/65535/49548120603_9955480543_o.jpg",
    "id_image": "KAWAII170220223310",
    "count_view": 0
  },
  {
    "link_thumb": "https://live.staticflickr.com/65535/49693582248_aec5e0bea5_n.jpg",
    "id_album": "-358592519",
    "description": "KAWAII1702202236302",
    "title": "KAWAII1702202236302",
    "link_img": "https://live.staticflickr.com/65535/49693582248_45280fbeb2_o.jpg",
    "id_image": "KAWAII1702202236302",
    "count_view": 0
  },
  {
    "link_thumb": "https://live.staticflickr.com/65535/49726920793_d5f069a07f_n.jpg",
    "id_album": "-1862561193",
    "description": "KAWAII0204201945111",
    "title": "KAWAII0204201945111",
    "link_img": "https://live.staticflickr.com/65535/49726920793_d6b6f36c3f_o.jpg",
    "id_image": "KAWAII0204201945111",
    "count_view": 0
  },
  {
    "link_thumb": "https://live.staticflickr.com/65535/49592721546_d1ebfd4155_n.jpg",
    "id_album": "-316663319",
    "description": "KAWAII270220235190",
    "title": "KAWAII270220235190",
    "link_img": "https://live.staticflickr.com/65535/49592721546_c743116700_o.jpg",
    "id_image": "KAWAII270220235190",
    "count_view": 0
  },
  {
    "link_thumb": "https://live.staticflickr.com/65535/49548648206_fc77f7e2f5_n.jpg",
    "id_album": "1396902986",
    "description": "KAWAII1702202235130",
    "title": "KAWAII1702202235130",
    "link_img": "https://live.staticflickr.com/65535/49548648206_5d6c93a8e1_o.jpg",
    "id_image": "KAWAII1702202235130",
    "count_view": 0
  },
  {
    "link_thumb": "https://live.staticflickr.com/65535/49548544106_8405c0472a_n.jpg",
    "id_album": "-316663319",
    "description": "KAWAII12091810",
    "title": "KAWAII12091810",
    "link_img": "https://live.staticflickr.com/65535/49548544106_9f59e75a27_o.jpg",
    "id_image": "KAWAII12091810",
    "count_view": 0
  },
  {
    "link_thumb": "https://live.staticflickr.com/65535/49727782887_cac39ff7ec_n.jpg",
    "id_album": "-1862561193",
    "description": "KAWAII020420194511121",
    "title": "KAWAII020420194511121",
    "link_img": "https://live.staticflickr.com/65535/49727782887_051589ae4d_o.jpg",
    "id_image": "KAWAII020420194511121",
    "count_view": 0
  },
  {
    "link_thumb": "https://live.staticflickr.com/65535/49726888268_378c11866f_n.jpg",
    "id_album": "-316663319",
    "description": "KAWAII020420194507136",
    "title": "KAWAII020420194507136",
    "link_img": "https://live.staticflickr.com/65535/49726888268_6343a99482_o.jpg",
    "id_image": "KAWAII020420194507136",
    "count_view": 0
  },
  {
    "link_thumb": "https://live.staticflickr.com/65535/49548674331_ec9a153fe8_n.jpg",
    "id_album": "-422187261",
    "description": "KAWAII1702202236260",
    "title": "KAWAII1702202236260",
    "link_img": "https://live.staticflickr.com/65535/49548674331_014171d2dd_o.jpg",
    "id_image": "KAWAII1702202236260",
    "count_view": 0
  },
  {
    "link_thumb": "https://live.staticflickr.com/65535/49727443596_72a83f0aac_n.jpg",
    "id_album": "742877173",
    "description": "KAWAII02042019450879",
    "title": "KAWAII02042019450879",
    "link_img": "https://live.staticflickr.com/65535/49727443596_fc339dda69_o.jpg",
    "id_image": "KAWAII02042019450879",
    "count_view": 0
  },
  {
    "link_thumb": "https://live.staticflickr.com/65535/49592209268_d679ee2f10_n.jpg",
    "id_album": "-1432180061",
    "description": "KAWAII270220235138",
    "title": "KAWAII270220235138",
    "link_img": "https://live.staticflickr.com/65535/49592209268_998a8a6dfe_o.jpg",
    "id_image": "KAWAII270220235138",
    "count_view": 0
  },
  {
    "link_thumb": "https://live.staticflickr.com/65535/49726917948_a6d0a8d51e_n.jpg",
    "id_album": "1396902986",
    "description": "KAWAII02042019451182",
    "title": "KAWAII02042019451182",
    "link_img": "https://live.staticflickr.com/65535/49726917948_aff8c25539_o.jpg",
    "id_image": "KAWAII02042019451182",
    "count_view": 0
  },
  {
    "link_thumb": "https://live.staticflickr.com/65535/49742901501_e4f5d95199_n.jpg",
    "id_album": "-1913845949",
    "description": "KAWAII06042021491242",
    "title": "KAWAII06042021491242",
    "link_img": "https://live.staticflickr.com/65535/49742901501_d47960e2eb_o.jpg",
    "id_image": "KAWAII06042021491242",
    "count_view": 0
  },
  {
    "link_thumb": "https://live.staticflickr.com/65535/49622334223_e13ccd0b36_n.jpg",
    "id_album": "-406350429",
    "description": "KAWAII0503202021321",
    "title": "KAWAII0503202021321",
    "link_img": "https://live.staticflickr.com/65535/49622334223_cc2a9dea35_o.jpg",
    "id_image": "KAWAII0503202021321",
    "count_view": 0
  },
  {
    "link_thumb": "https://live.staticflickr.com/65535/49694379302_6d40337bae_n.jpg",
    "id_album": "-643980979",
    "description": "KAWAII050320202156",
    "title": "KAWAII050320202156",
    "link_img": "https://live.staticflickr.com/65535/49694379302_393105eca9_o.jpg",
    "id_image": "KAWAII050320202156",
    "count_view": 0
  },
  {
    "link_thumb": "https://live.staticflickr.com/65535/49694411482_dccb80dd9f_n.jpg",
    "id_album": "-643980979",
    "description": "KAWAII1702202235196",
    "title": "KAWAII1702202235196",
    "link_img": "https://live.staticflickr.com/65535/49694411482_4d17f04c9f_o.jpg",
    "id_image": "KAWAII1702202235196",
    "count_view": 0
  },
  {
    "link_thumb": "https://live.staticflickr.com/65535/49742939801_400ce940f5_n.jpg",
    "id_album": "-1473448477",
    "description": "KAWAII06042021491554",
    "title": "KAWAII06042021491554",
    "link_img": "https://live.staticflickr.com/65535/49742939801_689f802c52_o.jpg",
    "id_image": "KAWAII06042021491554",
    "count_view": 0
  },
  {
    "link_thumb": "https://live.staticflickr.com/65535/49742952006_e9716ab44a_n.jpg",
    "id_album": "-1862561193",
    "description": "KAWAII0604202149153",
    "title": "KAWAII0604202149153",
    "link_img": "https://live.staticflickr.com/65535/49742952006_73b3e51801_o.jpg",
    "id_image": "KAWAII0604202149153",
    "count_view": 0
  },
  {
    "link_thumb": "https://live.staticflickr.com/65535/49742958826_9d73988b98_n.jpg",
    "id_album": "1226948986",
    "description": "KAWAII060420214918254",
    "title": "KAWAII060420214918254",
    "link_img": "https://live.staticflickr.com/65535/49742958826_454e3e0b10_o.jpg",
    "id_image": "KAWAII060420214918254",
    "count_view": 0
  },
  {
    "link_thumb": "https://live.staticflickr.com/65535/49743281657_9e4050ddeb_n.jpg",
    "id_album": "1226948986",
    "description": "KAWAII060420214918100",
    "title": "KAWAII060420214918100",
    "link_img": "https://live.staticflickr.com/65535/49743281657_b5d2110d32_o.jpg",
    "id_image": "KAWAII060420214918100",
    "count_view": 0
  },
  {
    "link_thumb": "https://live.staticflickr.com/65535/49623097582_a0b5d26cc5_n.jpg",
    "id_album": "-316663319",
    "description": "KAWAII0503202021229",
    "title": "KAWAII0503202021229",
    "link_img": "https://live.staticflickr.com/65535/49623097582_22857551b6_o.jpg",
    "id_image": "KAWAII0503202021229",
    "count_view": 0
  },
  {
    "link_thumb": "https://live.staticflickr.com/65535/49548745676_34bdbfa0cf_n.jpg",
    "id_album": "431597977",
    "description": "KAWAII1702202239552",
    "title": "KAWAII1702202239552",
    "link_img": "https://live.staticflickr.com/65535/49548745676_c9217c51d5_o.jpg",
    "id_image": "KAWAII1702202239552",
    "count_view": 0
  },
  {
    "link_thumb": "https://live.staticflickr.com/65535/49742354413_6dc8252d9d_n.jpg",
    "id_album": "-1913845949",
    "description": "KAWAII060420214914280",
    "title": "KAWAII060420214914280",
    "link_img": "https://live.staticflickr.com/65535/49742354413_e00fcae2fc_o.jpg",
    "id_image": "KAWAII060420214914280",
    "count_view": 0
  },
  {
    "link_thumb": "https://live.staticflickr.com/65535/49742387398_a3c2dd7a30_n.jpg",
    "id_album": "-1473448477",
    "description": "KAWAII060420214915149",
    "title": "KAWAII060420214915149",
    "link_img": "https://live.staticflickr.com/65535/49742387398_14426b905c_o.jpg",
    "id_image": "KAWAII060420214915149",
    "count_view": 0
  },
  {
    "link_thumb": "https://live.staticflickr.com/65535/49694125311_154b517e69_n.jpg",
    "id_album": "-358592519",
    "description": "KAWAII1702202237314",
    "title": "KAWAII1702202237314",
    "link_img": "https://live.staticflickr.com/65535/49694125311_83b4919df8_o.jpg",
    "id_image": "KAWAII1702202237314",
    "count_view": 0
  },
  {
    "link_thumb": "https://live.staticflickr.com/65535/49623116602_110b090b4c_n.jpg",
    "id_album": "-406350429",
    "description": "KAWAII0503202021206",
    "title": "KAWAII0503202021206",
    "link_img": "https://live.staticflickr.com/65535/49623116602_271373667e_o.jpg",
    "id_image": "KAWAII0503202021206",
    "count_view": 0
  },
  {
    "link_thumb": "https://live.staticflickr.com/65535/49693685603_fea1c3b98f_n.jpg",
    "id_album": "1226948986",
    "description": "KAWAII24032022050230",
    "title": "KAWAII24032022050230",
    "link_img": "https://live.staticflickr.com/65535/49693685603_4b164d0fa6_o.jpg",
    "id_image": "KAWAII24032022050230",
    "count_view": 0
  },
  {
    "link_thumb": "https://live.staticflickr.com/65535/49693682648_1a841806bb_n.jpg",
    "id_album": "46674803",
    "description": "KAWAII24032022050349",
    "title": "KAWAII24032022050349",
    "link_img": "https://live.staticflickr.com/65535/49693682648_21aa5984af_o.jpg",
    "id_image": "KAWAII24032022050349",
    "count_view": 0
  },
  {
    "link_thumb": "https://live.staticflickr.com/65535/49743233112_a052b832b6_n.jpg",
    "id_album": "-1694302085",
    "description": "KAWAII060420214913279",
    "title": "KAWAII060420214913279",
    "link_img": "https://live.staticflickr.com/65535/49743233112_74409ce0b3_o.jpg",
    "id_image": "KAWAII060420214913279",
    "count_view": 0
  },
  {
    "link_thumb": "https://live.staticflickr.com/65535/49548965382_a0187cbe61_n.jpg",
    "id_album": "-1099943053",
    "description": "KAWAII1702202239522",
    "title": "KAWAII1702202239522",
    "link_img": "https://live.staticflickr.com/65535/49548965382_ab60cb6c53_o.jpg",
    "id_image": "KAWAII1702202239522",
    "count_view": 0
  },
  {
    "link_thumb": "https://live.staticflickr.com/65535/49710822066_8d26e98f9b_n.jpg",
    "id_album": "-1599896063",
    "description": "LITTLEMONK29032012063819",
    "title": "LITTLEMONK29032012063819",
    "link_img": "https://live.staticflickr.com/65535/49710822066_fb594062e3_o.jpg",
    "id_image": "LITTLEMONK29032012063819",
    "count_view": 0
  },
  {
    "link_thumb": "https://live.staticflickr.com/65535/49694106931_e84516a41d_n.jpg",
    "id_album": "-643980979",
    "description": "KAWAII170220223443",
    "title": "KAWAII170220223443",
    "link_img": "https://live.staticflickr.com/65535/49694106931_9d7422bb05_o.jpg",
    "id_image": "KAWAII170220223443",
    "count_view": 0
  },
  {
    "link_thumb": "https://live.staticflickr.com/65535/49548910797_f739431fdb_n.jpg",
    "id_album": "1396902986",
    "description": "KAWAII1702202236305",
    "title": "KAWAII1702202236305",
    "link_img": "https://live.staticflickr.com/65535/49548910797_893b16401f_o.jpg",
    "id_image": "KAWAII1702202236305",
    "count_view": 0
  },
  {
    "link_thumb": "https://live.staticflickr.com/65535/49726922893_af395df580_n.jpg",
    "id_album": "-1862561193",
    "description": "KAWAII0204201945118",
    "title": "KAWAII0204201945118",
    "link_img": "https://live.staticflickr.com/65535/49726922893_9f0e4fa3c4_o.jpg",
    "id_image": "KAWAII0204201945118",
    "count_view": 0
  },
  {
    "link_thumb": "https://live.staticflickr.com/65535/49548771156_3f52ac3eba_n.jpg",
    "id_album": "-316663319",
    "description": "KAWAII17091845",
    "title": "KAWAII17091845",
    "link_img": "https://live.staticflickr.com/65535/49548771156_4ddeb425f3_o.jpg",
    "id_image": "KAWAII17091845",
    "count_view": 0
  },
  {
    "link_thumb": "https://live.staticflickr.com/65535/49727448281_b4ec788374_n.jpg",
    "id_album": "742877173",
    "description": "KAWAII020420194511265",
    "title": "KAWAII020420194511265",
    "link_img": "https://live.staticflickr.com/65535/49727448281_40f223619f_o.jpg",
    "id_image": "KAWAII020420194511265",
    "count_view": 0
  },
  {
    "link_thumb": "https://live.staticflickr.com/65535/49548645296_9dcffe9684_n.jpg",
    "id_album": "-1432180061",
    "description": "KAWAII170220223492",
    "title": "KAWAII170220223492",
    "link_img": "https://live.staticflickr.com/65535/49548645296_0a4dc82c12_o.jpg",
    "id_image": "KAWAII170220223492",
    "count_view": 0
  },
  {
    "link_thumb": "https://live.staticflickr.com/65535/49727789047_984311d8a0_n.jpg",
    "id_album": "1563362783",
    "description": "KAWAII1702202237392",
    "title": "KAWAII1702202237392",
    "link_img": "https://live.staticflickr.com/65535/49727789047_b9f8c98b67_o.jpg",
    "id_image": "KAWAII1702202237392",
    "count_view": 0
  },
  {
    "link_thumb": "https://live.staticflickr.com/65535/49592734871_2c04c37b6e_n.jpg",
    "id_album": "-1431786825",
    "description": "KAWAII270220235110",
    "title": "KAWAII270220235110",
    "link_img": "https://live.staticflickr.com/65535/49592734871_e8ba8146bd_o.jpg",
    "id_image": "KAWAII270220235110",
    "count_view": 0
  },
  {
    "link_thumb": "https://live.staticflickr.com/65535/49742931711_77cbb86041_n.jpg",
    "id_album": "-316663319",
    "description": "KAWAII060420214917277",
    "title": "KAWAII060420214917277",
    "link_img": "https://live.staticflickr.com/65535/49742931711_35c6fdfc96_o.jpg",
    "id_image": "KAWAII060420214917277",
    "count_view": 0
  },
  {
    "link_thumb": "https://live.staticflickr.com/65535/49548056578_4ebb66f297_n.jpg",
    "id_album": "-1741487325",
    "description": "KAWAII120918159",
    "title": "KAWAII120918159",
    "link_img": "https://live.staticflickr.com/65535/49548056578_89ae5d8390_o.jpg",
    "id_image": "KAWAII120918159",
    "count_view": 0
  },
  {
    "link_thumb": "https://live.staticflickr.com/65535/49592949937_d5ae9c4fd8_n.jpg",
    "id_album": "1396902986",
    "description": "KAWAII2702202351152",
    "title": "KAWAII2702202351152",
    "link_img": "https://live.staticflickr.com/65535/49592949937_34eaf5eb63_o.jpg",
    "id_image": "KAWAII2702202351152",
    "count_view": 0
  },
  {
    "link_thumb": "https://live.staticflickr.com/65535/49693534803_6fd2b6ce19_n.jpg",
    "id_album": "-643980979",
    "description": "KAWAII050320202181",
    "title": "KAWAII050320202181",
    "link_img": "https://live.staticflickr.com/65535/49693534803_d4a668e179_o.jpg",
    "id_image": "KAWAII050320202181",
    "count_view": 0
  },
  {
    "link_thumb": "https://live.staticflickr.com/65535/49623069322_56a5a0f0ea_n.jpg",
    "id_album": "-422187261",
    "description": "KAWAII0503202021236",
    "title": "KAWAII0503202021236",
    "link_img": "https://live.staticflickr.com/65535/49623069322_0491e6eca9_o.jpg",
    "id_image": "KAWAII0503202021236",
    "count_view": 0
  },
  {
    "link_thumb": "https://live.staticflickr.com/65535/49742933061_753661e456_n.jpg",
    "id_album": "-316663319",
    "description": "KAWAII06042021491846",
    "title": "KAWAII06042021491846",
    "link_img": "https://live.staticflickr.com/65535/49742933061_e984dfc0bd_o.jpg",
    "id_image": "KAWAII06042021491846",
    "count_view": 0
  },
  {
    "link_thumb": "https://live.staticflickr.com/65535/49693557013_04796e6138_n.jpg",
    "id_album": "1201366373",
    "description": "KAWAII120918305",
    "title": "KAWAII120918305",
    "link_img": "https://live.staticflickr.com/65535/49693557013_eb148c7f4e_o.jpg",
    "id_image": "KAWAII120918305",
    "count_view": 0
  },
  {
    "link_thumb": "https://live.staticflickr.com/65535/49622334453_e7acc9cfeb_n.jpg",
    "id_album": "-406350429",
    "description": "KAWAII050320202160",
    "title": "KAWAII050320202160",
    "link_img": "https://live.staticflickr.com/65535/49622334453_db673f5e89_o.jpg",
    "id_image": "KAWAII050320202160",
    "count_view": 0
  },
  {
    "link_thumb": "https://live.staticflickr.com/65535/49623093352_35b1d184b3_n.jpg",
    "id_album": "-316663319",
    "description": "KAWAII0503202021191",
    "title": "KAWAII0503202021191",
    "link_img": "https://live.staticflickr.com/65535/49623093352_c23b7e6dbd_o.jpg",
    "id_image": "KAWAII0503202021191",
    "count_view": 0
  },
  {
    "link_thumb": "https://live.staticflickr.com/65535/49694395672_7f65285bda_n.jpg",
    "id_album": "1201366373",
    "description": "KAWAII120918230",
    "title": "KAWAII120918230",
    "link_img": "https://live.staticflickr.com/65535/49694395672_d8e7ccf8ef_o.jpg",
    "id_image": "KAWAII120918230",
    "count_view": 0
  },
  {
    "link_thumb": "https://live.staticflickr.com/65535/49743270952_69c55ff46c_n.jpg",
    "id_album": "1396902986",
    "description": "KAWAII060420214912204",
    "title": "KAWAII060420214912204",
    "link_img": "https://live.staticflickr.com/65535/49743270952_1285abea5b_o.jpg",
    "id_image": "KAWAII060420214912204",
    "count_view": 0
  },
  {
    "link_thumb": "https://live.staticflickr.com/65535/49548185898_3ef0c51f7b_n.jpg",
    "id_album": "-1741487325",
    "description": "KAWAII1702202237321",
    "title": "KAWAII1702202237321",
    "link_img": "https://live.staticflickr.com/65535/49548185898_abab100efd_o.jpg",
    "id_image": "KAWAII1702202237321",
    "count_view": 0
  },
  {
    "link_thumb": "https://live.staticflickr.com/65535/49742409188_22e72030a2_n.jpg",
    "id_album": "-1431786825",
    "description": "KAWAII060420214917183",
    "title": "KAWAII060420214917183",
    "link_img": "https://live.staticflickr.com/65535/49742409188_e13fbcc783_o.jpg",
    "id_image": "KAWAII060420214917183",
    "count_view": 0
  },
  {
    "link_thumb": "https://live.staticflickr.com/65535/49592708121_d3b90ed4e7_n.jpg",
    "id_album": "1396902986",
    "description": "KAWAII270220235137",
    "title": "KAWAII270220235137",
    "link_img": "https://live.staticflickr.com/65535/49592708121_c87e16771c_o.jpg",
    "id_image": "KAWAII270220235137",
    "count_view": 0
  },
  {
    "link_thumb": "https://live.staticflickr.com/65535/49548060263_8d7e848b2a_n.jpg",
    "id_album": "-1741487325",
    "description": "KAWAII120918173",
    "title": "KAWAII120918173",
    "link_img": "https://live.staticflickr.com/65535/49548060263_d35db328c4_o.jpg",
    "id_image": "KAWAII120918173",
    "count_view": 0
  },
  {
    "link_thumb": "https://live.staticflickr.com/65535/49694123501_ec500e9a63_n.jpg",
    "id_album": "-784970094",
    "description": "KAWAII1702202235202",
    "title": "KAWAII1702202235202",
    "link_img": "https://live.staticflickr.com/65535/49694123501_326bc2acc0_o.jpg",
    "id_image": "KAWAII1702202235202",
    "count_view": 0
  },
  {
    "link_thumb": "https://live.staticflickr.com/65535/49548206843_8fde65bb42_n.jpg",
    "id_album": "431597977",
    "description": "KAWAII1702202238407",
    "title": "KAWAII1702202238407",
    "link_img": "https://live.staticflickr.com/65535/49548206843_e68a019677_o.jpg",
    "id_image": "KAWAII1702202238407",
    "count_view": 0
  },
  {
    "link_thumb": "https://live.staticflickr.com/65535/49548935857_227d1e92ef_n.jpg",
    "id_album": "-422187261",
    "description": "KAWAII1702202238411",
    "title": "KAWAII1702202238411",
    "link_img": "https://live.staticflickr.com/65535/49548935857_20b73201c8_o.jpg",
    "id_image": "KAWAII1702202238411",
    "count_view": 0
  },
  {
    "link_thumb": "https://live.staticflickr.com/65535/49742934841_69d09604fe_n.jpg",
    "id_album": "-1473448477",
    "description": "KAWAII06042021491514",
    "title": "KAWAII06042021491514",
    "link_img": "https://live.staticflickr.com/65535/49742934841_48a5606e88_o.jpg",
    "id_image": "KAWAII06042021491514",
    "count_view": 0
  },
  {
    "link_thumb": "https://live.staticflickr.com/65535/49622289598_80c7699f69_n.jpg",
    "id_album": "1396902986",
    "description": "KAWAII050320202159",
    "title": "KAWAII050320202159",
    "link_img": "https://live.staticflickr.com/65535/49622289598_97aba19210_o.jpg",
    "id_image": "KAWAII050320202159",
    "count_view": 0
  },
  {
    "link_thumb": "https://live.staticflickr.com/65535/49622286108_d4a5d67cf8_n.jpg",
    "id_album": "1396902986",
    "description": "KAWAII0503202021209",
    "title": "KAWAII0503202021209",
    "link_img": "https://live.staticflickr.com/65535/49622286108_e050d8ce17_o.jpg",
    "id_image": "KAWAII0503202021209",
    "count_view": 0
  },
  {
    "link_thumb": "https://live.staticflickr.com/65535/49710287328_18c2ba3d5f_n.jpg",
    "id_album": "-1599896063",
    "description": "LITTLEMONK29032012063624",
    "title": "LITTLEMONK29032012063624",
    "link_img": "https://live.staticflickr.com/65535/49710287328_1c3a63f6c7_o.jpg",
    "id_image": "LITTLEMONK29032012063624",
    "count_view": 0
  },
  {
    "link_thumb": "https://live.staticflickr.com/65535/49592213803_e40d3b7299_n.jpg",
    "id_album": "-316663319",
    "description": "KAWAII2702202351157",
    "title": "KAWAII2702202351157",
    "link_img": "https://live.staticflickr.com/65535/49592213803_55e29ca507_o.jpg",
    "id_image": "KAWAII2702202351157",
    "count_view": 0
  },
  {
    "link_thumb": "https://live.staticflickr.com/65535/49622840081_e373bc4bf9_n.jpg",
    "id_album": "-1694302085",
    "description": "KAWAII050320202197",
    "title": "KAWAII050320202197",
    "link_img": "https://live.staticflickr.com/65535/49622840081_3138ee4372_o.jpg",
    "id_image": "KAWAII050320202197",
    "count_view": 0
  },
  {
    "link_thumb": "https://live.staticflickr.com/65535/49592974692_fd00c209aa_n.jpg",
    "id_album": "949200594",
    "description": "KAWAII270220235146",
    "title": "KAWAII270220235146",
    "link_img": "https://live.staticflickr.com/65535/49592974692_6cc0ddaf7b_o.jpg",
    "id_image": "KAWAII270220235146",
    "count_view": 0
  },
  {
    "link_thumb": "https://live.staticflickr.com/65535/49726882983_1a981c019f_n.jpg",
    "id_album": "-1497779911",
    "description": "KAWAII020420194511232",
    "title": "KAWAII020420194511232",
    "link_img": "https://live.staticflickr.com/65535/49726882983_cddcb7cb6a_o.jpg",
    "id_image": "KAWAII020420194511232",
    "count_view": 0
  },
  {
    "link_thumb": "https://live.staticflickr.com/65535/49548904132_d7952a7245_n.jpg",
    "id_album": "-1432180061",
    "description": "KAWAII1702202236274",
    "title": "KAWAII1702202236274",
    "link_img": "https://live.staticflickr.com/65535/49548904132_0e885dabcf_o.jpg",
    "id_image": "KAWAII1702202236274",
    "count_view": 0
  },
  {
    "link_thumb": "https://live.staticflickr.com/65535/49548098598_8fee019f6c_n.jpg",
    "id_album": "-422187261",
    "description": "KAWAII120918342",
    "title": "KAWAII120918342",
    "link_img": "https://live.staticflickr.com/65535/49548098598_31c01801a9_o.jpg",
    "id_image": "KAWAII120918342",
    "count_view": 0
  },
  {
    "link_thumb": "https://live.staticflickr.com/65535/49743249287_94f386397e_n.jpg",
    "id_album": "-316663319",
    "description": "KAWAII060420214914226",
    "title": "KAWAII060420214914226",
    "link_img": "https://live.staticflickr.com/65535/49743249287_a3c538756a_o.jpg",
    "id_image": "KAWAII060420214914226",
    "count_view": 0
  },
  {
    "link_thumb": "https://live.staticflickr.com/65535/49548933977_7d5feaa596_n.jpg",
    "id_album": "1396902986",
    "description": "KAWAII1702202238403",
    "title": "KAWAII1702202238403",
    "link_img": "https://live.staticflickr.com/65535/49548933977_def2e352e9_o.jpg",
    "id_image": "KAWAII1702202238403",
    "count_view": 0
  },
  {
    "link_thumb": "https://live.staticflickr.com/65535/49694094696_78606a6e68_n.jpg",
    "id_album": "1201366373",
    "description": "KAWAII120918246",
    "title": "KAWAII120918246",
    "link_img": "https://live.staticflickr.com/65535/49694094696_3546c39ba8_o.jpg",
    "id_image": "KAWAII120918246",
    "count_view": 0
  },
  {
    "link_thumb": "https://live.staticflickr.com/65535/49694126526_abcb395523_n.jpg",
    "id_album": "1563362783",
    "description": "KAWAII12091825180220205941",
    "title": "KAWAII12091825180220205941",
    "link_img": "https://live.staticflickr.com/65535/49694126526_2b65538756_o.jpg",
    "id_image": "KAWAII12091825180220205941",
    "count_view": 0
  },
  {
    "link_thumb": "https://live.staticflickr.com/65535/49727476226_49b37303c7_n.jpg",
    "id_album": "431597977",
    "description": "KAWAII02042019451226",
    "title": "KAWAII02042019451226",
    "link_img": "https://live.staticflickr.com/65535/49727476226_8e7e823ef0_o.jpg",
    "id_image": "KAWAII02042019451226",
    "count_view": 0
  },
  {
    "link_thumb": "https://live.staticflickr.com/65535/49742395548_5e7830a336_n.jpg",
    "id_album": "-1779286820",
    "description": "KAWAII06042021491283",
    "title": "KAWAII06042021491283",
    "link_img": "https://live.staticflickr.com/65535/49742395548_6ec275cb37_o.jpg",
    "id_image": "KAWAII06042021491283",
    "count_view": 0
  },
  {
    "link_thumb": "https://live.staticflickr.com/65535/49727743502_d3b5ba1592_n.jpg",
    "id_album": "-1741487325",
    "description": "KAWAII02042019451223",
    "title": "KAWAII02042019451223",
    "link_img": "https://live.staticflickr.com/65535/49727743502_265eaf9449_o.jpg",
    "id_image": "KAWAII02042019451223",
    "count_view": 0
  },
  {
    "link_thumb": "https://live.staticflickr.com/65535/49743279152_b89231f4a4_n.jpg",
    "id_album": "-1431786825",
    "description": "KAWAII060420214915144",
    "title": "KAWAII060420214915144",
    "link_img": "https://live.staticflickr.com/65535/49743279152_27e97c5915_o.jpg",
    "id_image": "KAWAII060420214915144",
    "count_view": 0
  },
  {
    "link_thumb": "https://live.staticflickr.com/65535/49693568038_916ee82a8f_n.jpg",
    "id_album": "1201366373",
    "description": "KAWAII1702202237342",
    "title": "KAWAII1702202237342",
    "link_img": "https://live.staticflickr.com/65535/49693568038_c81c3ed181_o.jpg",
    "id_image": "KAWAII1702202237342",
    "count_view": 0
  },
  {
    "link_thumb": "https://live.staticflickr.com/65535/49694070071_dde1f6737b_n.jpg",
    "id_album": "-643980979",
    "description": "KAWAII0503202021118",
    "title": "KAWAII0503202021118",
    "link_img": "https://live.staticflickr.com/65535/49694070071_8aebd40329_o.jpg",
    "id_image": "KAWAII0503202021118",
    "count_view": 0
  },
  {
    "link_thumb": "https://live.staticflickr.com/65535/49727448706_c3d8418039_n.jpg",
    "id_album": "742877173",
    "description": "KAWAII02042019451189",
    "title": "KAWAII02042019451189",
    "link_img": "https://live.staticflickr.com/65535/49727448706_448a753ef2_o.jpg",
    "id_image": "KAWAII02042019451189",
    "count_view": 0
  },
  {
    "link_thumb": "https://live.staticflickr.com/65535/49742949936_19f0003080_n.jpg",
    "id_album": "1396902986",
    "description": "KAWAII0604202149184",
    "title": "KAWAII0604202149184",
    "link_img": "https://live.staticflickr.com/65535/49742949936_4d7d1605c3_o.jpg",
    "id_image": "KAWAII0604202149184",
    "count_view": 0
  },
  {
    "link_thumb": "https://live.staticflickr.com/65535/49742352313_f78cb67432_n.jpg",
    "id_album": "-1913845949",
    "description": "KAWAII060420214911172",
    "title": "KAWAII060420214911172",
    "link_img": "https://live.staticflickr.com/65535/49742352313_0846d8bdda_o.jpg",
    "id_image": "KAWAII060420214911172",
    "count_view": 0
  },
  {
    "link_thumb": "https://live.staticflickr.com/65535/49548781682_9a1b7ee2c7_n.jpg",
    "id_album": "-316663319",
    "description": "KAWAII120918140",
    "title": "KAWAII120918140",
    "link_img": "https://live.staticflickr.com/65535/49548781682_1a37108021_o.jpg",
    "id_image": "KAWAII120918140",
    "count_view": 0
  },
  {
    "link_thumb": "https://live.staticflickr.com/65535/49694424447_8f64755220_n.jpg",
    "id_album": "-643980979",
    "description": "KAWAII270220235131",
    "title": "KAWAII270220235131",
    "link_img": "https://live.staticflickr.com/65535/49694424447_a654decb56_o.jpg",
    "id_image": "KAWAII270220235131",
    "count_view": 0
  },
  {
    "link_thumb": "https://live.staticflickr.com/65535/49742928076_aa5cc0962e_n.jpg",
    "id_album": "-316663319",
    "description": "KAWAII060420214915218",
    "title": "KAWAII060420214915218",
    "link_img": "https://live.staticflickr.com/65535/49742928076_9374722011_o.jpg",
    "id_image": "KAWAII060420214915218",
    "count_view": 0
  },
  {
    "link_thumb": "https://live.staticflickr.com/65535/49742370283_264933b2a1_n.jpg",
    "id_album": "-128218148",
    "description": "KAWAII060420214912111",
    "title": "KAWAII060420214912111",
    "link_img": "https://live.staticflickr.com/65535/49742370283_50ef9d42d0_o.jpg",
    "id_image": "KAWAII060420214912111",
    "count_view": 0
  },
  {
    "link_thumb": "https://live.staticflickr.com/65535/49548773511_f261cc3b03_n.jpg",
    "id_album": "-1741487325",
    "description": "KAWAII17091852",
    "title": "KAWAII17091852",
    "link_img": "https://live.staticflickr.com/65535/49548773511_eec13ffc04_o.jpg",
    "id_image": "KAWAII17091852",
    "count_view": 0
  },
  {
    "link_thumb": "https://live.staticflickr.com/65535/49727790872_fe112749e1_n.jpg",
    "id_album": "431597977",
    "description": "KAWAII0204201945124",
    "title": "KAWAII0204201945124",
    "link_img": "https://live.staticflickr.com/65535/49727790872_fed9586986_o.jpg",
    "id_image": "KAWAII0204201945124",
    "count_view": 0
  },
  {
    "link_thumb": "https://live.staticflickr.com/65535/49694126256_4dc9484853_n.jpg",
    "id_album": "-1431786825",
    "description": "KAWAII270220235197",
    "title": "KAWAII270220235197",
    "link_img": "https://live.staticflickr.com/65535/49694126256_a9edd582f5_o.jpg",
    "id_image": "KAWAII270220235197",
    "count_view": 0
  },
  {
    "link_thumb": "https://live.staticflickr.com/65535/49693585708_88c3f8b717_n.jpg",
    "id_album": "1226948986",
    "description": "TOTORO220320154111",
    "title": "TOTORO220320154111",
    "link_img": "https://live.staticflickr.com/65535/49693585708_d75025b389_o.jpg",
    "id_image": "TOTORO220320154111",
    "count_view": 0
  },
  {
    "link_thumb": "https://live.staticflickr.com/65535/49592728696_e65ca79af2_n.jpg",
    "id_album": "949200594",
    "description": "KAWAII2702202351102",
    "title": "KAWAII2702202351102",
    "link_img": "https://live.staticflickr.com/65535/49592728696_a73000a49f_o.jpg",
    "id_image": "KAWAII2702202351102",
    "count_view": 0
  },
  {
    "link_thumb": "https://live.staticflickr.com/65535/49548172973_972b1737b0_n.jpg",
    "id_album": "-1432180061",
    "description": "KAWAII1702202236258",
    "title": "KAWAII1702202236258",
    "link_img": "https://live.staticflickr.com/65535/49548172973_c022eb6b6d_o.jpg",
    "id_image": "KAWAII1702202236258",
    "count_view": 0
  },
  {
    "link_thumb": "https://live.staticflickr.com/65535/49727787947_bff7db4229_n.jpg",
    "id_album": "-1099943053",
    "description": "KAWAII020420194508220",
    "title": "KAWAII020420194508220",
    "link_img": "https://live.staticflickr.com/65535/49727787947_98cf0ca607_o.jpg",
    "id_image": "KAWAII020420194508220",
    "count_view": 0
  },
  {
    "link_thumb": "https://live.staticflickr.com/65535/49552024243_b38552e998_n.jpg",
    "id_album": "-1432180061",
    "description": "KAWAII12091825180220205938",
    "title": "KAWAII12091825180220205938",
    "link_img": "https://live.staticflickr.com/65535/49552024243_8348b56164_o.jpg",
    "id_image": "KAWAII12091825180220205938",
    "count_view": 0
  },
  {
    "link_thumb": "https://live.staticflickr.com/65535/49548998347_2a9f9095e6_n.jpg",
    "id_album": "-316663319",
    "description": "KAWAII17091846",
    "title": "KAWAII17091846",
    "link_img": "https://live.staticflickr.com/65535/49548998347_1838f0e556_o.jpg",
    "id_image": "KAWAII17091846",
    "count_view": 0
  },
  {
    "link_thumb": "https://live.staticflickr.com/65535/49622848876_ddcc0655dc_n.jpg",
    "id_album": "-406350429",
    "description": "KAWAII050320202132",
    "title": "KAWAII050320202132",
    "link_img": "https://live.staticflickr.com/65535/49622848876_b472353609_o.jpg",
    "id_image": "KAWAII050320202132",
    "count_view": 0
  },
  {
    "link_thumb": "https://live.staticflickr.com/65535/49552759917_19b94a5bea_n.jpg",
    "id_album": "-316663319",
    "description": "KAWAII12091825180220205940",
    "title": "KAWAII12091825180220205940",
    "link_img": "https://live.staticflickr.com/65535/49552759917_c59a92f79d_o.jpg",
    "id_image": "KAWAII12091825180220205940",
    "count_view": 0
  },
  {
    "link_thumb": "https://live.staticflickr.com/65535/49694424747_f4bca52c0e_n.jpg",
    "id_album": "-643980979",
    "description": "KAWAII270220235143",
    "title": "KAWAII270220235143",
    "link_img": "https://live.staticflickr.com/65535/49694424747_becc1d4f3a_o.jpg",
    "id_image": "KAWAII270220235143",
    "count_view": 0
  },
  {
    "link_thumb": "https://live.staticflickr.com/65535/49548212393_f1c2106459_n.jpg",
    "id_album": "-1099943053",
    "description": "KAWAII1702202238429",
    "title": "KAWAII1702202238429",
    "link_img": "https://live.staticflickr.com/65535/49548212393_fdd789fe68_o.jpg",
    "id_image": "KAWAII1702202238429",
    "count_view": 0
  },
  {
    "link_thumb": "https://live.staticflickr.com/65535/49742408543_f5f39b9b01_n.jpg",
    "id_album": "-1431786825",
    "description": "KAWAII060420214915193",
    "title": "KAWAII060420214915193",
    "link_img": "https://live.staticflickr.com/65535/49742408543_e1cc061ec5_o.jpg",
    "id_image": "KAWAII060420214915193",
    "count_view": 0
  },
  {
    "link_thumb": "https://live.staticflickr.com/65535/49622829591_cc4a13fe48_n.jpg",
    "id_album": "-316663319",
    "description": "KAWAII0503202021284",
    "title": "KAWAII0503202021284",
    "link_img": "https://live.staticflickr.com/65535/49622829591_90a4c15241_o.jpg",
    "id_image": "KAWAII0503202021284",
    "count_view": 0
  },
  {
    "link_thumb": "https://live.staticflickr.com/65535/49694415617_cb48c63648_n.jpg",
    "id_album": "1201366373",
    "description": "KAWAII1702202238486",
    "title": "KAWAII1702202238486",
    "link_img": "https://live.staticflickr.com/65535/49694415617_80201d7773_o.jpg",
    "id_image": "KAWAII1702202238486",
    "count_view": 0
  },
  {
    "link_thumb": "https://live.staticflickr.com/65535/49727754687_0ef88fd8c3_n.jpg",
    "id_album": "-316663319",
    "description": "KAWAII02042019451298",
    "title": "KAWAII02042019451298",
    "link_img": "https://live.staticflickr.com/65535/49727754687_d35c90e8e0_o.jpg",
    "id_image": "KAWAII02042019451298",
    "count_view": 0
  },
  {
    "link_thumb": "https://live.staticflickr.com/65535/49592211593_d8bbd64d7a_n.jpg",
    "id_album": "-316663319",
    "description": "KAWAII2702202351116",
    "title": "KAWAII2702202351116",
    "link_img": "https://live.staticflickr.com/65535/49592211593_9bcae88091_o.jpg",
    "id_image": "KAWAII2702202351116",
    "count_view": 0
  },
  {
    "link_thumb": "https://live.staticflickr.com/65535/49743276592_fbdd67d330_n.jpg",
    "id_album": "-358592519",
    "description": "KAWAII060420214912266",
    "title": "KAWAII060420214912266",
    "link_img": "https://live.staticflickr.com/65535/49743276592_0be05d9327_o.jpg",
    "id_image": "KAWAII060420214912266",
    "count_view": 0
  },
  {
    "link_thumb": "https://live.staticflickr.com/65535/49693562518_c990bb6178_n.jpg",
    "id_album": "1201366373",
    "description": "KAWAII170220223322",
    "title": "KAWAII170220223322",
    "link_img": "https://live.staticflickr.com/65535/49693562518_ac33d40c0e_o.jpg",
    "id_image": "KAWAII170220223322",
    "count_view": 0
  },
  {
    "link_thumb": "https://live.staticflickr.com/65535/49548201338_7fa2cfc8d3_n.jpg",
    "id_album": "-422187261",
    "description": "KAWAII1702202237387",
    "title": "KAWAII1702202237387",
    "link_img": "https://live.staticflickr.com/65535/49548201338_c4b642fe47_o.jpg",
    "id_image": "KAWAII1702202237387",
    "count_view": 0
  },
  {
    "link_thumb": "https://live.staticflickr.com/65535/49727464601_e44b37d61b_n.jpg",
    "id_album": "1396902986",
    "description": "KAWAII02042019451047",
    "title": "KAWAII02042019451047",
    "link_img": "https://live.staticflickr.com/65535/49727464601_5672fec016_o.jpg",
    "id_image": "KAWAII02042019451047",
    "count_view": 0
  },
  {
    "link_thumb": "https://live.staticflickr.com/65535/49694123091_16ef87c5f9_n.jpg",
    "id_album": "-643980979",
    "description": "KAWAII270220235177",
    "title": "KAWAII270220235177",
    "link_img": "https://live.staticflickr.com/65535/49694123091_4b33fbff62_o.jpg",
    "id_image": "KAWAII270220235177",
    "count_view": 0
  },
  {
    "link_thumb": "https://live.staticflickr.com/65535/49693532663_66cff1d8d8_n.jpg",
    "id_album": "-643980979",
    "description": "KAWAII050320202149",
    "title": "KAWAII050320202149",
    "link_img": "https://live.staticflickr.com/65535/49693532663_bbf5d522f9_o.jpg",
    "id_image": "KAWAII050320202149",
    "count_view": 0
  },
  {
    "link_thumb": "https://live.staticflickr.com/65535/49548242938_e9f62ba1e8_n.jpg",
    "id_album": "-1694302085",
    "description": "KAWAII1702202239542",
    "title": "KAWAII1702202239542",
    "link_img": "https://live.staticflickr.com/65535/49548242938_e930b45106_o.jpg",
    "id_image": "KAWAII1702202239542",
    "count_view": 0
  },
  {
    "link_thumb": "https://live.staticflickr.com/65535/49548245093_44f9fbb385_n.jpg",
    "id_album": "-422187261",
    "description": "KAWAII1702202239551",
    "title": "KAWAII1702202239551",
    "link_img": "https://live.staticflickr.com/65535/49548245093_46504f58cf_o.jpg",
    "id_image": "KAWAII1702202239551",
    "count_view": 0
  },
  {
    "link_thumb": "https://live.staticflickr.com/65535/49742930331_3e02841412_n.jpg",
    "id_album": "-316663319",
    "description": "KAWAII06042021491587",
    "title": "KAWAII06042021491587",
    "link_img": "https://live.staticflickr.com/65535/49742930331_ede8dc5592_o.jpg",
    "id_image": "KAWAII06042021491587",
    "count_view": 0
  },
  {
    "link_thumb": "https://live.staticflickr.com/65535/49693577243_1d71d43a8f_n.jpg",
    "id_album": "-643980979",
    "description": "KAWAII17091850",
    "title": "KAWAII17091850",
    "link_img": "https://live.staticflickr.com/65535/49693577243_8b5016ac40_o.jpg",
    "id_image": "KAWAII17091850",
    "count_view": 0
  },
  {
    "link_thumb": "https://live.staticflickr.com/65535/49548180778_6e380c3a9f_n.jpg",
    "id_album": "-1432180061",
    "description": "KAWAII1702202236298",
    "title": "KAWAII1702202236298",
    "link_img": "https://live.staticflickr.com/65535/49548180778_5d7d573817_o.jpg",
    "id_image": "KAWAII1702202236298",
    "count_view": 0
  },
  {
    "link_thumb": "https://live.staticflickr.com/65535/49727788102_0980ef4ce0_n.jpg",
    "id_album": "-1099943053",
    "description": "KAWAII02042019450950",
    "title": "KAWAII02042019450950",
    "link_img": "https://live.staticflickr.com/65535/49727788102_f38d28268d_o.jpg",
    "id_image": "KAWAII02042019450950",
    "count_view": 0
  },
  {
    "link_thumb": "https://live.staticflickr.com/65535/49548596946_8b990ae9b8_n.jpg",
    "id_album": "1396902986",
    "description": "KAWAII120918327",
    "title": "KAWAII120918327",
    "link_img": "https://live.staticflickr.com/65535/49548596946_df4eb020d8_o.jpg",
    "id_image": "KAWAII120918327",
    "count_view": 0
  },
  {
    "link_thumb": "https://live.staticflickr.com/65535/49742391893_6894f631d5_n.jpg",
    "id_album": "-1473448477",
    "description": "KAWAII06042021491552",
    "title": "KAWAII06042021491552",
    "link_img": "https://live.staticflickr.com/65535/49742391893_ff3e5c6439_o.jpg",
    "id_image": "KAWAII06042021491552",
    "count_view": 0
  },
  {
    "link_thumb": "https://live.staticflickr.com/65535/49548555181_6094758b68_n.jpg",
    "id_album": "-1741487325",
    "description": "KAWAII120918144",
    "title": "KAWAII120918144",
    "link_img": "https://live.staticflickr.com/65535/49548555181_595bf68478_o.jpg",
    "id_image": "KAWAII120918144",
    "count_view": 0
  },
  {
    "link_thumb": "https://live.staticflickr.com/65535/49694122561_9e8e718717_n.jpg",
    "id_album": "-643980979",
    "description": "KAWAII270220235152",
    "title": "KAWAII270220235152",
    "link_img": "https://live.staticflickr.com/65535/49694122561_93ba242655_o.jpg",
    "id_image": "KAWAII270220235152",
    "count_view": 0
  },
  {
    "link_thumb": "https://live.staticflickr.com/65535/49548864942_39e13f80e8_n.jpg",
    "id_album": "-1099943053",
    "description": "KAWAII170220223457",
    "title": "KAWAII170220223457",
    "link_img": "https://live.staticflickr.com/65535/49548864942_4a4a17a743_o.jpg",
    "id_image": "KAWAII170220223457",
    "count_view": 0
  },
  {
    "link_thumb": "https://live.staticflickr.com/65535/49622816161_98892bc61c_n.jpg",
    "id_album": "-316663319",
    "description": "KAWAII0503202021127",
    "title": "KAWAII0503202021127",
    "link_img": "https://live.staticflickr.com/65535/49622816161_fb4f1c7349_o.jpg",
    "id_image": "KAWAII0503202021127",
    "count_view": 0
  },
  {
    "link_thumb": "https://live.staticflickr.com/65535/49592214838_890bcf4f6d_n.jpg",
    "id_album": "-316663319",
    "description": "KAWAII270220235129",
    "title": "KAWAII270220235129",
    "link_img": "https://live.staticflickr.com/65535/49592214838_713a6a5106_o.jpg",
    "id_image": "KAWAII270220235129",
    "count_view": 0
  },
  {
    "link_thumb": "https://live.staticflickr.com/65535/49548128073_3f00b9f7c1_n.jpg",
    "id_album": "-1431786825",
    "description": "KAWAII1702202234101",
    "title": "KAWAII1702202234101",
    "link_img": "https://live.staticflickr.com/65535/49548128073_2fe4883e52_o.jpg",
    "id_image": "KAWAII1702202234101",
    "count_view": 0
  },
  {
    "link_thumb": "https://live.staticflickr.com/65535/49548864702_23c49122e7_n.jpg",
    "id_album": "-422187261",
    "description": "KAWAII170220223456",
    "title": "KAWAII170220223456",
    "link_img": "https://live.staticflickr.com/65535/49548864702_e87776d95f_o.jpg",
    "id_image": "KAWAII170220223456",
    "count_view": 0
  },
  {
    "link_thumb": "https://live.staticflickr.com/65535/49548938122_5b23afd418_n.jpg",
    "id_album": "-1694302085",
    "description": "KAWAII1702202238420",
    "title": "KAWAII1702202238420",
    "link_img": "https://live.staticflickr.com/65535/49548938122_38fec14d8f_o.jpg",
    "id_image": "KAWAII1702202238420",
    "count_view": 0
  },
  {
    "link_thumb": "https://live.staticflickr.com/65535/49727452181_6e3fb2e28d_n.jpg",
    "id_album": "742877173",
    "description": "KAWAII02042019451392",
    "title": "KAWAII02042019451392",
    "link_img": "https://live.staticflickr.com/65535/49727452181_79ff531b9a_o.jpg",
    "id_image": "KAWAII02042019451392",
    "count_view": 0
  },
  {
    "link_thumb": "https://live.staticflickr.com/65535/49694083376_717a796b09_n.jpg",
    "id_album": "1201366373",
    "description": "KAWAII120918134",
    "title": "KAWAII120918134",
    "link_img": "https://live.staticflickr.com/65535/49694083376_d1d3a62f54_o.jpg",
    "id_image": "KAWAII120918134",
    "count_view": 0
  },
  {
    "link_thumb": "https://live.staticflickr.com/65535/49743230212_a927f80940_n.jpg",
    "id_album": "-422187261",
    "description": "KAWAII02042019451474",
    "title": "KAWAII02042019451474",
    "link_img": "https://live.staticflickr.com/65535/49743230212_5680ef703f_o.jpg",
    "id_image": "KAWAII02042019451474",
    "count_view": 0
  },
  {
    "link_thumb": "https://live.staticflickr.com/65535/49742944306_1e3a76d28c_n.jpg",
    "id_album": "-1779286820",
    "description": "KAWAII060420214915255",
    "title": "KAWAII060420214915255",
    "link_img": "https://live.staticflickr.com/65535/49742944306_e0b574dd6a_o.jpg",
    "id_image": "KAWAII060420214915255",
    "count_view": 0
  },
  {
    "link_thumb": "https://live.staticflickr.com/65535/49548997357_9ce11ec73d_n.jpg",
    "id_album": "-1741487325",
    "description": "KAWAII17091842",
    "title": "KAWAII17091842",
    "link_img": "https://live.staticflickr.com/65535/49548997357_47b164462a_o.jpg",
    "id_image": "KAWAII17091842",
    "count_view": 0
  },
  {
    "link_thumb": "https://live.staticflickr.com/65535/49742948926_f541e3c9a1_n.jpg",
    "id_album": "1396902986",
    "description": "KAWAII060420214915178",
    "title": "KAWAII060420214915178",
    "link_img": "https://live.staticflickr.com/65535/49742948926_8094f27500_o.jpg",
    "id_image": "KAWAII060420214915178",
    "count_view": 0
  },
  {
    "link_thumb": "https://live.staticflickr.com/65535/49548090478_e14671db02_n.jpg",
    "id_album": "-422187261",
    "description": "KAWAII120918308",
    "title": "KAWAII120918308",
    "link_img": "https://live.staticflickr.com/65535/49548090478_68298f952a_o.jpg",
    "id_image": "KAWAII120918308",
    "count_view": 0
  },
  {
    "link_thumb": "https://live.staticflickr.com/65535/49548962207_2c915d7e53_n.jpg",
    "id_album": "-422187261",
    "description": "KAWAII1702202239510",
    "title": "KAWAII1702202239510",
    "link_img": "https://live.staticflickr.com/65535/49548962207_8bd2b41354_o.jpg",
    "id_image": "KAWAII1702202239510",
    "count_view": 0
  },
  {
    "link_thumb": "https://live.staticflickr.com/65535/49548267818_9f48c0dd6c_n.jpg",
    "id_album": "-316663319",
    "description": "KAWAII17091834",
    "title": "KAWAII17091834",
    "link_img": "https://live.staticflickr.com/65535/49548267818_f463718cab_o.jpg",
    "id_image": "KAWAII17091834",
    "count_view": 0
  },
  {
    "link_thumb": "https://live.staticflickr.com/65535/49694406312_f0a6991815_n.jpg",
    "id_album": "-643980979",
    "description": "KAWAII12091871",
    "title": "KAWAII12091871",
    "link_img": "https://live.staticflickr.com/65535/49694406312_4c0be1cb08_o.jpg",
    "id_image": "KAWAII12091871",
    "count_view": 0
  },
  {
    "link_thumb": "https://live.staticflickr.com/65535/49622314693_bcce1671b7_n.jpg",
    "id_album": "-316663319",
    "description": "KAWAII0503202021281",
    "title": "KAWAII0503202021281",
    "link_img": "https://live.staticflickr.com/65535/49622314693_850067808d_o.jpg",
    "id_image": "KAWAII0503202021281",
    "count_view": 0
  },
  {
    "link_thumb": "https://live.staticflickr.com/65535/49726883698_396835f2ac_n.jpg",
    "id_album": "-1497779911",
    "description": "KAWAII0503202021120",
    "title": "KAWAII0503202021120",
    "link_img": "https://live.staticflickr.com/65535/49726883698_a381dcbe65_o.jpg",
    "id_image": "KAWAII0503202021120",
    "count_view": 0
  },
  {
    "link_thumb": "https://live.staticflickr.com/65535/49548939852_a42e71ac09_n.jpg",
    "id_album": "-422187261",
    "description": "KAWAII1702202238427",
    "title": "KAWAII1702202238427",
    "link_img": "https://live.staticflickr.com/65535/49548939852_797f0f6bed_o.jpg",
    "id_image": "KAWAII1702202238427",
    "count_view": 0
  },
  {
    "link_thumb": "https://live.staticflickr.com/65535/49548173768_b0c339bbb9_n.jpg",
    "id_album": "1396902986",
    "description": "KAWAII1702202236263",
    "title": "KAWAII1702202236263",
    "link_img": "https://live.staticflickr.com/65535/49548173768_00ebf4e24e_o.jpg",
    "id_image": "KAWAII1702202236263",
    "count_view": 0
  },
  {
    "link_thumb": "https://live.staticflickr.com/65535/49592957402_3ea6d1276e_n.jpg",
    "id_album": "-316663319",
    "description": "KAWAII2702202351137",
    "title": "KAWAII2702202351137",
    "link_img": "https://live.staticflickr.com/65535/49592957402_366e7bebb4_o.jpg",
    "id_image": "KAWAII2702202351137",
    "count_view": 0
  },
  {
    "link_thumb": "https://live.staticflickr.com/65535/49548113993_5e86f187cc_n.jpg",
    "id_album": "-316663319",
    "description": "KAWAII12091870",
    "title": "KAWAII12091870",
    "link_img": "https://live.staticflickr.com/65535/49548113993_1194419a0b_o.jpg",
    "id_image": "KAWAII12091870",
    "count_view": 0
  },
  {
    "link_thumb": "https://live.staticflickr.com/65535/49552023193_1168d96f1a_n.jpg",
    "id_album": "-1694302085",
    "description": "KAWAII12091825180220205933",
    "title": "KAWAII12091825180220205933",
    "link_img": "https://live.staticflickr.com/65535/49552023193_984f322a4e_o.jpg",
    "id_image": "KAWAII12091825180220205933",
    "count_view": 0
  },
  {
    "link_thumb": "https://live.staticflickr.com/65535/49726880823_8e2104a30d_n.jpg",
    "id_album": "-1694302085",
    "description": "KAWAII270220235124",
    "title": "KAWAII270220235124",
    "link_img": "https://live.staticflickr.com/65535/49726880823_a91d8682c0_o.jpg",
    "id_image": "KAWAII270220235124",
    "count_view": 0
  },
  {
    "link_thumb": "https://live.staticflickr.com/65535/49727453711_69725a9b6a_n.jpg",
    "id_album": "742877173",
    "description": "KAWAII02042019451471",
    "title": "KAWAII02042019451471",
    "link_img": "https://live.staticflickr.com/65535/49727453711_1b093a62f5_o.jpg",
    "id_image": "KAWAII02042019451471",
    "count_view": 0
  },
  {
    "link_thumb": "https://live.staticflickr.com/65535/49548617406_84aee99d48_n.jpg",
    "id_album": "-316663319",
    "description": "KAWAII12091877",
    "title": "KAWAII12091877",
    "link_img": "https://live.staticflickr.com/65535/49548617406_6cbf2fa379_o.jpg",
    "id_image": "KAWAII12091877",
    "count_view": 0
  },
  {
    "link_thumb": "https://live.staticflickr.com/65535/49548603446_33fa09eeaf_n.jpg",
    "id_album": "-1099943053",
    "description": "KAWAII120918353",
    "title": "KAWAII120918353",
    "link_img": "https://live.staticflickr.com/65535/49548603446_c9733f6d5d_o.jpg",
    "id_image": "KAWAII120918353",
    "count_view": 0
  },
  {
    "link_thumb": "https://live.staticflickr.com/65535/49694123996_c9489a0f7a_n.jpg",
    "id_album": "-358592519",
    "description": "KAWAII1209182",
    "title": "KAWAII1209182",
    "link_img": "https://live.staticflickr.com/65535/49694123996_cea27b0603_o.jpg",
    "id_image": "KAWAII1209182",
    "count_view": 0
  },
  {
    "link_thumb": "https://live.staticflickr.com/65535/49742352583_6a2be094ce_n.jpg",
    "id_album": "-1913845949",
    "description": "KAWAII060420214912125",
    "title": "KAWAII060420214912125",
    "link_img": "https://live.staticflickr.com/65535/49742352583_485a149253_o.jpg",
    "id_image": "KAWAII060420214912125",
    "count_view": 0
  },
  {
    "link_thumb": "https://live.staticflickr.com/65535/49743268247_7e9591e74a_n.jpg",
    "id_album": "-1779286820",
    "description": "KAWAII060420214916207",
    "title": "KAWAII060420214916207",
    "link_img": "https://live.staticflickr.com/65535/49743268247_0a5aa914a6_o.jpg",
    "id_image": "KAWAII060420214916207",
    "count_view": 0
  },
  {
    "link_thumb": "https://live.staticflickr.com/65535/49694429272_8f48347926_n.jpg",
    "id_album": "1563362783",
    "description": "KAWAII1209182518022020594",
    "title": "KAWAII1209182518022020594",
    "link_img": "https://live.staticflickr.com/65535/49694429272_744e12888f_o.jpg",
    "id_image": "KAWAII1209182518022020594",
    "count_view": 0
  },
  {
    "link_thumb": "https://live.staticflickr.com/65535/49592716656_46e8dcfc3d_n.jpg",
    "id_album": "-316663319",
    "description": "KAWAII2702202351159",
    "title": "KAWAII2702202351159",
    "link_img": "https://live.staticflickr.com/65535/49592716656_1469b0be81_o.jpg",
    "id_image": "KAWAII2702202351159",
    "count_view": 0
  },
  {
    "link_thumb": "https://live.staticflickr.com/65535/49693573483_ea8d2f7051_n.jpg",
    "id_album": "-643980979",
    "description": "KAWAII170220234617",
    "title": "KAWAII170220234617",
    "link_img": "https://live.staticflickr.com/65535/49693573483_049617c5d9_o.jpg",
    "id_image": "KAWAII170220234617",
    "count_view": 0
  },
  {
    "link_thumb": "https://live.staticflickr.com/65535/49548102943_1427b14e8f_n.jpg",
    "id_album": "-1741487325",
    "description": "KAWAII12091836",
    "title": "KAWAII12091836",
    "link_img": "https://live.staticflickr.com/65535/49548102943_505ac71255_o.jpg",
    "id_image": "KAWAII12091836",
    "count_view": 0
  },
  {
    "link_thumb": "https://live.staticflickr.com/65535/49694522697_6334960ba2_n.jpg",
    "id_album": "-643980979",
    "description": "KAWAII24032022050234",
    "title": "KAWAII24032022050234",
    "link_img": "https://live.staticflickr.com/65535/49694522697_71a3a9111e_o.jpg",
    "id_image": "KAWAII24032022050234",
    "count_view": 0
  },
  {
    "link_thumb": "https://live.staticflickr.com/65535/49623111392_2edd4c3b04_n.jpg",
    "id_album": "-316663319",
    "description": "KAWAII05032020217",
    "title": "KAWAII05032020217",
    "link_img": "https://live.staticflickr.com/65535/49623111392_dbff49ae1f_o.jpg",
    "id_image": "KAWAII05032020217",
    "count_view": 0
  },
  {
    "link_thumb": "https://live.staticflickr.com/65535/49592949777_fc39988613_n.jpg",
    "id_album": "1396902986",
    "description": "KAWAII270220235115",
    "title": "KAWAII270220235115",
    "link_img": "https://live.staticflickr.com/65535/49592949777_f8055c5f8e_o.jpg",
    "id_image": "KAWAII270220235115",
    "count_view": 0
  },
  {
    "link_thumb": "https://live.staticflickr.com/65535/49742901166_8843983f1b_n.jpg",
    "id_album": "-1913845949",
    "description": "KAWAII060420214912261",
    "title": "KAWAII060420214912261",
    "link_img": "https://live.staticflickr.com/65535/49742901166_f3ee82e220_o.jpg",
    "id_image": "KAWAII060420214912261",
    "count_view": 0
  },
  {
    "link_thumb": "https://live.staticflickr.com/65535/49742925786_af9a9b4d99_n.jpg",
    "id_album": "-316663319",
    "description": "KAWAII060420214914288",
    "title": "KAWAII060420214914288",
    "link_img": "https://live.staticflickr.com/65535/49742925786_377ff6721f_o.jpg",
    "id_image": "KAWAII060420214914288",
    "count_view": 0
  },
  {
    "link_thumb": "https://live.staticflickr.com/65535/49578243278_d8c625fc7d_n.jpg",
    "id_album": "-316663319",
    "description": "KAWAII190220211111",
    "title": "KAWAII190220211111",
    "link_img": "https://live.staticflickr.com/65535/49578243278_5f54ec2737_o.jpg",
    "id_image": "KAWAII190220211111",
    "count_view": 0
  },
  {
    "link_thumb": "https://live.staticflickr.com/65535/49727439176_c706ab0e38_n.jpg",
    "id_album": "-316663319",
    "description": "KAWAII020420194511234",
    "title": "KAWAII020420194511234",
    "link_img": "https://live.staticflickr.com/65535/49727439176_2b557b3b19_o.jpg",
    "id_image": "KAWAII020420194511234",
    "count_view": 0
  },
  {
    "link_thumb": "https://live.staticflickr.com/65535/49592706831_861ca62369_n.jpg",
    "id_album": "1396902986",
    "description": "KAWAII2702202351138",
    "title": "KAWAII2702202351138",
    "link_img": "https://live.staticflickr.com/65535/49592706831_561d937080_o.jpg",
    "id_image": "KAWAII2702202351138",
    "count_view": 0
  },
  {
    "link_thumb": "https://live.staticflickr.com/65535/49694421397_1b9dd5a13f_n.jpg",
    "id_album": "1201366373",
    "description": "KAWAII17022023506",
    "title": "KAWAII17022023506",
    "link_img": "https://live.staticflickr.com/65535/49694421397_9545535f8f_o.jpg",
    "id_image": "KAWAII17022023506",
    "count_view": 0
  },
  {
    "link_thumb": "https://live.staticflickr.com/65535/49548999462_ecfdf2b9f6_n.jpg",
    "id_album": "-316663319",
    "description": "KAWAII1709185",
    "title": "KAWAII1709185",
    "link_img": "https://live.staticflickr.com/65535/49548999462_f32f7e31f1_o.jpg",
    "id_image": "KAWAII1709185",
    "count_view": 0
  },
  {
    "link_thumb": "https://live.staticflickr.com/65535/49592722206_ecfc59669c_n.jpg",
    "id_album": "-316663319",
    "description": "KAWAII270220235198",
    "title": "KAWAII270220235198",
    "link_img": "https://live.staticflickr.com/65535/49592722206_35be976e12_o.jpg",
    "id_image": "KAWAII270220235198",
    "count_view": 0
  },
  {
    "link_thumb": "https://live.staticflickr.com/65535/49727429106_9a2929dfd7_n.jpg",
    "id_album": "-1741487325",
    "description": "KAWAII020420194511153",
    "title": "KAWAII020420194511153",
    "link_img": "https://live.staticflickr.com/65535/49727429106_bf7d7df1fe_o.jpg",
    "id_image": "KAWAII020420194511153",
    "count_view": 0
  },
  {
    "link_thumb": "https://live.staticflickr.com/65535/49693548643_f895171502_n.jpg",
    "id_album": "-643980979",
    "description": "KAWAII120918221",
    "title": "KAWAII120918221",
    "link_img": "https://live.staticflickr.com/65535/49693548643_4a459079ff_o.jpg",
    "id_image": "KAWAII120918221",
    "count_view": 0
  },
  {
    "link_thumb": "https://live.staticflickr.com/65535/49548174633_4ee07fc12f_n.jpg",
    "id_album": "-1694302085",
    "description": "KAWAII1702202236268",
    "title": "KAWAII1702202236268",
    "link_img": "https://live.staticflickr.com/65535/49548174633_12b2ef2a42_o.jpg",
    "id_image": "KAWAII1702202236268",
    "count_view": 0
  },
  {
    "link_thumb": "https://live.staticflickr.com/65535/49694221281_4bcc2ed000_n.jpg",
    "id_album": "-1432180061",
    "description": "KAWAII1702202237340",
    "title": "KAWAII1702202237340",
    "link_img": "https://live.staticflickr.com/65535/49694221281_264ab1e996_o.jpg",
    "id_image": "KAWAII1702202237340",
    "count_view": 0
  },
  {
    "link_thumb": "https://live.staticflickr.com/65535/49622848066_e50e00a1a6_n.jpg",
    "id_album": "-406350429",
    "description": "KAWAII0503202021308",
    "title": "KAWAII0503202021308",
    "link_img": "https://live.staticflickr.com/65535/49622848066_1a10d01fed_o.jpg",
    "id_image": "KAWAII0503202021308",
    "count_view": 0
  },
  {
    "link_thumb": "https://live.staticflickr.com/65535/49592709616_dbb1dc7bb1_n.jpg",
    "id_album": "-1741487325",
    "description": "KAWAII170220223486",
    "title": "KAWAII170220223486",
    "link_img": "https://live.staticflickr.com/65535/49592709616_b051e88591_o.jpg",
    "id_image": "KAWAII170220223486",
    "count_view": 0
  },
  {
    "link_thumb": "https://live.staticflickr.com/65535/49742948051_4c3bc0f67f_n.jpg",
    "id_album": "1396902986",
    "description": "KAWAII060420214915113",
    "title": "KAWAII060420214915113",
    "link_img": "https://live.staticflickr.com/65535/49742948051_8b6173d550_o.jpg",
    "id_image": "KAWAII060420214915113",
    "count_view": 0
  }
]