[
  {
    "link_thumb": "https://live.staticflickr.com/65535/49743250207_8d58b1d982_n.jpg",
    "id_album": "-316663319",
    "description": "KAWAII06042021491460",
    "title": "KAWAII06042021491460",
    "link_img": "https://live.staticflickr.com/65535/49743250207_89f7b8c0c6_o.jpg",
    "id_image": "KAWAII06042021491460",
    "count_view": 0
  },
  {
    "link_thumb": "https://live.staticflickr.com/65535/49694069891_4d3f9bb401_n.jpg",
    "id_album": "-643980979",
    "description": "KAWAII0503202021113",
    "title": "KAWAII0503202021113",
    "link_img": "https://live.staticflickr.com/65535/49694069891_29beff98a7_o.jpg",
    "id_image": "KAWAII0503202021113",
    "count_view": 0
  },
  {
    "link_thumb": "https://live.staticflickr.com/65535/49548545271_67591625b4_n.jpg",
    "id_album": "-1741487325",
    "description": "KAWAII120918104",
    "title": "KAWAII120918104",
    "link_img": "https://live.staticflickr.com/65535/49548545271_6b90942aaf_o.jpg",
    "id_image": "KAWAII120918104",
    "count_view": 0
  },
  {
    "link_thumb": "https://live.staticflickr.com/65535/49727466096_7315723fb3_n.jpg",
    "id_album": "-1862561193",
    "description": "KAWAII020420194508127",
    "title": "KAWAII020420194508127",
    "link_img": "https://live.staticflickr.com/65535/49727466096_a611115c3e_o.jpg",
    "id_image": "KAWAII020420194508127",
    "count_view": 0
  },
  {
    "link_thumb": "https://live.staticflickr.com/65535/49743232892_ca4857bffc_n.jpg",
    "id_album": "-1694302085",
    "description": "KAWAII060420214912302",
    "title": "KAWAII060420214912302",
    "link_img": "https://live.staticflickr.com/65535/49743232892_df46f0b288_o.jpg",
    "id_image": "KAWAII060420214912302",
    "count_view": 0
  },
  {
    "link_thumb": "https://live.staticflickr.com/65535/49694078616_db7a04fa45_n.jpg",
    "id_album": "-643980979",
    "description": "KAWAII050320202178",
    "title": "KAWAII050320202178",
    "link_img": "https://live.staticflickr.com/65535/49694078616_4847ec2075_o.jpg",
    "id_image": "KAWAII050320202178",
    "count_view": 0
  },
  {
    "link_thumb": "https://live.staticflickr.com/65535/49623096962_b2e24a4f06_n.jpg",
    "id_album": "-316663319",
    "description": "KAWAII0503202021223",
    "title": "KAWAII0503202021223",
    "link_img": "https://live.staticflickr.com/65535/49623096962_8d05fc8f26_o.jpg",
    "id_image": "KAWAII0503202021223",
    "count_view": 0
  },
  {
    "link_thumb": "https://live.staticflickr.com/65535/49694073361_dc86530e5b_n.jpg",
    "id_album": "-643980979",
    "description": "KAWAII0503202021258",
    "title": "KAWAII0503202021258",
    "link_img": "https://live.staticflickr.com/65535/49694073361_208c511a69_o.jpg",
    "id_image": "KAWAII0503202021258",
    "count_view": 0
  },
  {
    "link_thumb": "https://live.staticflickr.com/65535/49694074656_467bd58490_n.jpg",
    "id_album": "-643980979",
    "description": "KAWAII0503202021282",
    "title": "KAWAII0503202021282",
    "link_img": "https://live.staticflickr.com/65535/49694074656_9a1018bd3c_o.jpg",
    "id_image": "KAWAII0503202021282",
    "count_view": 0
  },
  {
    "link_thumb": "https://live.staticflickr.com/65535/49622831141_40b5253569_n.jpg",
    "id_album": "-1694302085",
    "description": "KAWAII050320202130",
    "title": "KAWAII050320202130",
    "link_img": "https://live.staticflickr.com/65535/49622831141_39b6005f93_o.jpg",
    "id_image": "KAWAII050320202130",
    "count_view": 0
  },
  {
    "link_thumb": "https://live.staticflickr.com/65535/49727745482_f382fce553_n.jpg",
    "id_album": "-1497779911",
    "description": "KAWAII0503202021126",
    "title": "KAWAII0503202021126",
    "link_img": "https://live.staticflickr.com/65535/49727745482_731a05e64f_o.jpg",
    "id_image": "KAWAII0503202021126",
    "count_view": 0
  },
  {
    "link_thumb": "https://live.staticflickr.com/65535/49694410897_b8cffab1b0_n.jpg",
    "id_album": "-643980979",
    "description": "KAWAII1702202235136",
    "title": "KAWAII1702202235136",
    "link_img": "https://live.staticflickr.com/65535/49694410897_8bcbcd948f_o.jpg",
    "id_image": "KAWAII1702202235136",
    "count_view": 0
  },
  {
    "link_thumb": "https://live.staticflickr.com/65535/49726887613_bb3ab772c0_n.jpg",
    "id_album": "-1497779911",
    "description": "KAWAII1702202239545",
    "title": "KAWAII1702202239545",
    "link_img": "https://live.staticflickr.com/65535/49726887613_f69b805638_o.jpg",
    "id_image": "KAWAII1702202239545",
    "count_view": 0
  },
  {
    "link_thumb": "https://live.staticflickr.com/65535/49548836022_9aaa929a07_n.jpg",
    "id_album": "-422187261",
    "description": "KAWAII120918374",
    "title": "KAWAII120918374",
    "link_img": "https://live.staticflickr.com/65535/49548836022_bb62d6afac_o.jpg",
    "id_image": "KAWAII120918374",
    "count_view": 0
  },
  {
    "link_thumb": "https://live.staticflickr.com/65535/49548262878_df4979d677_n.jpg",
    "id_album": "949200594",
    "description": "KAWAII1709182",
    "title": "KAWAII1709182",
    "link_img": "https://live.staticflickr.com/65535/49548262878_9031c1d28c_o.jpg",
    "id_image": "KAWAII1709182",
    "count_view": 0
  },
  {
    "link_thumb": "https://live.staticflickr.com/65535/49742379248_eb54df3a78_n.jpg",
    "id_album": "-316663319",
    "description": "KAWAII060420214915163",
    "title": "KAWAII060420214915163",
    "link_img": "https://live.staticflickr.com/65535/49742379248_21f4d796f2_o.jpg",
    "id_image": "KAWAII060420214915163",
    "count_view": 0
  },
  {
    "link_thumb": "https://live.staticflickr.com/65535/49548178683_c280d6555e_n.jpg",
    "id_album": "1396902986",
    "description": "KAWAII1702202236288",
    "title": "KAWAII1702202236288",
    "link_img": "https://live.staticflickr.com/65535/49548178683_ec0acac767_o.jpg",
    "id_image": "KAWAII1702202236288",
    "count_view": 0
  },
  {
    "link_thumb": "https://live.staticflickr.com/65535/49711144802_1e0afd3a19_n.jpg",
    "id_album": "-1599896063",
    "description": "LITTLEMONK29032012063521",
    "title": "LITTLEMONK29032012063521",
    "link_img": "https://live.staticflickr.com/65535/49711144802_4d2dc609c2_o.jpg",
    "id_image": "LITTLEMONK29032012063521",
    "count_view": 0
  },
  {
    "link_thumb": "https://live.staticflickr.com/65535/49742389058_53d1bf6200_n.jpg",
    "id_album": "-1473448477",
    "description": "KAWAII060420214915215",
    "title": "KAWAII060420214915215",
    "link_img": "https://live.staticflickr.com/65535/49742389058_dde80c8b33_o.jpg",
    "id_image": "KAWAII060420214915215",
    "count_view": 0
  },
  {
    "link_thumb": "https://live.staticflickr.com/65535/49548149648_dc1b2ddce6_n.jpg",
    "id_album": "-422187261",
    "description": "KAWAII1702202235145",
    "title": "KAWAII1702202235145",
    "link_img": "https://live.staticflickr.com/65535/49548149648_6c7282bcd8_o.jpg",
    "id_image": "KAWAII1702202235145",
    "count_view": 0
  },
  {
    "link_thumb": "https://live.staticflickr.com/65535/49548774506_5e5205fcd8_n.jpg",
    "id_album": "-316663319",
    "description": "KAWAII17091856",
    "title": "KAWAII17091856",
    "link_img": "https://live.staticflickr.com/65535/49548774506_33ee29b511_o.jpg",
    "id_image": "KAWAII17091856",
    "count_view": 0
  },
  {
    "link_thumb": "https://live.staticflickr.com/65535/49742927826_6b604da117_n.jpg",
    "id_album": "-316663319",
    "description": "KAWAII060420214915208",
    "title": "KAWAII060420214915208",
    "link_img": "https://live.staticflickr.com/65535/49742927826_80a8486dc2_o.jpg",
    "id_image": "KAWAII060420214915208",
    "count_view": 0
  },
  {
    "link_thumb": "https://live.staticflickr.com/65535/49693532663_66cff1d8d8_n.jpg",
    "id_album": "-643980979",
    "description": "KAWAII050320202149",
    "title": "KAWAII050320202149",
    "link_img": "https://live.staticflickr.com/65535/49693532663_bbf5d522f9_o.jpg",
    "id_image": "KAWAII050320202149",
    "count_view": 0
  },
  {
    "link_thumb": "https://live.staticflickr.com/65535/49727447791_f88960a7f0_n.jpg",
    "id_album": "742877173",
    "description": "KAWAII020420194511182",
    "title": "KAWAII020420194511182",
    "link_img": "https://live.staticflickr.com/65535/49727447791_fbd6a3f3a2_o.jpg",
    "id_image": "KAWAII020420194511182",
    "count_view": 0
  },
  {
    "link_thumb": "https://live.staticflickr.com/65535/49726884643_2a9d92e5af_n.jpg",
    "id_album": "-1497779911",
    "description": "KAWAII050320202123",
    "title": "KAWAII050320202123",
    "link_img": "https://live.staticflickr.com/65535/49726884643_2321187220_o.jpg",
    "id_image": "KAWAII050320202123",
    "count_view": 0
  },
  {
    "link_thumb": "https://live.staticflickr.com/65535/49578248238_c02e450583_n.jpg",
    "id_album": "-1099943053",
    "description": "KAWAII19022021116",
    "title": "KAWAII19022021116",
    "link_img": "https://live.staticflickr.com/65535/49578248238_266350c32d_o.jpg",
    "id_image": "KAWAII19022021116",
    "count_view": 0
  },
  {
    "link_thumb": "https://live.staticflickr.com/65535/49548606596_66b1a69fc1_n.jpg",
    "id_album": "-1741487325",
    "description": "KAWAII120918366",
    "title": "KAWAII120918366",
    "link_img": "https://live.staticflickr.com/65535/49548606596_fb6fd5f586_o.jpg",
    "id_image": "KAWAII120918366",
    "count_view": 0
  },
  {
    "link_thumb": "https://live.staticflickr.com/65535/49548242938_e9f62ba1e8_n.jpg",
    "id_album": "-1694302085",
    "description": "KAWAII1702202239542",
    "title": "KAWAII1702202239542",
    "link_img": "https://live.staticflickr.com/65535/49548242938_e930b45106_o.jpg",
    "id_image": "KAWAII1702202239542",
    "count_view": 0
  },
  {
    "link_thumb": "https://live.staticflickr.com/65535/49623103777_0910e27b3b_n.jpg",
    "id_album": "-316663319",
    "description": "KAWAII0503202021305",
    "title": "KAWAII0503202021305",
    "link_img": "https://live.staticflickr.com/65535/49623103777_4d46ebfa7a_o.jpg",
    "id_image": "KAWAII0503202021305",
    "count_view": 0
  },
  {
    "link_thumb": "https://live.staticflickr.com/65535/49592953492_b84fb37449_n.jpg",
    "id_album": "-1741487325",
    "description": "KAWAII17091831",
    "title": "KAWAII17091831",
    "link_img": "https://live.staticflickr.com/65535/49592953492_ee077b4196_o.jpg",
    "id_image": "KAWAII17091831",
    "count_view": 0
  },
  {
    "link_thumb": "https://live.staticflickr.com/65535/49694409882_b6fa30919f_n.jpg",
    "id_album": "-643980979",
    "description": "KAWAII170220223472",
    "title": "KAWAII170220223472",
    "link_img": "https://live.staticflickr.com/65535/49694409882_5c3cc8c8d5_o.jpg",
    "id_image": "KAWAII170220223472",
    "count_view": 0
  },
  {
    "link_thumb": "https://live.staticflickr.com/65535/49623078737_e12156ab87_n.jpg",
    "id_album": "-1432180061",
    "description": "KAWAII0503202021159",
    "title": "KAWAII0503202021159",
    "link_img": "https://live.staticflickr.com/65535/49623078737_ee4fde345c_o.jpg",
    "id_image": "KAWAII0503202021159",
    "count_view": 0
  },
  {
    "link_thumb": "https://live.staticflickr.com/65535/49548927977_c4b7791b97_n.jpg",
    "id_album": "-422187261",
    "description": "KAWAII1702202237381",
    "title": "KAWAII1702202237381",
    "link_img": "https://live.staticflickr.com/65535/49548927977_03f5048ee0_o.jpg",
    "id_image": "KAWAII1702202237381",
    "count_view": 0
  },
  {
    "link_thumb": "https://live.staticflickr.com/65535/49622844116_c880be49ce_n.jpg",
    "id_album": "-406350429",
    "description": "KAWAII0503202021197",
    "title": "KAWAII0503202021197",
    "link_img": "https://live.staticflickr.com/65535/49622844116_63eb17687d_o.jpg",
    "id_image": "KAWAII0503202021197",
    "count_view": 0
  },
  {
    "link_thumb": "https://live.staticflickr.com/65535/49727767512_205497106d_n.jpg",
    "id_album": "742877173",
    "description": "KAWAII02042019451463",
    "title": "KAWAII02042019451463",
    "link_img": "https://live.staticflickr.com/65535/49727767512_7e3dc89614_o.jpg",
    "id_image": "KAWAII02042019451463",
    "count_view": 0
  },
  {
    "link_thumb": "https://live.staticflickr.com/65535/49742352583_6a2be094ce_n.jpg",
    "id_album": "-1913845949",
    "description": "KAWAII060420214912125",
    "title": "KAWAII060420214912125",
    "link_img": "https://live.staticflickr.com/65535/49742352583_485a149253_o.jpg",
    "id_image": "KAWAII060420214912125",
    "count_view": 0
  },
  {
    "link_thumb": "https://live.staticflickr.com/65535/49743249472_6c2ed4a0f7_n.jpg",
    "id_album": "-316663319",
    "description": "KAWAII060420214914239",
    "title": "KAWAII060420214914239",
    "link_img": "https://live.staticflickr.com/65535/49743249472_dd1416c502_o.jpg",
    "id_image": "KAWAII060420214914239",
    "count_view": 0
  },
  {
    "link_thumb": "https://live.staticflickr.com/65535/49548864702_23c49122e7_n.jpg",
    "id_album": "-422187261",
    "description": "KAWAII170220223456",
    "title": "KAWAII170220223456",
    "link_img": "https://live.staticflickr.com/65535/49548864702_e87776d95f_o.jpg",
    "id_image": "KAWAII170220223456",
    "count_view": 0
  },
  {
    "link_thumb": "https://live.staticflickr.com/65535/49693572108_be7a498fa7_n.jpg",
    "id_album": "-643980979",
    "description": "KAWAII17022023461",
    "title": "KAWAII17022023461",
    "link_img": "https://live.staticflickr.com/65535/49693572108_88ff012330_o.jpg",
    "id_image": "KAWAII17022023461",
    "count_view": 0
  },
  {
    "link_thumb": "https://live.staticflickr.com/65535/49548610471_c6a9e5014f_n.jpg",
    "id_album": "-316663319",
    "description": "KAWAII12091843",
    "title": "KAWAII12091843",
    "link_img": "https://live.staticflickr.com/65535/49548610471_bf36fce83f_o.jpg",
    "id_image": "KAWAII12091843",
    "count_view": 0
  },
  {
    "link_thumb": "https://live.staticflickr.com/65535/49743226532_456c5d1ba3_n.jpg",
    "id_album": "-1913845949",
    "description": "KAWAII060420214915132",
    "title": "KAWAII060420214915132",
    "link_img": "https://live.staticflickr.com/65535/49743226532_f184789a63_o.jpg",
    "id_image": "KAWAII060420214915132",
    "count_view": 0
  },
  {
    "link_thumb": "https://live.staticflickr.com/65535/49743234292_8fa71a5011_n.jpg",
    "id_album": "-1694302085",
    "description": "KAWAII060420214918272",
    "title": "KAWAII060420214918272",
    "link_img": "https://live.staticflickr.com/65535/49743234292_684fa57def_o.jpg",
    "id_image": "KAWAII060420214918272",
    "count_view": 0
  },
  {
    "link_thumb": "https://live.staticflickr.com/65535/49694378392_d94a66076d_n.jpg",
    "id_album": "-643980979",
    "description": "KAWAII050320202136",
    "title": "KAWAII050320202136",
    "link_img": "https://live.staticflickr.com/65535/49694378392_9321ddde90_o.jpg",
    "id_image": "KAWAII050320202136",
    "count_view": 0
  },
  {
    "link_thumb": "https://live.staticflickr.com/65535/49743265042_a289f35b3c_n.jpg",
    "id_album": "-1473448477",
    "description": "KAWAII060420214917177",
    "title": "KAWAII060420214917177",
    "link_img": "https://live.staticflickr.com/65535/49743265042_902a3b4cbe_o.jpg",
    "id_image": "KAWAII060420214917177",
    "count_view": 0
  },
  {
    "link_thumb": "https://live.staticflickr.com/65535/49694222221_1ccc863cbd_n.jpg",
    "id_album": "-316663319",
    "description": "KAWAII2403202205025",
    "title": "KAWAII2403202205025",
    "link_img": "https://live.staticflickr.com/65535/49694222221_7790209d69_o.jpg",
    "id_image": "KAWAII2403202205025",
    "count_view": 0
  },
  {
    "link_thumb": "https://live.staticflickr.com/65535/49694422952_3e4b1fe084_n.jpg",
    "id_album": "-643980979",
    "description": "KAWAII190220211136",
    "title": "KAWAII190220211136",
    "link_img": "https://live.staticflickr.com/65535/49694422952_84233e920a_o.jpg",
    "id_image": "KAWAII190220211136",
    "count_view": 0
  },
  {
    "link_thumb": "https://live.staticflickr.com/65535/49694093706_d60073e99a_n.jpg",
    "id_album": "1201366373",
    "description": "KAWAII120918236",
    "title": "KAWAII120918236",
    "link_img": "https://live.staticflickr.com/65535/49694093706_39bf0f80cf_o.jpg",
    "id_image": "KAWAII120918236",
    "count_view": 0
  },
  {
    "link_thumb": "https://live.staticflickr.com/65535/49548634831_fa8b6bf488_n.jpg",
    "id_album": "-422187261",
    "description": "KAWAII170220223444",
    "title": "KAWAII170220223444",
    "link_img": "https://live.staticflickr.com/65535/49548634831_48fb7917fe_o.jpg",
    "id_image": "KAWAII170220223444",
    "count_view": 0
  },
  {
    "link_thumb": "https://live.staticflickr.com/65535/49727428866_b94445e179_n.jpg",
    "id_album": "-1741487325",
    "description": "KAWAII020420194509190",
    "title": "KAWAII020420194509190",
    "link_img": "https://live.staticflickr.com/65535/49727428866_92a2cc237b_o.jpg",
    "id_image": "KAWAII020420194509190",
    "count_view": 0
  },
  {
    "link_thumb": "https://live.staticflickr.com/65535/49694423752_6f90b793a7_n.jpg",
    "id_album": "-643980979",
    "description": "KAWAII2702202351148",
    "title": "KAWAII2702202351148",
    "link_img": "https://live.staticflickr.com/65535/49694423752_47092cfd73_o.jpg",
    "id_image": "KAWAII2702202351148",
    "count_view": 0
  },
  {
    "link_thumb": "https://live.staticflickr.com/65535/49743252577_c5c37b428b_n.jpg",
    "id_album": "-316663319",
    "description": "KAWAII060420214915250",
    "title": "KAWAII060420214915250",
    "link_img": "https://live.staticflickr.com/65535/49743252577_4990f8d560_o.jpg",
    "id_image": "KAWAII060420214915250",
    "count_view": 0
  },
  {
    "link_thumb": "https://live.staticflickr.com/65535/49693546498_266cedc3fd_n.jpg",
    "id_album": "1201366373",
    "description": "KAWAII120918199",
    "title": "KAWAII120918199",
    "link_img": "https://live.staticflickr.com/65535/49693546498_68082d5e8c_o.jpg",
    "id_image": "KAWAII120918199",
    "count_view": 0
  },
  {
    "link_thumb": "https://live.staticflickr.com/65535/49710288343_35989a4741_n.jpg",
    "id_album": "-1599896063",
    "description": "LITTLEMONK29032012063911",
    "title": "LITTLEMONK29032012063911",
    "link_img": "https://live.staticflickr.com/65535/49710288343_460d3b1dbb_o.jpg",
    "id_image": "LITTLEMONK29032012063911",
    "count_view": 0
  },
  {
    "link_thumb": "https://live.staticflickr.com/65535/49742396283_874932332b_n.jpg",
    "id_album": "-1779286820",
    "description": "KAWAII060420214915123",
    "title": "KAWAII060420214915123",
    "link_img": "https://live.staticflickr.com/65535/49742396283_90eacb75c7_o.jpg",
    "id_image": "KAWAII060420214915123",
    "count_view": 0
  },
  {
    "link_thumb": "https://live.staticflickr.com/65535/49693537013_f1f4170a46_n.jpg",
    "id_album": "1201366373",
    "description": "KAWAII120918101",
    "title": "KAWAII120918101",
    "link_img": "https://live.staticflickr.com/65535/49693537013_79860da14e_o.jpg",
    "id_image": "KAWAII120918101",
    "count_view": 0
  },
  {
    "link_thumb": "https://live.staticflickr.com/65535/49727438841_ba457fd835_n.jpg",
    "id_album": "-316663319",
    "description": "KAWAII020420194511183",
    "title": "KAWAII020420194511183",
    "link_img": "https://live.staticflickr.com/65535/49727438841_849c92544b_o.jpg",
    "id_image": "KAWAII020420194511183",
    "count_view": 0
  },
  {
    "link_thumb": "https://live.staticflickr.com/65535/49592956267_048df9ae17_n.jpg",
    "id_album": "-316663319",
    "description": "KAWAII2702202351114",
    "title": "KAWAII2702202351114",
    "link_img": "https://live.staticflickr.com/65535/49592956267_116b76a362_o.jpg",
    "id_image": "KAWAII2702202351114",
    "count_view": 0
  },
  {
    "link_thumb": "https://live.staticflickr.com/65535/49548198158_5a9a25317d_n.jpg",
    "id_album": "1396902986",
    "description": "KAWAII1702202237373",
    "title": "KAWAII1702202237373",
    "link_img": "https://live.staticflickr.com/65535/49548198158_a3bf926739_o.jpg",
    "id_image": "KAWAII1702202237373",
    "count_view": 0
  },
  {
    "link_thumb": "https://live.staticflickr.com/65535/49548195458_58ee968802_n.jpg",
    "id_album": "-1432180061",
    "description": "KAWAII1702202237363",
    "title": "KAWAII1702202237363",
    "link_img": "https://live.staticflickr.com/65535/49548195458_2d6f2e65ca_o.jpg",
    "id_image": "KAWAII1702202237363",
    "count_view": 0
  },
  {
    "link_thumb": "https://live.staticflickr.com/65535/49726877818_53f61f5de1_n.jpg",
    "id_album": "-1694302085",
    "description": "KAWAII02042019450832",
    "title": "KAWAII02042019450832",
    "link_img": "https://live.staticflickr.com/65535/49726877818_b29789fafa_o.jpg",
    "id_image": "KAWAII02042019450832",
    "count_view": 0
  },
  {
    "link_thumb": "https://live.staticflickr.com/65535/49548993842_31f2fe9d85_n.jpg",
    "id_album": "-316663319",
    "description": "KAWAII17091830",
    "title": "KAWAII17091830",
    "link_img": "https://live.staticflickr.com/65535/49548993842_bedaa88c15_o.jpg",
    "id_image": "KAWAII17091830",
    "count_view": 0
  },
  {
    "link_thumb": "https://live.staticflickr.com/65535/49694100931_1484c44f33_n.jpg",
    "id_album": "1201366373",
    "description": "KAWAII12091835",
    "title": "KAWAII12091835",
    "link_img": "https://live.staticflickr.com/65535/49694100931_6e938afa04_o.jpg",
    "id_image": "KAWAII12091835",
    "count_view": 0
  },
  {
    "link_thumb": "https://live.staticflickr.com/65535/49548715926_c11836b31f_n.jpg",
    "id_album": "-422187261",
    "description": "KAWAII1702202238439",
    "title": "KAWAII1702202238439",
    "link_img": "https://live.staticflickr.com/65535/49548715926_bc37b6ac4d_o.jpg",
    "id_image": "KAWAII1702202238439",
    "count_view": 0
  },
  {
    "link_thumb": "https://live.staticflickr.com/65535/49693675653_0e7fd4a63e_n.jpg",
    "id_album": "-643980979",
    "description": "KAWAII24032022050223",
    "title": "KAWAII24032022050223",
    "link_img": "https://live.staticflickr.com/65535/49693675653_c3fa1e43ba_o.jpg",
    "id_image": "KAWAII24032022050223",
    "count_view": 0
  },
  {
    "link_thumb": "https://live.staticflickr.com/65535/49726926883_0fd5102fc0_n.jpg",
    "id_album": "1563362783",
    "description": "KAWAII1702202236280",
    "title": "KAWAII1702202236280",
    "link_img": "https://live.staticflickr.com/65535/49726926883_5f89a6c30c_o.jpg",
    "id_image": "KAWAII1702202236280",
    "count_view": 0
  },
  {
    "link_thumb": "https://live.staticflickr.com/65535/49548098598_8fee019f6c_n.jpg",
    "id_album": "-422187261",
    "description": "KAWAII120918342",
    "title": "KAWAII120918342",
    "link_img": "https://live.staticflickr.com/65535/49548098598_31c01801a9_o.jpg",
    "id_image": "KAWAII120918342",
    "count_view": 0
  },
  {
    "link_thumb": "https://live.staticflickr.com/65535/49742949936_19f0003080_n.jpg",
    "id_album": "1396902986",
    "description": "KAWAII0604202149184",
    "title": "KAWAII0604202149184",
    "link_img": "https://live.staticflickr.com/65535/49742949936_4d7d1605c3_o.jpg",
    "id_image": "KAWAII0604202149184",
    "count_view": 0
  },
  {
    "link_thumb": "https://live.staticflickr.com/65535/49711146092_0f18776a20_n.jpg",
    "id_album": "-1599896063",
    "description": "LITTLEMONK2903201206391",
    "title": "LITTLEMONK2903201206391",
    "link_img": "https://live.staticflickr.com/65535/49711146092_80cafb6a23_o.jpg",
    "id_image": "LITTLEMONK2903201206391",
    "count_view": 0
  },
  {
    "link_thumb": "https://live.staticflickr.com/65535/49548731631_730093018a_n.jpg",
    "id_album": "-422187261",
    "description": "KAWAII1702202238498",
    "title": "KAWAII1702202238498",
    "link_img": "https://live.staticflickr.com/65535/49548731631_cb19aed3bd_o.jpg",
    "id_image": "KAWAII1702202238498",
    "count_view": 0
  },
  {
    "link_thumb": "https://live.staticflickr.com/65535/49727443936_beae1b9b89_n.jpg",
    "id_album": "742877173",
    "description": "KAWAII020420194509187",
    "title": "KAWAII020420194509187",
    "link_img": "https://live.staticflickr.com/65535/49727443936_a0e4d324d8_o.jpg",
    "id_image": "KAWAII020420194509187",
    "count_view": 0
  },
  {
    "link_thumb": "https://live.staticflickr.com/65535/49726925693_708ef6ca57_n.jpg",
    "id_album": "-1431786825",
    "description": "KAWAII020420194511158",
    "title": "KAWAII020420194511158",
    "link_img": "https://live.staticflickr.com/65535/49726925693_70f7508396_o.jpg",
    "id_image": "KAWAII020420194511158",
    "count_view": 0
  },
  {
    "link_thumb": "https://live.staticflickr.com/65535/49548617406_84aee99d48_n.jpg",
    "id_album": "-316663319",
    "description": "KAWAII12091877",
    "title": "KAWAII12091877",
    "link_img": "https://live.staticflickr.com/65535/49548617406_6cbf2fa379_o.jpg",
    "id_image": "KAWAII12091877",
    "count_view": 0
  },
  {
    "link_thumb": "https://live.staticflickr.com/65535/49742943546_140855094f_n.jpg",
    "id_album": "-1779286820",
    "description": "KAWAII060420214913190",
    "title": "KAWAII060420214913190",
    "link_img": "https://live.staticflickr.com/65535/49742943546_0b980a0a42_o.jpg",
    "id_image": "KAWAII060420214913190",
    "count_view": 0
  },
  {
    "link_thumb": "https://live.staticflickr.com/65535/49693576813_fc78654c31_n.jpg",
    "id_album": "-643980979",
    "description": "KAWAII17091841",
    "title": "KAWAII17091841",
    "link_img": "https://live.staticflickr.com/65535/49693576813_88f55eb0eb_o.jpg",
    "id_image": "KAWAII17091841",
    "count_view": 0
  },
  {
    "link_thumb": "https://live.staticflickr.com/65535/49548829712_507eb00ccd_n.jpg",
    "id_album": "-1099943053",
    "description": "KAWAII120918349",
    "title": "KAWAII120918349",
    "link_img": "https://live.staticflickr.com/65535/49548829712_07620e2619_o.jpg",
    "id_image": "KAWAII120918349",
    "count_view": 0
  },
  {
    "link_thumb": "https://live.staticflickr.com/65535/49694380432_89f3889088_n.jpg",
    "id_album": "-643980979",
    "description": "KAWAII050320202175",
    "title": "KAWAII050320202175",
    "link_img": "https://live.staticflickr.com/65535/49694380432_579e059c17_o.jpg",
    "id_image": "KAWAII050320202175",
    "count_view": 0
  },
  {
    "link_thumb": "https://live.staticflickr.com/65535/49727434816_02b27db2b0_n.jpg",
    "id_album": "-1497779911",
    "description": "KAWAII1702202238476",
    "title": "KAWAII1702202238476",
    "link_img": "https://live.staticflickr.com/65535/49727434816_7c2163c581_o.jpg",
    "id_image": "KAWAII1702202238476",
    "count_view": 0
  },
  {
    "link_thumb": "https://live.staticflickr.com/65535/49693574928_79d3589446_n.jpg",
    "id_album": "-643980979",
    "description": "KAWAII17022023467",
    "title": "KAWAII17022023467",
    "link_img": "https://live.staticflickr.com/65535/49693574928_f5cb637a76_o.jpg",
    "id_image": "KAWAII17022023467",
    "count_view": 0
  },
  {
    "link_thumb": "https://live.staticflickr.com/65535/49727465396_43aa8d7c90_n.jpg",
    "id_album": "1396902986",
    "description": "KAWAII02042019451249",
    "title": "KAWAII02042019451249",
    "link_img": "https://live.staticflickr.com/65535/49727465396_a64da1a456_o.jpg",
    "id_image": "KAWAII02042019451249",
    "count_view": 0
  },
  {
    "link_thumb": "https://live.staticflickr.com/65535/49623074172_249e72beff_n.jpg",
    "id_album": "1396902986",
    "description": "KAWAII0503202021219",
    "title": "KAWAII0503202021219",
    "link_img": "https://live.staticflickr.com/65535/49623074172_7f22c72567_o.jpg",
    "id_image": "KAWAII0503202021219",
    "count_view": 0
  },
  {
    "link_thumb": "https://live.staticflickr.com/65535/49548106158_d03a1ba093_n.jpg",
    "id_album": "-1741487325",
    "description": "KAWAII120918372",
    "title": "KAWAII120918372",
    "link_img": "https://live.staticflickr.com/65535/49548106158_77f555b9e7_o.jpg",
    "id_image": "KAWAII120918372",
    "count_view": 0
  },
  {
    "link_thumb": "https://live.staticflickr.com/65535/49742920946_83d0686ccb_n.jpg",
    "id_album": "-316663319",
    "description": "KAWAII060420214912142",
    "title": "KAWAII060420214912142",
    "link_img": "https://live.staticflickr.com/65535/49742920946_b4f8cbc8e9_o.jpg",
    "id_image": "KAWAII060420214912142",
    "count_view": 0
  },
  {
    "link_thumb": "https://live.staticflickr.com/65535/49552517241_cfe1185bd3_n.jpg",
    "id_album": "-1694302085",
    "description": "KAWAII12091825180220205911",
    "title": "KAWAII12091825180220205911",
    "link_img": "https://live.staticflickr.com/65535/49552517241_e6d0dcecb0_o.jpg",
    "id_image": "KAWAII12091825180220205911",
    "count_view": 0
  },
  {
    "link_thumb": "https://live.staticflickr.com/65535/49548566621_f8a47d0bae_n.jpg",
    "id_album": "-1741487325",
    "description": "KAWAII120918192",
    "title": "KAWAII120918192",
    "link_img": "https://live.staticflickr.com/65535/49548566621_dcf7453533_o.jpg",
    "id_image": "KAWAII120918192",
    "count_view": 0
  },
  {
    "link_thumb": "https://live.staticflickr.com/65535/49552023193_1168d96f1a_n.jpg",
    "id_album": "-1694302085",
    "description": "KAWAII12091825180220205933",
    "title": "KAWAII12091825180220205933",
    "link_img": "https://live.staticflickr.com/65535/49552023193_984f322a4e_o.jpg",
    "id_image": "KAWAII12091825180220205933",
    "count_view": 0
  },
  {
    "link_thumb": "https://live.staticflickr.com/65535/49622806061_acc7361557_n.jpg",
    "id_album": "-1741487325",
    "description": "KAWAII0503202021132",
    "title": "KAWAII0503202021132",
    "link_img": "https://live.staticflickr.com/65535/49622806061_f780ea6420_o.jpg",
    "id_image": "KAWAII0503202021132",
    "count_view": 0
  },
  {
    "link_thumb": "https://live.staticflickr.com/65535/49623161482_17b070f43c_n.jpg",
    "id_album": "-1099943053",
    "description": "KAWAII0503202021259",
    "title": "KAWAII0503202021259",
    "link_img": "https://live.staticflickr.com/65535/49623161482_851780ab72_o.jpg",
    "id_image": "KAWAII0503202021259",
    "count_view": 0
  },
  {
    "link_thumb": "https://live.staticflickr.com/65535/49548157168_2631bc68a8_n.jpg",
    "id_album": "-1099943053",
    "description": "KAWAII1702202235180",
    "title": "KAWAII1702202235180",
    "link_img": "https://live.staticflickr.com/65535/49548157168_858f7d729f_o.jpg",
    "id_image": "KAWAII1702202235180",
    "count_view": 0
  },
  {
    "link_thumb": "https://live.staticflickr.com/65535/49694229856_553885b8dc_n.jpg",
    "id_album": "1226948986",
    "description": "KAWAII2403202205028",
    "title": "KAWAII2403202205028",
    "link_img": "https://live.staticflickr.com/65535/49694229856_991631dd0e_o.jpg",
    "id_image": "KAWAII2403202205028",
    "count_view": 0
  },
  {
    "link_thumb": "https://live.staticflickr.com/65535/49693680873_7ff034b3fb_n.jpg",
    "id_album": "-1862561193",
    "description": "KAWAII24032022050154",
    "title": "KAWAII24032022050154",
    "link_img": "https://live.staticflickr.com/65535/49693680873_e35bd49743_o.jpg",
    "id_image": "KAWAII24032022050154",
    "count_view": 0
  },
  {
    "link_thumb": "https://live.staticflickr.com/65535/49548846807_90eed5ba80_n.jpg",
    "id_album": "-1741487325",
    "description": "KAWAII12091887",
    "title": "KAWAII12091887",
    "link_img": "https://live.staticflickr.com/65535/49548846807_a8b7b527ac_o.jpg",
    "id_image": "KAWAII12091887",
    "count_view": 0
  },
  {
    "link_thumb": "https://live.staticflickr.com/65535/49726905103_8e4ab5e108_n.jpg",
    "id_album": "742877173",
    "description": "KAWAII020420194514202",
    "title": "KAWAII020420194514202",
    "link_img": "https://live.staticflickr.com/65535/49726905103_1594caaa95_o.jpg",
    "id_image": "KAWAII020420194514202",
    "count_view": 0
  },
  {
    "link_thumb": "https://live.staticflickr.com/65535/49693571198_a82879b5bf_n.jpg",
    "id_album": "-643980979",
    "description": "KAWAII1702202239525",
    "title": "KAWAII1702202239525",
    "link_img": "https://live.staticflickr.com/65535/49693571198_79c07df54a_o.jpg",
    "id_image": "KAWAII1702202239525",
    "count_view": 0
  },
  {
    "link_thumb": "https://live.staticflickr.com/65535/49548572351_028e0778f4_n.jpg",
    "id_album": "-316663319",
    "description": "KAWAII120918219",
    "title": "KAWAII120918219",
    "link_img": "https://live.staticflickr.com/65535/49548572351_e6bd1de198_o.jpg",
    "id_image": "KAWAII120918219",
    "count_view": 0
  },
  {
    "link_thumb": "https://live.staticflickr.com/65535/49694124706_1103db9b34_n.jpg",
    "id_album": "-358592519",
    "description": "KAWAII170220223465",
    "title": "KAWAII170220223465",
    "link_img": "https://live.staticflickr.com/65535/49694124706_3844e47e04_o.jpg",
    "id_image": "KAWAII170220223465",
    "count_view": 0
  },
  {
    "link_thumb": "https://live.staticflickr.com/65535/49622290498_4b0b08cd85_n.jpg",
    "id_album": "-1741487325",
    "description": "KAWAII0503202021117",
    "title": "KAWAII0503202021117",
    "link_img": "https://live.staticflickr.com/65535/49622290498_c9f4c4f7ae_o.jpg",
    "id_image": "KAWAII0503202021117",
    "count_view": 0
  },
  {
    "link_thumb": "https://live.staticflickr.com/65535/49694423912_b880bbe826_n.jpg",
    "id_album": "-643980979",
    "description": "KAWAII2702202351150",
    "title": "KAWAII2702202351150",
    "link_img": "https://live.staticflickr.com/65535/49694423912_eb973bbf79_o.jpg",
    "id_image": "KAWAII2702202351150",
    "count_view": 0
  },
  {
    "link_thumb": "https://live.staticflickr.com/65535/49548637661_4ae151bdfe_n.jpg",
    "id_album": "-422187261",
    "description": "KAWAII170220223458",
    "title": "KAWAII170220223458",
    "link_img": "https://live.staticflickr.com/65535/49548637661_246e7542bb_o.jpg",
    "id_image": "KAWAII170220223458",
    "count_view": 0
  },
  {
    "link_thumb": "https://live.staticflickr.com/65535/49742952331_93f5460291_n.jpg",
    "id_album": "-1862561193",
    "description": "KAWAII06042021491539",
    "title": "KAWAII06042021491539",
    "link_img": "https://live.staticflickr.com/65535/49742952331_60b92287e8_o.jpg",
    "id_image": "KAWAII06042021491539",
    "count_view": 0
  },
  {
    "link_thumb": "https://live.staticflickr.com/65535/49592712941_9ab292a7fc_n.jpg",
    "id_album": "-316663319",
    "description": "KAWAII17091814",
    "title": "KAWAII17091814",
    "link_img": "https://live.staticflickr.com/65535/49592712941_b7c9d2594e_o.jpg",
    "id_image": "KAWAII17091814",
    "count_view": 0
  },
  {
    "link_thumb": "https://live.staticflickr.com/65535/49694387657_ca79ea691c_n.jpg",
    "id_album": "1201366373",
    "description": "KAWAII120918157",
    "title": "KAWAII120918157",
    "link_img": "https://live.staticflickr.com/65535/49694387657_6176250974_o.jpg",
    "id_image": "KAWAII120918157",
    "count_view": 0
  },
  {
    "link_thumb": "https://live.staticflickr.com/65535/49693573483_ea8d2f7051_n.jpg",
    "id_album": "-643980979",
    "description": "KAWAII170220234617",
    "title": "KAWAII170220234617",
    "link_img": "https://live.staticflickr.com/65535/49693573483_049617c5d9_o.jpg",
    "id_image": "KAWAII170220234617",
    "count_view": 0
  },
  {
    "link_thumb": "https://live.staticflickr.com/65535/49727741482_f48f2b390b_n.jpg",
    "id_album": "-1694302085",
    "description": "KAWAII1702202239559",
    "title": "KAWAII1702202239559",
    "link_img": "https://live.staticflickr.com/65535/49727741482_eed1cb3888_o.jpg",
    "id_image": "KAWAII1702202239559",
    "count_view": 0
  },
  {
    "link_thumb": "https://live.staticflickr.com/65535/49548072663_0f5436a035_n.jpg",
    "id_album": "-422187261",
    "description": "KAWAII120918229",
    "title": "KAWAII120918229",
    "link_img": "https://live.staticflickr.com/65535/49548072663_2180029947_o.jpg",
    "id_image": "KAWAII120918229",
    "count_view": 0
  },
  {
    "link_thumb": "https://live.staticflickr.com/65535/49694118056_c340991dd2_n.jpg",
    "id_album": "-643980979",
    "description": "KAWAII17022023469",
    "title": "KAWAII17022023469",
    "link_img": "https://live.staticflickr.com/65535/49694118056_221d389d0f_o.jpg",
    "id_image": "KAWAII17022023469",
    "count_view": 0
  },
  {
    "link_thumb": "https://live.staticflickr.com/65535/49726877388_a4e361fe15_n.jpg",
    "id_album": "-1694302085",
    "description": "KAWAII020420194508186",
    "title": "KAWAII020420194508186",
    "link_img": "https://live.staticflickr.com/65535/49726877388_5fefe1e036_o.jpg",
    "id_image": "KAWAII020420194508186",
    "count_view": 0
  },
  {
    "link_thumb": "https://live.staticflickr.com/65535/49592203818_4be5912330_n.jpg",
    "id_album": "1396902986",
    "description": "KAWAII2702202351117",
    "title": "KAWAII2702202351117",
    "link_img": "https://live.staticflickr.com/65535/49592203818_07fb022dd1_o.jpg",
    "id_image": "KAWAII2702202351117",
    "count_view": 0
  },
  {
    "link_thumb": "https://live.staticflickr.com/65535/49727768697_a0ebfcc31b_n.jpg",
    "id_album": "1201366373",
    "description": "KAWAII120918296",
    "title": "KAWAII120918296",
    "link_img": "https://live.staticflickr.com/65535/49727768697_b04898132a_o.jpg",
    "id_image": "KAWAII120918296",
    "count_view": 0
  },
  {
    "link_thumb": "https://live.staticflickr.com/65535/49742399878_faea0d5d6b_n.jpg",
    "id_album": "1396902986",
    "description": "KAWAII06042021491277",
    "title": "KAWAII06042021491277",
    "link_img": "https://live.staticflickr.com/65535/49742399878_a23337b0c7_o.jpg",
    "id_image": "KAWAII06042021491277",
    "count_view": 0
  },
  {
    "link_thumb": "https://live.staticflickr.com/65535/49727467276_137a88c6e2_n.jpg",
    "id_album": "-1862561193",
    "description": "KAWAII02042019450946",
    "title": "KAWAII02042019450946",
    "link_img": "https://live.staticflickr.com/65535/49727467276_743828d5f8_o.jpg",
    "id_image": "KAWAII02042019450946",
    "count_view": 0
  },
  {
    "link_thumb": "https://live.staticflickr.com/65535/49548121913_60da61ca27_n.jpg",
    "id_album": "-422187261",
    "description": "KAWAII170220223316",
    "title": "KAWAII170220223316",
    "link_img": "https://live.staticflickr.com/65535/49548121913_44d0b61ddf_o.jpg",
    "id_image": "KAWAII170220223316",
    "count_view": 0
  },
  {
    "link_thumb": "https://live.staticflickr.com/65535/49694129991_fbaa985ab2_n.jpg",
    "id_album": "1226948986",
    "description": "TOTORO22032015427",
    "title": "TOTORO22032015427",
    "link_img": "https://live.staticflickr.com/65535/49694129991_6217e3c921_o.jpg",
    "id_image": "TOTORO22032015427",
    "count_view": 0
  },
  {
    "link_thumb": "https://live.staticflickr.com/65535/49727789047_984311d8a0_n.jpg",
    "id_album": "1563362783",
    "description": "KAWAII1702202237392",
    "title": "KAWAII1702202237392",
    "link_img": "https://live.staticflickr.com/65535/49727789047_b9f8c98b67_o.jpg",
    "id_image": "KAWAII1702202237392",
    "count_view": 0
  },
  {
    "link_thumb": "https://live.staticflickr.com/65535/49548275863_be7720d877_n.jpg",
    "id_album": "949200594",
    "description": "KAWAII1709188",
    "title": "KAWAII1709188",
    "link_img": "https://live.staticflickr.com/65535/49548275863_5317ecc65b_o.jpg",
    "id_image": "KAWAII1709188",
    "count_view": 0
  },
  {
    "link_thumb": "https://live.staticflickr.com/65535/49694087126_2ee9b03bf2_n.jpg",
    "id_album": "1201366373",
    "description": "KAWAII120918171",
    "title": "KAWAII120918171",
    "link_img": "https://live.staticflickr.com/65535/49694087126_c64a115f11_o.jpg",
    "id_image": "KAWAII120918171",
    "count_view": 0
  },
  {
    "link_thumb": "https://live.staticflickr.com/65535/49693678043_28ff5f0824_n.jpg",
    "id_album": "-1432180061",
    "description": "KAWAII1702202237331",
    "title": "KAWAII1702202237331",
    "link_img": "https://live.staticflickr.com/65535/49693678043_e1f98b1124_o.jpg",
    "id_image": "KAWAII1702202237331",
    "count_view": 0
  },
  {
    "link_thumb": "https://live.staticflickr.com/65535/49727448881_4cc935def4_n.jpg",
    "id_album": "742877173",
    "description": "KAWAII02042019451193",
    "title": "KAWAII02042019451193",
    "link_img": "https://live.staticflickr.com/65535/49727448881_ef8c24c859_o.jpg",
    "id_image": "KAWAII02042019451193",
    "count_view": 0
  },
  {
    "link_thumb": "https://live.staticflickr.com/65535/49548785597_d1bf84a7e6_n.jpg",
    "id_album": "-422187261",
    "description": "KAWAII120918158",
    "title": "KAWAII120918158",
    "link_img": "https://live.staticflickr.com/65535/49548785597_604fe9e477_o.jpg",
    "id_image": "KAWAII120918158",
    "count_view": 0
  },
  {
    "link_thumb": "https://live.staticflickr.com/65535/49548729551_d152518c25_n.jpg",
    "id_album": "-422187261",
    "description": "KAWAII1702202238491",
    "title": "KAWAII1702202238491",
    "link_img": "https://live.staticflickr.com/65535/49548729551_87dde6ce32_o.jpg",
    "id_image": "KAWAII1702202238491",
    "count_view": 0
  },
  {
    "link_thumb": "https://live.staticflickr.com/65535/49694388692_8c05230376_n.jpg",
    "id_album": "-643980979",
    "description": "KAWAII120918164",
    "title": "KAWAII120918164",
    "link_img": "https://live.staticflickr.com/65535/49694388692_4df2e7dd01_o.jpg",
    "id_image": "KAWAII120918164",
    "count_view": 0
  },
  {
    "link_thumb": "https://live.staticflickr.com/65535/49742957031_34edfd1845_n.jpg",
    "id_album": "-1431786825",
    "description": "KAWAII06042021491564",
    "title": "KAWAII06042021491564",
    "link_img": "https://live.staticflickr.com/65535/49742957031_7fb48a5c4c_o.jpg",
    "id_image": "KAWAII06042021491564",
    "count_view": 0
  },
  {
    "link_thumb": "https://live.staticflickr.com/65535/49548090478_e14671db02_n.jpg",
    "id_album": "-422187261",
    "description": "KAWAII120918308",
    "title": "KAWAII120918308",
    "link_img": "https://live.staticflickr.com/65535/49548090478_68298f952a_o.jpg",
    "id_image": "KAWAII120918308",
    "count_view": 0
  },
  {
    "link_thumb": "https://live.staticflickr.com/65535/49552757127_65080a2967_n.jpg",
    "id_album": "-1694302085",
    "description": "KAWAII12091825180220205921",
    "title": "KAWAII12091825180220205921",
    "link_img": "https://live.staticflickr.com/65535/49552757127_aebd87c41d_o.jpg",
    "id_image": "KAWAII12091825180220205921",
    "count_view": 0
  },
  {
    "link_thumb": "https://live.staticflickr.com/65535/49694371987_aff287f26d_n.jpg",
    "id_album": "-643980979",
    "description": "KAWAII0503202021106",
    "title": "KAWAII0503202021106",
    "link_img": "https://live.staticflickr.com/65535/49694371987_c04ff20047_o.jpg",
    "id_image": "KAWAII0503202021106",
    "count_view": 0
  },
  {
    "link_thumb": "https://live.staticflickr.com/65535/49743266967_158b749625_n.jpg",
    "id_album": "-1779286820",
    "description": "KAWAII060420214913187",
    "title": "KAWAII060420214913187",
    "link_img": "https://live.staticflickr.com/65535/49743266967_cacda7e47b_o.jpg",
    "id_image": "KAWAII060420214913187",
    "count_view": 0
  },
  {
    "link_thumb": "https://live.staticflickr.com/65535/49622846951_ea92c7b8a6_n.jpg",
    "id_album": "-406350429",
    "description": "KAWAII0503202021266",
    "title": "KAWAII0503202021266",
    "link_img": "https://live.staticflickr.com/65535/49622846951_8c7fc8cfa4_o.jpg",
    "id_image": "KAWAII0503202021266",
    "count_view": 0
  },
  {
    "link_thumb": "https://live.staticflickr.com/65535/49694086796_2038f4e37a_n.jpg",
    "id_album": "-643980979",
    "description": "KAWAII12091817",
    "title": "KAWAII12091817",
    "link_img": "https://live.staticflickr.com/65535/49694086796_46b9dc535b_o.jpg",
    "id_image": "KAWAII12091817",
    "count_view": 0
  },
  {
    "link_thumb": "https://live.staticflickr.com/65535/49694403817_304ff6bec8_n.jpg",
    "id_album": "1201366373",
    "description": "KAWAII1209184",
    "title": "KAWAII1209184",
    "link_img": "https://live.staticflickr.com/65535/49694403817_7b234b0c3d_o.jpg",
    "id_image": "KAWAII1209184",
    "count_view": 0
  },
  {
    "link_thumb": "https://live.staticflickr.com/65535/49742944171_e5575bc4ba_n.jpg",
    "id_album": "-1779286820",
    "description": "KAWAII060420214915197",
    "title": "KAWAII060420214915197",
    "link_img": "https://live.staticflickr.com/65535/49742944171_fd10342417_o.jpg",
    "id_image": "KAWAII060420214915197",
    "count_view": 0
  },
  {
    "link_thumb": "https://live.staticflickr.com/65535/49592976712_6ea68c4873_n.jpg",
    "id_album": "949200594",
    "description": "KAWAII270220235196",
    "title": "KAWAII270220235196",
    "link_img": "https://live.staticflickr.com/65535/49592976712_7432caba44_o.jpg",
    "id_image": "KAWAII270220235196",
    "count_view": 0
  },
  {
    "link_thumb": "https://live.staticflickr.com/65535/49742948581_82717c9931_n.jpg",
    "id_album": "1396902986",
    "description": "KAWAII060420214915119",
    "title": "KAWAII060420214915119",
    "link_img": "https://live.staticflickr.com/65535/49742948581_b2ef97035f_o.jpg",
    "id_image": "KAWAII060420214915119",
    "count_view": 0
  },
  {
    "link_thumb": "https://live.staticflickr.com/65535/49743251342_f5abde3d17_n.jpg",
    "id_album": "-316663319",
    "description": "KAWAII060420214915168",
    "title": "KAWAII060420214915168",
    "link_img": "https://live.staticflickr.com/65535/49743251342_3c5a096da3_o.jpg",
    "id_image": "KAWAII060420214915168",
    "count_view": 0
  },
  {
    "link_thumb": "https://live.staticflickr.com/65535/49693682353_8b39a5992c_n.jpg",
    "id_album": "46674803",
    "description": "KAWAII24032022050233",
    "title": "KAWAII24032022050233",
    "link_img": "https://live.staticflickr.com/65535/49693682353_ffce88a729_o.jpg",
    "id_image": "KAWAII24032022050233",
    "count_view": 0
  },
  {
    "link_thumb": "https://live.staticflickr.com/65535/49578750566_27e54cdc23_n.jpg",
    "id_album": "-316663319",
    "description": "KAWAII190220211131",
    "title": "KAWAII190220211131",
    "link_img": "https://live.staticflickr.com/65535/49578750566_3f5b567b18_o.jpg",
    "id_image": "KAWAII190220211131",
    "count_view": 0
  },
  {
    "link_thumb": "https://live.staticflickr.com/65535/49693564098_3a86af7d55_n.jpg",
    "id_album": "1201366373",
    "description": "KAWAII170220223439",
    "title": "KAWAII170220223439",
    "link_img": "https://live.staticflickr.com/65535/49693564098_c448ab54f0_o.jpg",
    "id_image": "KAWAII170220223439",
    "count_view": 0
  },
  {
    "link_thumb": "https://live.staticflickr.com/65535/49548570486_dc709ec43b_n.jpg",
    "id_album": "-1694302085",
    "description": "KAWAII120918209",
    "title": "KAWAII120918209",
    "link_img": "https://live.staticflickr.com/65535/49548570486_5138dfca7b_o.jpg",
    "id_image": "KAWAII120918209",
    "count_view": 0
  },
  {
    "link_thumb": "https://live.staticflickr.com/65535/49622805466_a5265a88fd_n.jpg",
    "id_album": "-1741487325",
    "description": "KAWAII050320202110",
    "title": "KAWAII050320202110",
    "link_img": "https://live.staticflickr.com/65535/49622805466_fb1a9fa924_o.jpg",
    "id_image": "KAWAII050320202110",
    "count_view": 0
  },
  {
    "link_thumb": "https://live.staticflickr.com/65535/49622284133_b3dbb6b9e6_n.jpg",
    "id_album": "1396902986",
    "description": "KAWAII0503202021116",
    "title": "KAWAII0503202021116",
    "link_img": "https://live.staticflickr.com/65535/49622284133_9419bac00a_o.jpg",
    "id_image": "KAWAII0503202021116",
    "count_view": 0
  },
  {
    "link_thumb": "https://live.staticflickr.com/65535/49742924936_fe5da43b39_n.jpg",
    "id_album": "-316663319",
    "description": "KAWAII060420214914102",
    "title": "KAWAII060420214914102",
    "link_img": "https://live.staticflickr.com/65535/49742924936_c26f03cabd_o.jpg",
    "id_image": "KAWAII060420214914102",
    "count_view": 0
  },
  {
    "link_thumb": "https://live.staticflickr.com/65535/49622828131_4893d74f42_n.jpg",
    "id_album": "-316663319",
    "description": "KAWAII0503202021256",
    "title": "KAWAII0503202021256",
    "link_img": "https://live.staticflickr.com/65535/49622828131_59cc0046aa_o.jpg",
    "id_image": "KAWAII0503202021256",
    "count_view": 0
  },
  {
    "link_thumb": "https://live.staticflickr.com/65535/49578750051_26e3a6ac43_n.jpg",
    "id_album": "-316663319",
    "description": "KAWAII190220211123",
    "title": "KAWAII190220211123",
    "link_img": "https://live.staticflickr.com/65535/49578750051_3bc0f9edfc_o.jpg",
    "id_image": "KAWAII190220211123",
    "count_view": 0
  },
  {
    "link_thumb": "https://live.staticflickr.com/65535/49726920508_599c2c0291_n.jpg",
    "id_album": "-1862561193",
    "description": "KAWAII020420194510223",
    "title": "KAWAII020420194510223",
    "link_img": "https://live.staticflickr.com/65535/49726920508_d21ca1781a_o.jpg",
    "id_image": "KAWAII020420194510223",
    "count_view": 0
  },
  {
    "link_thumb": "https://live.staticflickr.com/65535/49694064701_895becb57c_n.jpg",
    "id_album": "1699819648",
    "description": "KAWAII0503202021286",
    "title": "KAWAII0503202021286",
    "link_img": "https://live.staticflickr.com/65535/49694064701_31e0c976d2_o.jpg",
    "id_image": "KAWAII0503202021286",
    "count_view": 0
  },
  {
    "link_thumb": "https://live.staticflickr.com/65535/49742930621_46cbfcebfa_n.jpg",
    "id_album": "-316663319",
    "description": "KAWAII060420214917101",
    "title": "KAWAII060420214917101",
    "link_img": "https://live.staticflickr.com/65535/49742930621_c8a5efe622_o.jpg",
    "id_image": "KAWAII060420214917101",
    "count_view": 0
  },
  {
    "link_thumb": "https://live.staticflickr.com/65535/49694074191_e14d810a12_n.jpg",
    "id_album": "1201366373",
    "description": "KAWAII0503202021272",
    "title": "KAWAII0503202021272",
    "link_img": "https://live.staticflickr.com/65535/49694074191_c31d33492f_o.jpg",
    "id_image": "KAWAII0503202021272",
    "count_view": 0
  },
  {
    "link_thumb": "https://live.staticflickr.com/65535/49693681333_6abeaa8d64_n.jpg",
    "id_album": "-1862561193",
    "description": "KAWAII24032022050164",
    "title": "KAWAII24032022050164",
    "link_img": "https://live.staticflickr.com/65535/49693681333_5a06cfd631_o.jpg",
    "id_image": "KAWAII24032022050164",
    "count_view": 0
  },
  {
    "link_thumb": "https://live.staticflickr.com/65535/49622323933_8aec11e413_n.jpg",
    "id_album": "-316663319",
    "description": "KAWAII050320202162",
    "title": "KAWAII050320202162",
    "link_img": "https://live.staticflickr.com/65535/49622323933_2654154e7e_o.jpg",
    "id_image": "KAWAII050320202162",
    "count_view": 0
  },
  {
    "link_thumb": "https://live.staticflickr.com/65535/49548844797_7ca96dfa33_n.jpg",
    "id_album": "-1694302085",
    "description": "KAWAII12091876",
    "title": "KAWAII12091876",
    "link_img": "https://live.staticflickr.com/65535/49548844797_a2d51ebe21_o.jpg",
    "id_image": "KAWAII12091876",
    "count_view": 0
  },
  {
    "link_thumb": "https://live.staticflickr.com/65535/49592730316_ed0a33a677_n.jpg",
    "id_album": "949200594",
    "description": "KAWAII2702202351125",
    "title": "KAWAII2702202351125",
    "link_img": "https://live.staticflickr.com/65535/49592730316_b1b244bfb2_o.jpg",
    "id_image": "KAWAII2702202351125",
    "count_view": 0
  },
  {
    "link_thumb": "https://live.staticflickr.com/65535/49743269112_a8e02d0f29_n.jpg",
    "id_album": "-1779286820",
    "description": "KAWAII060420214918209",
    "title": "KAWAII060420214918209",
    "link_img": "https://live.staticflickr.com/65535/49743269112_803209a4a3_o.jpg",
    "id_image": "KAWAII060420214918209",
    "count_view": 0
  },
  {
    "link_thumb": "https://live.staticflickr.com/65535/49548884292_1811eda321_n.jpg",
    "id_album": "-1741487325",
    "description": "KAWAII1702202235173",
    "title": "KAWAII1702202235173",
    "link_img": "https://live.staticflickr.com/65535/49548884292_b1cf46edbb_o.jpg",
    "id_image": "KAWAII1702202235173",
    "count_view": 0
  },
  {
    "link_thumb": "https://live.staticflickr.com/65535/49710287328_18c2ba3d5f_n.jpg",
    "id_album": "-1599896063",
    "description": "LITTLEMONK29032012063624",
    "title": "LITTLEMONK29032012063624",
    "link_img": "https://live.staticflickr.com/65535/49710287328_1c3a63f6c7_o.jpg",
    "id_image": "LITTLEMONK29032012063624",
    "count_view": 0
  },
  {
    "link_thumb": "https://live.staticflickr.com/65535/49623111612_2598b0db04_n.jpg",
    "id_album": "-316663319",
    "description": "KAWAII050320202183",
    "title": "KAWAII050320202183",
    "link_img": "https://live.staticflickr.com/65535/49623111612_bd0136d113_o.jpg",
    "id_image": "KAWAII050320202183",
    "count_view": 0
  },
  {
    "link_thumb": "https://live.staticflickr.com/65535/49694118476_3994733a26_n.jpg",
    "id_album": "1201366373",
    "description": "KAWAII170220235011",
    "title": "KAWAII170220235011",
    "link_img": "https://live.staticflickr.com/65535/49694118476_ec04766452_o.jpg",
    "id_image": "KAWAII170220235011",
    "count_view": 0
  },
  {
    "link_thumb": "https://live.staticflickr.com/65535/49693519748_a79a94be96_n.jpg",
    "id_album": "1699819648",
    "description": "KAWAII050320202114",
    "title": "KAWAII050320202114",
    "link_img": "https://live.staticflickr.com/65535/49693519748_72ea22ea0c_o.jpg",
    "id_image": "KAWAII050320202114",
    "count_view": 0
  },
  {
    "link_thumb": "https://live.staticflickr.com/65535/49622292623_9d30ed3033_n.jpg",
    "id_album": "-1432180061",
    "description": "KAWAII0503202021260",
    "title": "KAWAII0503202021260",
    "link_img": "https://live.staticflickr.com/65535/49622292623_f523661a1b_o.jpg",
    "id_image": "KAWAII0503202021260",
    "count_view": 0
  },
  {
    "link_thumb": "https://live.staticflickr.com/65535/49743253787_13d6aba4d4_n.jpg",
    "id_album": "-316663319",
    "description": "KAWAII06042021491559",
    "title": "KAWAII06042021491559",
    "link_img": "https://live.staticflickr.com/65535/49743253787_9168c4f110_o.jpg",
    "id_image": "KAWAII06042021491559",
    "count_view": 0
  },
  {
    "link_thumb": "https://live.staticflickr.com/65535/49694090886_f5a8983a5b_n.jpg",
    "id_album": "1201366373",
    "description": "KAWAII120918207",
    "title": "KAWAII120918207",
    "link_img": "https://live.staticflickr.com/65535/49694090886_f2d6594686_o.jpg",
    "id_image": "KAWAII120918207",
    "count_view": 0
  },
  {
    "link_thumb": "https://live.staticflickr.com/65535/49727739842_08815b2b29_n.jpg",
    "id_album": "-1694302085",
    "description": "KAWAII02042019450876",
    "title": "KAWAII02042019450876",
    "link_img": "https://live.staticflickr.com/65535/49727739842_d9ba38723e_o.jpg",
    "id_image": "KAWAII02042019450876",
    "count_view": 0
  },
  {
    "link_thumb": "https://live.staticflickr.com/65535/49726927733_79a9a57a30_n.jpg",
    "id_album": "1563362783",
    "description": "KAWAII1702202238460",
    "title": "KAWAII1702202238460",
    "link_img": "https://live.staticflickr.com/65535/49726927733_12ced5ec71_o.jpg",
    "id_image": "KAWAII1702202238460",
    "count_view": 0
  },
  {
    "link_thumb": "https://live.staticflickr.com/65535/49743282142_8e84ab67ca_n.jpg",
    "id_album": "1226948986",
    "description": "KAWAII060420214918282",
    "title": "KAWAII060420214918282",
    "link_img": "https://live.staticflickr.com/65535/49743282142_79a1d411eb_o.jpg",
    "id_image": "KAWAII060420214918282",
    "count_view": 0
  },
  {
    "link_thumb": "https://live.staticflickr.com/65535/49622316283_db9e9926f0_n.jpg",
    "id_album": "-316663319",
    "description": "KAWAII05032020213",
    "title": "KAWAII05032020213",
    "link_img": "https://live.staticflickr.com/65535/49622316283_31fda07e1c_o.jpg",
    "id_image": "KAWAII05032020213",
    "count_view": 0
  },
  {
    "link_thumb": "https://live.staticflickr.com/65535/49726896703_ea1a338b48_n.jpg",
    "id_album": "742877173",
    "description": "KAWAII020420194509264",
    "title": "KAWAII020420194509264",
    "link_img": "https://live.staticflickr.com/65535/49726896703_b1eb5aea93_o.jpg",
    "id_image": "KAWAII020420194509264",
    "count_view": 0
  },
  {
    "link_thumb": "https://live.staticflickr.com/65535/49693571358_8e09d12fdf_n.jpg",
    "id_album": "1201366373",
    "description": "KAWAII1702202239530",
    "title": "KAWAII1702202239530",
    "link_img": "https://live.staticflickr.com/65535/49693571358_19ac9b5d03_o.jpg",
    "id_image": "KAWAII1702202239530",
    "count_view": 0
  },
  {
    "link_thumb": "https://live.staticflickr.com/65535/49742946911_554a53ee30_n.jpg",
    "id_album": "1396902986",
    "description": "KAWAII06042021491181",
    "title": "KAWAII06042021491181",
    "link_img": "https://live.staticflickr.com/65535/49742946911_fa5d7f719b_o.jpg",
    "id_image": "KAWAII06042021491181",
    "count_view": 0
  },
  {
    "link_thumb": "https://live.staticflickr.com/65535/49548681796_a26cc947ba_n.jpg",
    "id_album": "-422187261",
    "description": "KAWAII1702202236299",
    "title": "KAWAII1702202236299",
    "link_img": "https://live.staticflickr.com/65535/49548681796_cb8451079e_o.jpg",
    "id_image": "KAWAII1702202236299",
    "count_view": 0
  },
  {
    "link_thumb": "https://live.staticflickr.com/65535/49548850277_1b92a73686_n.jpg",
    "id_album": "-1431786825",
    "description": "KAWAII170220223311",
    "title": "KAWAII170220223311",
    "link_img": "https://live.staticflickr.com/65535/49548850277_812817c5c4_o.jpg",
    "id_image": "KAWAII170220223311",
    "count_view": 0
  },
  {
    "link_thumb": "https://live.staticflickr.com/65535/49694217036_df3cfa0601_n.jpg",
    "id_album": "-1741487325",
    "description": "KAWAII1702202239533",
    "title": "KAWAII1702202239533",
    "link_img": "https://live.staticflickr.com/65535/49694217036_282e1f4953_o.jpg",
    "id_image": "KAWAII1702202239533",
    "count_view": 0
  },
  {
    "link_thumb": "https://live.staticflickr.com/65535/49548577646_2773c3c0fa_n.jpg",
    "id_album": "-316663319",
    "description": "KAWAII120918245",
    "title": "KAWAII120918245",
    "link_img": "https://live.staticflickr.com/65535/49548577646_e55c07aff1_o.jpg",
    "id_image": "KAWAII120918245",
    "count_view": 0
  },
  {
    "link_thumb": "https://live.staticflickr.com/65535/49694524137_b80953ce00_n.jpg",
    "id_album": "-1432180061",
    "description": "KAWAII12091838",
    "title": "KAWAII12091838",
    "link_img": "https://live.staticflickr.com/65535/49694524137_9730271caf_o.jpg",
    "id_image": "KAWAII12091838",
    "count_view": 0
  },
  {
    "link_thumb": "https://live.staticflickr.com/65535/49693577613_5c37370496_n.jpg",
    "id_album": "-643980979",
    "description": "KAWAII19022021115",
    "title": "KAWAII19022021115",
    "link_img": "https://live.staticflickr.com/65535/49693577613_4c43e8a7ea_o.jpg",
    "id_image": "KAWAII19022021115",
    "count_view": 0
  },
  {
    "link_thumb": "https://live.staticflickr.com/65535/49727452801_b9eb6a96fd_n.jpg",
    "id_album": "742877173",
    "description": "KAWAII02042019451424",
    "title": "KAWAII02042019451424",
    "link_img": "https://live.staticflickr.com/65535/49727452801_8e28368279_o.jpg",
    "id_image": "KAWAII02042019451424",
    "count_view": 0
  },
  {
    "link_thumb": "https://live.staticflickr.com/65535/49727426016_3ea6756eb8_n.jpg",
    "id_album": "-1694302085",
    "description": "KAWAII02042019451159",
    "title": "KAWAII02042019451159",
    "link_img": "https://live.staticflickr.com/65535/49727426016_645aebf6ea_o.jpg",
    "id_image": "KAWAII02042019451159",
    "count_view": 0
  },
  {
    "link_thumb": "https://live.staticflickr.com/65535/49548630381_63d31e5726_n.jpg",
    "id_album": "-1432180061",
    "description": "KAWAII1702202234106",
    "title": "KAWAII1702202234106",
    "link_img": "https://live.staticflickr.com/65535/49548630381_ede726d8da_o.jpg",
    "id_image": "KAWAII1702202234106",
    "count_view": 0
  },
  {
    "link_thumb": "https://live.staticflickr.com/65535/49624019673_61024febde_n.jpg",
    "id_album": "-422187261",
    "description": "KAWAII0503202021102",
    "title": "KAWAII0503202021102",
    "link_img": "https://live.staticflickr.com/65535/49624019673_b65557323c_o.jpg",
    "id_image": "KAWAII0503202021102",
    "count_view": 0
  },
  {
    "link_thumb": "https://live.staticflickr.com/65535/49742921686_7245a4fb8a_n.jpg",
    "id_album": "-316663319",
    "description": "KAWAII060420214912232",
    "title": "KAWAII060420214912232",
    "link_img": "https://live.staticflickr.com/65535/49742921686_db426d9638_o.jpg",
    "id_image": "KAWAII060420214912232",
    "count_view": 0
  },
  {
    "link_thumb": "https://live.staticflickr.com/65535/49742951096_c5610f8f40_n.jpg",
    "id_album": "-1862561193",
    "description": "KAWAII060420214914262",
    "title": "KAWAII060420214914262",
    "link_img": "https://live.staticflickr.com/65535/49742951096_d7594f5e94_o.jpg",
    "id_image": "KAWAII060420214914262",
    "count_view": 0
  },
  {
    "link_thumb": "https://live.staticflickr.com/65535/49694532017_2f599c40e0_n.jpg",
    "id_album": "1226948986",
    "description": "KAWAII24032022050237",
    "title": "KAWAII24032022050237",
    "link_img": "https://live.staticflickr.com/65535/49694532017_1504776f2b_o.jpg",
    "id_image": "KAWAII24032022050237",
    "count_view": 0
  },
  {
    "link_thumb": "https://live.staticflickr.com/65535/49548208343_1835ca9b10_n.jpg",
    "id_album": "431597977",
    "description": "KAWAII1702202238413",
    "title": "KAWAII1702202238413",
    "link_img": "https://live.staticflickr.com/65535/49548208343_ee01e69020_o.jpg",
    "id_image": "KAWAII1702202238413",
    "count_view": 0
  },
  {
    "link_thumb": "https://live.staticflickr.com/65535/49548836412_02acd675ab_n.jpg",
    "id_album": "-1741487325",
    "description": "KAWAII120918376",
    "title": "KAWAII120918376",
    "link_img": "https://live.staticflickr.com/65535/49548836412_e605c89512_o.jpg",
    "id_image": "KAWAII120918376",
    "count_view": 0
  },
  {
    "link_thumb": "https://live.staticflickr.com/65535/49742353083_658b28ed17_n.jpg",
    "id_album": "-1913845949",
    "description": "KAWAII060420214912234",
    "title": "KAWAII060420214912234",
    "link_img": "https://live.staticflickr.com/65535/49742353083_68c7682cd6_o.jpg",
    "id_image": "KAWAII060420214912234",
    "count_view": 0
  },
  {
    "link_thumb": "https://live.staticflickr.com/65535/49548883037_90f47a531b_n.jpg",
    "id_album": "-1099943053",
    "description": "KAWAII1702202235167",
    "title": "KAWAII1702202235167",
    "link_img": "https://live.staticflickr.com/65535/49548883037_5000aae354_o.jpg",
    "id_image": "KAWAII1702202235167",
    "count_view": 0
  },
  {
    "link_thumb": "https://live.staticflickr.com/65535/49623072437_5d592690ea_n.jpg",
    "id_album": "1396902986",
    "description": "KAWAII0503202021182",
    "title": "KAWAII0503202021182",
    "link_img": "https://live.staticflickr.com/65535/49623072437_ed50980cd8_o.jpg",
    "id_image": "KAWAII0503202021182",
    "count_view": 0
  },
  {
    "link_thumb": "https://live.staticflickr.com/65535/49694216831_3fed509938_n.jpg",
    "id_album": "-1741487325",
    "description": "KAWAII1702202234110",
    "title": "KAWAII1702202234110",
    "link_img": "https://live.staticflickr.com/65535/49694216831_f93740519b_o.jpg",
    "id_image": "KAWAII1702202234110",
    "count_view": 0
  },
  {
    "link_thumb": "https://live.staticflickr.com/65535/49726916968_cf41131008_n.jpg",
    "id_album": "1396902986",
    "description": "KAWAII02042019450862",
    "title": "KAWAII02042019450862",
    "link_img": "https://live.staticflickr.com/65535/49726916968_406629827f_o.jpg",
    "id_image": "KAWAII02042019450862",
    "count_view": 0
  },
  {
    "link_thumb": "https://live.staticflickr.com/65535/49727765507_72ed327b7e_n.jpg",
    "id_album": "742877173",
    "description": "KAWAII020420194513228",
    "title": "KAWAII020420194513228",
    "link_img": "https://live.staticflickr.com/65535/49727765507_ef2e736a73_o.jpg",
    "id_image": "KAWAII020420194513228",
    "count_view": 0
  },
  {
    "link_thumb": "https://live.staticflickr.com/65535/49548884902_c9ea1d67e8_n.jpg",
    "id_album": "-422187261",
    "description": "KAWAII1702202235175",
    "title": "KAWAII1702202235175",
    "link_img": "https://live.staticflickr.com/65535/49548884902_f126b3f549_o.jpg",
    "id_image": "KAWAII1702202235175",
    "count_view": 0
  },
  {
    "link_thumb": "https://live.staticflickr.com/65535/49622287383_fc159ea83c_n.jpg",
    "id_album": "1396902986",
    "description": "KAWAII0503202021250",
    "title": "KAWAII0503202021250",
    "link_img": "https://live.staticflickr.com/65535/49622287383_a1edc87a33_o.jpg",
    "id_image": "KAWAII0503202021250",
    "count_view": 0
  },
  {
    "link_thumb": "https://live.staticflickr.com/65535/49742386353_169a844989_n.jpg",
    "id_album": "416744915",
    "description": "KAWAII060420214912114",
    "title": "KAWAII060420214912114",
    "link_img": "https://live.staticflickr.com/65535/49742386353_22d395e5c6_o.jpg",
    "id_image": "KAWAII060420214912114",
    "count_view": 0
  },
  {
    "link_thumb": "https://live.staticflickr.com/65535/49592210588_349e58581a_n.jpg",
    "id_album": "-316663319",
    "description": "KAWAII2702202351107",
    "title": "KAWAII2702202351107",
    "link_img": "https://live.staticflickr.com/65535/49592210588_7a766ca9b7_o.jpg",
    "id_image": "KAWAII2702202351107",
    "count_view": 0
  },
  {
    "link_thumb": "https://live.staticflickr.com/65535/49742939091_f985427249_n.jpg",
    "id_album": "-1473448477",
    "description": "KAWAII06042021491534",
    "title": "KAWAII06042021491534",
    "link_img": "https://live.staticflickr.com/65535/49742939091_c33b080428_o.jpg",
    "id_image": "KAWAII06042021491534",
    "count_view": 0
  },
  {
    "link_thumb": "https://live.staticflickr.com/65535/49548749751_e3fb6bdb31_n.jpg",
    "id_album": "-1099943053",
    "description": "KAWAII1702202239570",
    "title": "KAWAII1702202239570",
    "link_img": "https://live.staticflickr.com/65535/49548749751_d4c5b2a160_o.jpg",
    "id_image": "KAWAII1702202239570",
    "count_view": 0
  },
  {
    "link_thumb": "https://live.staticflickr.com/65535/49548775137_a598aa735d_n.jpg",
    "id_album": "-1741487325",
    "description": "KAWAII120918117",
    "title": "KAWAII120918117",
    "link_img": "https://live.staticflickr.com/65535/49548775137_6eceb08f83_o.jpg",
    "id_image": "KAWAII120918117",
    "count_view": 0
  },
  {
    "link_thumb": "https://live.staticflickr.com/65535/49727439176_c706ab0e38_n.jpg",
    "id_album": "-316663319",
    "description": "KAWAII020420194511234",
    "title": "KAWAII020420194511234",
    "link_img": "https://live.staticflickr.com/65535/49727439176_2b557b3b19_o.jpg",
    "id_image": "KAWAII020420194511234",
    "count_view": 0
  },
  {
    "link_thumb": "https://live.staticflickr.com/65535/49727790152_4604c02690_n.jpg",
    "id_album": "431597977",
    "description": "KAWAII020420194511191",
    "title": "KAWAII020420194511191",
    "link_img": "https://live.staticflickr.com/65535/49727790152_d4f0cd4654_o.jpg",
    "id_image": "KAWAII020420194511191",
    "count_view": 0
  },
  {
    "link_thumb": "https://live.staticflickr.com/65535/49727441211_3a0d701017_n.jpg",
    "id_album": "742877173",
    "description": "KAWAII020420194508105",
    "title": "KAWAII020420194508105",
    "link_img": "https://live.staticflickr.com/65535/49727441211_8f9d2e417f_o.jpg",
    "id_image": "KAWAII020420194508105",
    "count_view": 0
  },
  {
    "link_thumb": "https://live.staticflickr.com/65535/49726881418_509f5f6476_n.jpg",
    "id_album": "-1741487325",
    "description": "KAWAII020420194510179",
    "title": "KAWAII020420194510179",
    "link_img": "https://live.staticflickr.com/65535/49726881418_330db12473_o.jpg",
    "id_image": "KAWAII020420194510179",
    "count_view": 0
  },
  {
    "link_thumb": "https://live.staticflickr.com/65535/49548201338_7fa2cfc8d3_n.jpg",
    "id_album": "-422187261",
    "description": "KAWAII1702202237387",
    "title": "KAWAII1702202237387",
    "link_img": "https://live.staticflickr.com/65535/49548201338_c4b642fe47_o.jpg",
    "id_image": "KAWAII1702202237387",
    "count_view": 0
  },
  {
    "link_thumb": "https://live.staticflickr.com/65535/49727454391_11052785bf_n.jpg",
    "id_album": "1201366373",
    "description": "KAWAII120918294",
    "title": "KAWAII120918294",
    "link_img": "https://live.staticflickr.com/65535/49727454391_85b7ebafec_o.jpg",
    "id_image": "KAWAII120918294",
    "count_view": 0
  },
  {
    "link_thumb": "https://live.staticflickr.com/65535/49727433661_9a7b17c68b_n.jpg",
    "id_album": "-1497779911",
    "description": "KAWAII120918274",
    "title": "KAWAII120918274",
    "link_img": "https://live.staticflickr.com/65535/49727433661_6a4aa19005_o.jpg",
    "id_image": "KAWAII120918274",
    "count_view": 0
  },
  {
    "link_thumb": "https://live.staticflickr.com/65535/49693534803_6fd2b6ce19_n.jpg",
    "id_album": "-643980979",
    "description": "KAWAII050320202181",
    "title": "KAWAII050320202181",
    "link_img": "https://live.staticflickr.com/65535/49693534803_d4a668e179_o.jpg",
    "id_image": "KAWAII050320202181",
    "count_view": 0
  },
  {
    "link_thumb": "https://live.staticflickr.com/65535/49622836806_915fa269a6_n.jpg",
    "id_album": "-316663319",
    "description": "KAWAII050320202140",
    "title": "KAWAII050320202140",
    "link_img": "https://live.staticflickr.com/65535/49622836806_a70cf95061_o.jpg",
    "id_image": "KAWAII050320202140",
    "count_view": 0
  },
  {
    "link_thumb": "https://live.staticflickr.com/65535/49548167628_cfc542d609_n.jpg",
    "id_album": "-422187261",
    "description": "KAWAII1702202236230",
    "title": "KAWAII1702202236230",
    "link_img": "https://live.staticflickr.com/65535/49548167628_6a59b842d8_o.jpg",
    "id_image": "KAWAII1702202236230",
    "count_view": 0
  },
  {
    "link_thumb": "https://live.staticflickr.com/65535/49727446571_6d5ef95546_n.jpg",
    "id_album": "742877173",
    "description": "KAWAII020420194510178",
    "title": "KAWAII020420194510178",
    "link_img": "https://live.staticflickr.com/65535/49727446571_1345738e04_o.jpg",
    "id_image": "KAWAII020420194510178",
    "count_view": 0
  },
  {
    "link_thumb": "https://live.staticflickr.com/65535/49742934526_c63d1f7c1c_n.jpg",
    "id_album": "-1473448477",
    "description": "KAWAII060420214915112",
    "title": "KAWAII060420214915112",
    "link_img": "https://live.staticflickr.com/65535/49742934526_e387f14521_o.jpg",
    "id_image": "KAWAII060420214915112",
    "count_view": 0
  },
  {
    "link_thumb": "https://live.staticflickr.com/65535/49622331253_409fec308c_n.jpg",
    "id_album": "-406350429",
    "description": "KAWAII0503202021251",
    "title": "KAWAII0503202021251",
    "link_img": "https://live.staticflickr.com/65535/49622331253_957a9a1d10_o.jpg",
    "id_image": "KAWAII0503202021251",
    "count_view": 0
  },
  {
    "link_thumb": "https://live.staticflickr.com/65535/49743261052_4b69c702e4_n.jpg",
    "id_album": "-1473448477",
    "description": "KAWAII06042021491524",
    "title": "KAWAII06042021491524",
    "link_img": "https://live.staticflickr.com/65535/49743261052_51fa3db42d_o.jpg",
    "id_image": "KAWAII06042021491524",
    "count_view": 0
  },
  {
    "link_thumb": "https://live.staticflickr.com/65535/49623079777_c5da71f73d_n.jpg",
    "id_album": "-1741487325",
    "description": "KAWAII0503202021216",
    "title": "KAWAII0503202021216",
    "link_img": "https://live.staticflickr.com/65535/49623079777_f2c7484f34_o.jpg",
    "id_image": "KAWAII0503202021216",
    "count_view": 0
  },
  {
    "link_thumb": "https://live.staticflickr.com/65535/49743262177_b32b106415_n.jpg",
    "id_album": "-1473448477",
    "description": "KAWAII06042021491528",
    "title": "KAWAII06042021491528",
    "link_img": "https://live.staticflickr.com/65535/49743262177_5c9f2f0140_o.jpg",
    "id_image": "KAWAII06042021491528",
    "count_view": 0
  },
  {
    "link_thumb": "https://live.staticflickr.com/65535/49726903528_9e8c3e7d87_n.jpg",
    "id_album": "742877173",
    "description": "KAWAII020420194513147",
    "title": "KAWAII020420194513147",
    "link_img": "https://live.staticflickr.com/65535/49726903528_b8cbc37f56_o.jpg",
    "id_image": "KAWAII020420194513147",
    "count_view": 0
  },
  {
    "link_thumb": "https://live.staticflickr.com/65535/49622325243_66ae261293_n.jpg",
    "id_album": "-316663319",
    "description": "KAWAII050320202191",
    "title": "KAWAII050320202191",
    "link_img": "https://live.staticflickr.com/65535/49622325243_6b33b0da10_o.jpg",
    "id_image": "KAWAII050320202191",
    "count_view": 0
  },
  {
    "link_thumb": "https://live.staticflickr.com/65535/49727781257_ec3d442756_n.jpg",
    "id_album": "-1862561193",
    "description": "KAWAII020420194509212",
    "title": "KAWAII020420194509212",
    "link_img": "https://live.staticflickr.com/65535/49727781257_cd45f4ed66_o.jpg",
    "id_image": "KAWAII020420194509212",
    "count_view": 0
  },
  {
    "link_thumb": "https://live.staticflickr.com/65535/49548909097_e93dfa93f2_n.jpg",
    "id_album": "1396902986",
    "description": "KAWAII1702202236297",
    "title": "KAWAII1702202236297",
    "link_img": "https://live.staticflickr.com/65535/49548909097_066e855a1f_o.jpg",
    "id_image": "KAWAII1702202236297",
    "count_view": 0
  },
  {
    "link_thumb": "https://live.staticflickr.com/65535/49694227926_f1cd878911_n.jpg",
    "id_album": "1226948986",
    "description": "KAWAII24032022050226",
    "title": "KAWAII24032022050226",
    "link_img": "https://live.staticflickr.com/65535/49694227926_69285a2df3_o.jpg",
    "id_image": "KAWAII24032022050226",
    "count_view": 0
  },
  {
    "link_thumb": "https://live.staticflickr.com/65535/49548588306_49c128b1de_n.jpg",
    "id_album": "-316663319",
    "description": "KAWAII120918293",
    "title": "KAWAII120918293",
    "link_img": "https://live.staticflickr.com/65535/49548588306_9ec38513ff_o.jpg",
    "id_image": "KAWAII120918293",
    "count_view": 0
  },
  {
    "link_thumb": "https://live.staticflickr.com/65535/49742409188_22e72030a2_n.jpg",
    "id_album": "-1431786825",
    "description": "KAWAII060420214917183",
    "title": "KAWAII060420214917183",
    "link_img": "https://live.staticflickr.com/65535/49742409188_e13fbcc783_o.jpg",
    "id_image": "KAWAII060420214917183",
    "count_view": 0
  },
  {
    "link_thumb": "https://live.staticflickr.com/65535/49727435321_745f69d1d7_n.jpg",
    "id_album": "-1497779911",
    "description": "KAWAII17091851",
    "title": "KAWAII17091851",
    "link_img": "https://live.staticflickr.com/65535/49727435321_421dab3039_o.jpg",
    "id_image": "KAWAII17091851",
    "count_view": 0
  },
  {
    "link_thumb": "https://live.staticflickr.com/65535/49622800506_09fc9b0002_n.jpg",
    "id_album": "1396902986",
    "description": "KAWAII0503202021183",
    "title": "KAWAII0503202021183",
    "link_img": "https://live.staticflickr.com/65535/49622800506_077a2f79f3_o.jpg",
    "id_image": "KAWAII0503202021183",
    "count_view": 0
  },
  {
    "link_thumb": "https://live.staticflickr.com/65535/49548855947_8c9910ab67_n.jpg",
    "id_album": "-422187261",
    "description": "KAWAII17022022334",
    "title": "KAWAII17022022334",
    "link_img": "https://live.staticflickr.com/65535/49548855947_5c2e8a1189_o.jpg",
    "id_image": "KAWAII17022022334",
    "count_view": 0
  },
  {
    "link_thumb": "https://live.staticflickr.com/65535/49548771772_cbd24e262d_n.jpg",
    "id_album": "-1432180061",
    "description": "KAWAII120918102",
    "title": "KAWAII120918102",
    "link_img": "https://live.staticflickr.com/65535/49548771772_8fa695a0dc_o.jpg",
    "id_image": "KAWAII120918102",
    "count_view": 0
  },
  {
    "link_thumb": "https://live.staticflickr.com/65535/49623089307_f6b25ddc91_n.jpg",
    "id_album": "-316663319",
    "description": "KAWAII0503202021131",
    "title": "KAWAII0503202021131",
    "link_img": "https://live.staticflickr.com/65535/49623089307_d57af9517b_o.jpg",
    "id_image": "KAWAII0503202021131",
    "count_view": 0
  },
  {
    "link_thumb": "https://live.staticflickr.com/65535/49727749397_d14c03d1d7_n.jpg",
    "id_album": "-1497779911",
    "description": "KAWAII1702202239535",
    "title": "KAWAII1702202239535",
    "link_img": "https://live.staticflickr.com/65535/49727749397_2315de8422_o.jpg",
    "id_image": "KAWAII1702202239535",
    "count_view": 0
  },
  {
    "link_thumb": "https://live.staticflickr.com/65535/49548862102_8b2351b5b6_n.jpg",
    "id_album": "-1099943053",
    "description": "KAWAII170220223442",
    "title": "KAWAII170220223442",
    "link_img": "https://live.staticflickr.com/65535/49548862102_248811aa32_o.jpg",
    "id_image": "KAWAII170220223442",
    "count_view": 0
  },
  {
    "link_thumb": "https://live.staticflickr.com/65535/49578979767_e6d2afdbf8_n.jpg",
    "id_album": "-1099943053",
    "description": "KAWAII190220211128",
    "title": "KAWAII190220211128",
    "link_img": "https://live.staticflickr.com/65535/49578979767_dd095c1211_o.jpg",
    "id_image": "KAWAII190220211128",
    "count_view": 0
  },
  {
    "link_thumb": "https://live.staticflickr.com/65535/49592972637_358cb55a37_n.jpg",
    "id_album": "949200594",
    "description": "KAWAII2702202351128",
    "title": "KAWAII2702202351128",
    "link_img": "https://live.staticflickr.com/65535/49592972637_7ece88f9a7_o.jpg",
    "id_image": "KAWAII2702202351128",
    "count_view": 0
  },
  {
    "link_thumb": "https://live.staticflickr.com/65535/49548102943_1427b14e8f_n.jpg",
    "id_album": "-1741487325",
    "description": "KAWAII12091836",
    "title": "KAWAII12091836",
    "link_img": "https://live.staticflickr.com/65535/49548102943_505ac71255_o.jpg",
    "id_image": "KAWAII12091836",
    "count_view": 0
  },
  {
    "link_thumb": "https://live.staticflickr.com/65535/49548896447_10611e9e0e_n.jpg",
    "id_album": "-316663319",
    "description": "KAWAII1702202236231",
    "title": "KAWAII1702202236231",
    "link_img": "https://live.staticflickr.com/65535/49548896447_e20532dd12_o.jpg",
    "id_image": "KAWAII1702202236231",
    "count_view": 0
  },
  {
    "link_thumb": "https://live.staticflickr.com/65535/49743244182_a033f0a672_n.jpg",
    "id_album": "-316663319",
    "description": "KAWAII060420214912107",
    "title": "KAWAII060420214912107",
    "link_img": "https://live.staticflickr.com/65535/49743244182_71f8f98f08_o.jpg",
    "id_image": "KAWAII060420214912107",
    "count_view": 0
  },
  {
    "link_thumb": "https://live.staticflickr.com/65535/49548781432_bbf23e809a_n.jpg",
    "id_album": "-316663319",
    "description": "KAWAII12091814",
    "title": "KAWAII12091814",
    "link_img": "https://live.staticflickr.com/65535/49548781432_02ef9ac37d_o.jpg",
    "id_image": "KAWAII12091814",
    "count_view": 0
  },
  {
    "link_thumb": "https://live.staticflickr.com/65535/49548842097_f9d9253afd_n.jpg",
    "id_album": "-422187261",
    "description": "KAWAII12091862",
    "title": "KAWAII12091862",
    "link_img": "https://live.staticflickr.com/65535/49548842097_3395c1e152_o.jpg",
    "id_image": "KAWAII12091862",
    "count_view": 0
  },
  {
    "link_thumb": "https://live.staticflickr.com/65535/49622840081_e373bc4bf9_n.jpg",
    "id_album": "-1694302085",
    "description": "KAWAII050320202197",
    "title": "KAWAII050320202197",
    "link_img": "https://live.staticflickr.com/65535/49622840081_3138ee4372_o.jpg",
    "id_image": "KAWAII050320202197",
    "count_view": 0
  },
  {
    "link_thumb": "https://live.staticflickr.com/65535/49694428222_2c96ddc16f_n.jpg",
    "id_album": "-358592519",
    "description": "KAWAII1702202237329",
    "title": "KAWAII1702202237329",
    "link_img": "https://live.staticflickr.com/65535/49694428222_2f534c562f_o.jpg",
    "id_image": "KAWAII1702202237329",
    "count_view": 0
  },
  {
    "link_thumb": "https://live.staticflickr.com/65535/49694388992_a614bef23a_n.jpg",
    "id_album": "1201366373",
    "description": "KAWAII120918168",
    "title": "KAWAII120918168",
    "link_img": "https://live.staticflickr.com/65535/49694388992_28366d1188_o.jpg",
    "id_image": "KAWAII120918168",
    "count_view": 0
  },
  {
    "link_thumb": "https://live.staticflickr.com/65535/49548790307_e864ed324a_n.jpg",
    "id_album": "-1694302085",
    "description": "KAWAII120918179",
    "title": "KAWAII120918179",
    "link_img": "https://live.staticflickr.com/65535/49548790307_eb18fbb7fa_o.jpg",
    "id_image": "KAWAII120918179",
    "count_view": 0
  },
  {
    "link_thumb": "https://live.staticflickr.com/65535/49622305398_fc6c1afdd2_n.jpg",
    "id_album": "-316663319",
    "description": "KAWAII0503202021184",
    "title": "KAWAII0503202021184",
    "link_img": "https://live.staticflickr.com/65535/49622305398_db7491fa16_o.jpg",
    "id_image": "KAWAII0503202021184",
    "count_view": 0
  },
  {
    "link_thumb": "https://live.staticflickr.com/65535/49693556048_0c840bf754_n.jpg",
    "id_album": "1201366373",
    "description": "KAWAII120918284",
    "title": "KAWAII120918284",
    "link_img": "https://live.staticflickr.com/65535/49693556048_4db1d42147_o.jpg",
    "id_image": "KAWAII120918284",
    "count_view": 0
  },
  {
    "link_thumb": "https://live.staticflickr.com/65535/49693563548_d1c224b6c8_n.jpg",
    "id_album": "-643980979",
    "description": "KAWAII1702202234115",
    "title": "KAWAII1702202234115",
    "link_img": "https://live.staticflickr.com/65535/49693563548_740cbf81fc_o.jpg",
    "id_image": "KAWAII1702202234115",
    "count_view": 0
  },
  {
    "link_thumb": "https://live.staticflickr.com/65535/49742391893_6894f631d5_n.jpg",
    "id_album": "-1473448477",
    "description": "KAWAII06042021491552",
    "title": "KAWAII06042021491552",
    "link_img": "https://live.staticflickr.com/65535/49742391893_ff3e5c6439_o.jpg",
    "id_image": "KAWAII06042021491552",
    "count_view": 0
  },
  {
    "link_thumb": "https://live.staticflickr.com/65535/49727738072_e0b319797c_n.jpg",
    "id_album": "-1694302085",
    "description": "KAWAII020420194508100",
    "title": "KAWAII020420194508100",
    "link_img": "https://live.staticflickr.com/65535/49727738072_5cb5e421e0_o.jpg",
    "id_image": "KAWAII020420194508100",
    "count_view": 0
  },
  {
    "link_thumb": "https://live.staticflickr.com/65535/49552024763_75a99fa3fd_n.jpg",
    "id_album": "-1694302085",
    "description": "KAWAII12091825180220205942",
    "title": "KAWAII12091825180220205942",
    "link_img": "https://live.staticflickr.com/65535/49552024763_47e05f1f5f_o.jpg",
    "id_image": "KAWAII12091825180220205942",
    "count_view": 0
  },
  {
    "link_thumb": "https://live.staticflickr.com/65535/49548709421_895991a160_n.jpg",
    "id_album": "-1431786825",
    "description": "KAWAII1702202238414",
    "title": "KAWAII1702202238414",
    "link_img": "https://live.staticflickr.com/65535/49548709421_143b10f046_o.jpg",
    "id_image": "KAWAII1702202238414",
    "count_view": 0
  },
  {
    "link_thumb": "https://live.staticflickr.com/65535/49694383902_e184555f6d_n.jpg",
    "id_album": "1201366373",
    "description": "KAWAII120918112",
    "title": "KAWAII120918112",
    "link_img": "https://live.staticflickr.com/65535/49694383902_d7f702fe16_o.jpg",
    "id_image": "KAWAII120918112",
    "count_view": 0
  },
  {
    "link_thumb": "https://live.staticflickr.com/65535/49548582101_8411607161_n.jpg",
    "id_album": "-1741487325",
    "description": "KAWAII120918266",
    "title": "KAWAII120918266",
    "link_img": "https://live.staticflickr.com/65535/49548582101_4076cf9316_o.jpg",
    "id_image": "KAWAII120918266",
    "count_view": 0
  },
  {
    "link_thumb": "https://live.staticflickr.com/65535/49622317388_d2ecc4cbfe_n.jpg",
    "id_album": "-316663319",
    "description": "KAWAII0503202021307",
    "title": "KAWAII0503202021307",
    "link_img": "https://live.staticflickr.com/65535/49622317388_f116ac2f51_o.jpg",
    "id_image": "KAWAII0503202021307",
    "count_view": 0
  },
  {
    "link_thumb": "https://live.staticflickr.com/65535/49548819262_0081057c24_n.jpg",
    "id_album": "-316663319",
    "description": "KAWAII120918307",
    "title": "KAWAII120918307",
    "link_img": "https://live.staticflickr.com/65535/49548819262_2eea310c23_o.jpg",
    "id_image": "KAWAII120918307",
    "count_view": 0
  },
  {
    "link_thumb": "https://live.staticflickr.com/65535/49592732326_ec544b524b_n.jpg",
    "id_album": "949200594",
    "description": "KAWAII27022023513",
    "title": "KAWAII27022023513",
    "link_img": "https://live.staticflickr.com/65535/49592732326_5d44a7d439_o.jpg",
    "id_image": "KAWAII27022023513",
    "count_view": 0
  },
  {
    "link_thumb": "https://live.staticflickr.com/65535/49742933406_ca2712e878_n.jpg",
    "id_album": "-316663319",
    "description": "KAWAII06042021491890",
    "title": "KAWAII06042021491890",
    "link_img": "https://live.staticflickr.com/65535/49742933406_7718feaedc_o.jpg",
    "id_image": "KAWAII06042021491890",
    "count_view": 0
  },
  {
    "link_thumb": "https://live.staticflickr.com/65535/49623075332_dbe0d6c0f1_n.jpg",
    "id_album": "1396902986",
    "description": "KAWAII0503202021275",
    "title": "KAWAII0503202021275",
    "link_img": "https://live.staticflickr.com/65535/49623075332_e5eafa7577_o.jpg",
    "id_image": "KAWAII0503202021275",
    "count_view": 0
  },
  {
    "link_thumb": "https://live.staticflickr.com/65535/49552759917_19b94a5bea_n.jpg",
    "id_album": "-316663319",
    "description": "KAWAII12091825180220205940",
    "title": "KAWAII12091825180220205940",
    "link_img": "https://live.staticflickr.com/65535/49552759917_c59a92f79d_o.jpg",
    "id_image": "KAWAII12091825180220205940",
    "count_view": 0
  },
  {
    "link_thumb": "https://live.staticflickr.com/65535/49552520441_084ea7f0c8_n.jpg",
    "id_album": "-1694302085",
    "description": "KAWAII12091825180220205935",
    "title": "KAWAII12091825180220205935",
    "link_img": "https://live.staticflickr.com/65535/49552520441_ca754aa233_o.jpg",
    "id_image": "KAWAII12091825180220205935",
    "count_view": 0
  }
]