[
  {
    "link_thumb": "https://live.staticflickr.com/65535/49694227926_f1cd878911_n.jpg",
    "id_album": "1226948986",
    "description": "KAWAII24032022050226",
    "title": "KAWAII24032022050226",
    "link_img": "https://live.staticflickr.com/65535/49694227926_69285a2df3_o.jpg",
    "id_image": "KAWAII24032022050226",
    "count_view": 0
  },
  {
    "link_thumb": "https://live.staticflickr.com/65535/49552755517_25b299252c_n.jpg",
    "id_album": "-1694302085",
    "description": "KAWAII1209182518022020591",
    "title": "KAWAII1209182518022020591",
    "link_img": "https://live.staticflickr.com/65535/49552755517_359822b8ec_o.jpg",
    "id_image": "KAWAII1209182518022020591",
    "count_view": 0
  },
  {
    "link_thumb": "https://live.staticflickr.com/65535/49548096168_960e4bf3a5_n.jpg",
    "id_album": "-1741487325",
    "description": "KAWAII120918331",
    "title": "KAWAII120918331",
    "link_img": "https://live.staticflickr.com/65535/49548096168_deab32ef86_o.jpg",
    "id_image": "KAWAII120918331",
    "count_view": 0
  },
  {
    "link_thumb": "https://live.staticflickr.com/65535/49694120846_2eac335fe5_n.jpg",
    "id_album": "-643980979",
    "description": "KAWAII2702202351112",
    "title": "KAWAII2702202351112",
    "link_img": "https://live.staticflickr.com/65535/49694120846_3ca1dfdfec_o.jpg",
    "id_image": "KAWAII2702202351112",
    "count_view": 0
  },
  {
    "link_thumb": "https://live.staticflickr.com/65535/49726895823_7197f25723_n.jpg",
    "id_album": "742877173",
    "description": "KAWAII02042019450860",
    "title": "KAWAII02042019450860",
    "link_img": "https://live.staticflickr.com/65535/49726895823_b23a068759_o.jpg",
    "id_image": "KAWAII02042019450860",
    "count_view": 0
  },
  {
    "link_thumb": "https://live.staticflickr.com/65535/49743229022_18f1dffec0_n.jpg",
    "id_album": "-1913845949",
    "description": "KAWAII060420214918319",
    "title": "KAWAII060420214918319",
    "link_img": "https://live.staticflickr.com/65535/49743229022_a755296381_o.jpg",
    "id_image": "KAWAII060420214918319",
    "count_view": 0
  },
  {
    "link_thumb": "https://live.staticflickr.com/65535/49726923168_2cf720de1d_n.jpg",
    "id_album": "-1862561193",
    "description": "KAWAII02042019451185",
    "title": "KAWAII02042019451185",
    "link_img": "https://live.staticflickr.com/65535/49726923168_c1d21a7780_o.jpg",
    "id_image": "KAWAII02042019451185",
    "count_view": 0
  },
  {
    "link_thumb": "https://live.staticflickr.com/65535/49548993842_31f2fe9d85_n.jpg",
    "id_album": "-316663319",
    "description": "KAWAII17091830",
    "title": "KAWAII17091830",
    "link_img": "https://live.staticflickr.com/65535/49548993842_bedaa88c15_o.jpg",
    "id_image": "KAWAII17091830",
    "count_view": 0
  },
  {
    "link_thumb": "https://live.staticflickr.com/65535/49742938901_507f0fb296_n.jpg",
    "id_album": "-1473448477",
    "description": "KAWAII060420214915300",
    "title": "KAWAII060420214915300",
    "link_img": "https://live.staticflickr.com/65535/49742938901_df0988c9a6_o.jpg",
    "id_image": "KAWAII060420214915300",
    "count_view": 0
  },
  {
    "link_thumb": "https://live.staticflickr.com/65535/49592215883_1d103b4fd3_n.jpg",
    "id_album": "-316663319",
    "description": "KAWAII27022023515",
    "title": "KAWAII27022023515",
    "link_img": "https://live.staticflickr.com/65535/49592215883_0251ac3dd4_o.jpg",
    "id_image": "KAWAII27022023515",
    "count_view": 0
  },
  {
    "link_thumb": "https://live.staticflickr.com/65535/49548610471_c6a9e5014f_n.jpg",
    "id_album": "-316663319",
    "description": "KAWAII12091843",
    "title": "KAWAII12091843",
    "link_img": "https://live.staticflickr.com/65535/49548610471_bf36fce83f_o.jpg",
    "id_image": "KAWAII12091843",
    "count_view": 0
  },
  {
    "link_thumb": "https://live.staticflickr.com/65535/49743231337_faba003991_n.jpg",
    "id_album": "-422187261",
    "description": "KAWAII0604202149149",
    "title": "KAWAII0604202149149",
    "link_img": "https://live.staticflickr.com/65535/49743231337_90355cc7f2_o.jpg",
    "id_image": "KAWAII0604202149149",
    "count_view": 0
  },
  {
    "link_thumb": "https://live.staticflickr.com/65535/49727434816_02b27db2b0_n.jpg",
    "id_album": "-1497779911",
    "description": "KAWAII1702202238476",
    "title": "KAWAII1702202238476",
    "link_img": "https://live.staticflickr.com/65535/49727434816_7c2163c581_o.jpg",
    "id_image": "KAWAII1702202238476",
    "count_view": 0
  },
  {
    "link_thumb": "https://live.staticflickr.com/65535/49710822201_b37f20b967_n.jpg",
    "id_album": "-1599896063",
    "description": "LITTLEMONK29032012063825",
    "title": "LITTLEMONK29032012063825",
    "link_img": "https://live.staticflickr.com/65535/49710822201_52701a78b2_o.jpg",
    "id_image": "LITTLEMONK29032012063825",
    "count_view": 0
  },
  {
    "link_thumb": "https://live.staticflickr.com/65535/49623079617_1afe6fdccf_n.jpg",
    "id_album": "-1741487325",
    "description": "KAWAII0503202021174",
    "title": "KAWAII0503202021174",
    "link_img": "https://live.staticflickr.com/65535/49623079617_de337d40a0_o.jpg",
    "id_image": "KAWAII0503202021174",
    "count_view": 0
  },
  {
    "link_thumb": "https://live.staticflickr.com/65535/49622282488_3d68eeeb21_n.jpg",
    "id_album": "-422187261",
    "description": "KAWAII05032020214",
    "title": "KAWAII05032020214",
    "link_img": "https://live.staticflickr.com/65535/49622282488_75d958fc73_o.jpg",
    "id_image": "KAWAII05032020214",
    "count_view": 0
  },
  {
    "link_thumb": "https://live.staticflickr.com/65535/49742916301_5761ab09ce_n.jpg",
    "id_album": "-643980979",
    "description": "KAWAII060420214913191",
    "title": "KAWAII060420214913191",
    "link_img": "https://live.staticflickr.com/65535/49742916301_681a230855_o.jpg",
    "id_image": "KAWAII060420214913191",
    "count_view": 0
  },
  {
    "link_thumb": "https://live.staticflickr.com/65535/49548274998_71e86743fb_n.jpg",
    "id_album": "-316663319",
    "description": "KAWAII17091859",
    "title": "KAWAII17091859",
    "link_img": "https://live.staticflickr.com/65535/49548274998_3834e0f3a6_o.jpg",
    "id_image": "KAWAII17091859",
    "count_view": 0
  },
  {
    "link_thumb": "https://live.staticflickr.com/65535/49694125311_154b517e69_n.jpg",
    "id_album": "-358592519",
    "description": "KAWAII1702202237314",
    "title": "KAWAII1702202237314",
    "link_img": "https://live.staticflickr.com/65535/49694125311_83b4919df8_o.jpg",
    "id_image": "KAWAII1702202237314",
    "count_view": 0
  },
  {
    "link_thumb": "https://live.staticflickr.com/65535/49694409247_2b7c1a4244_n.jpg",
    "id_album": "1201366373",
    "description": "KAWAII170220223438",
    "title": "KAWAII170220223438",
    "link_img": "https://live.staticflickr.com/65535/49694409247_68cb656fae_o.jpg",
    "id_image": "KAWAII170220223438",
    "count_view": 0
  },
  {
    "link_thumb": "https://live.staticflickr.com/65535/49742958826_9d73988b98_n.jpg",
    "id_album": "1226948986",
    "description": "KAWAII060420214918254",
    "title": "KAWAII060420214918254",
    "link_img": "https://live.staticflickr.com/65535/49742958826_454e3e0b10_o.jpg",
    "id_image": "KAWAII060420214918254",
    "count_view": 0
  },
  {
    "link_thumb": "https://live.staticflickr.com/65535/49726879053_ec7cb932f9_n.jpg",
    "id_album": "-1694302085",
    "description": "KAWAII0503202021222",
    "title": "KAWAII0503202021222",
    "link_img": "https://live.staticflickr.com/65535/49726879053_5ac34bdd7d_o.jpg",
    "id_image": "KAWAII0503202021222",
    "count_view": 0
  },
  {
    "link_thumb": "https://live.staticflickr.com/65535/49548771772_cbd24e262d_n.jpg",
    "id_album": "-1432180061",
    "description": "KAWAII120918102",
    "title": "KAWAII120918102",
    "link_img": "https://live.staticflickr.com/65535/49548771772_8fa695a0dc_o.jpg",
    "id_image": "KAWAII120918102",
    "count_view": 0
  },
  {
    "link_thumb": "https://live.staticflickr.com/65535/49742394333_248e9fd4df_n.jpg",
    "id_album": "-1473448477",
    "description": "KAWAII06042021491769",
    "title": "KAWAII06042021491769",
    "link_img": "https://live.staticflickr.com/65535/49742394333_6a2ae180b8_o.jpg",
    "id_image": "KAWAII06042021491769",
    "count_view": 0
  },
  {
    "link_thumb": "https://live.staticflickr.com/65535/49548904132_d7952a7245_n.jpg",
    "id_album": "-1432180061",
    "description": "KAWAII1702202236274",
    "title": "KAWAII1702202236274",
    "link_img": "https://live.staticflickr.com/65535/49548904132_0e885dabcf_o.jpg",
    "id_image": "KAWAII1702202236274",
    "count_view": 0
  },
  {
    "link_thumb": "https://live.staticflickr.com/65535/49592974122_fe1850c06e_n.jpg",
    "id_album": "949200594",
    "description": "KAWAII270220235127",
    "title": "KAWAII270220235127",
    "link_img": "https://live.staticflickr.com/65535/49592974122_3bc8277da6_o.jpg",
    "id_image": "KAWAII270220235127",
    "count_view": 0
  },
  {
    "link_thumb": "https://live.staticflickr.com/65535/49694431617_90867bcb8a_n.jpg",
    "id_album": "1226948986",
    "description": "TOTORO220320154114",
    "title": "TOTORO220320154114",
    "link_img": "https://live.staticflickr.com/65535/49694431617_c4ac376478_o.jpg",
    "id_image": "TOTORO220320154114",
    "count_view": 0
  },
  {
    "link_thumb": "https://live.staticflickr.com/65535/49548734621_6f7909057d_n.jpg",
    "id_album": "-1431786825",
    "description": "KAWAII1702202239508",
    "title": "KAWAII1702202239508",
    "link_img": "https://live.staticflickr.com/65535/49548734621_96211a1217_o.jpg",
    "id_image": "KAWAII1702202239508",
    "count_view": 0
  },
  {
    "link_thumb": "https://live.staticflickr.com/65535/49548935857_227d1e92ef_n.jpg",
    "id_album": "-422187261",
    "description": "KAWAII1702202238411",
    "title": "KAWAII1702202238411",
    "link_img": "https://live.staticflickr.com/65535/49548935857_20b73201c8_o.jpg",
    "id_image": "KAWAII1702202238411",
    "count_view": 0
  },
  {
    "link_thumb": "https://live.staticflickr.com/65535/49592214838_890bcf4f6d_n.jpg",
    "id_album": "-316663319",
    "description": "KAWAII270220235129",
    "title": "KAWAII270220235129",
    "link_img": "https://live.staticflickr.com/65535/49592214838_713a6a5106_o.jpg",
    "id_image": "KAWAII270220235129",
    "count_view": 0
  },
  {
    "link_thumb": "https://live.staticflickr.com/65535/49726896558_0919cc8216_n.jpg",
    "id_album": "742877173",
    "description": "KAWAII020420194509258",
    "title": "KAWAII020420194509258",
    "link_img": "https://live.staticflickr.com/65535/49726896558_3ed84326ed_o.jpg",
    "id_image": "KAWAII020420194509258",
    "count_view": 0
  },
  {
    "link_thumb": "https://live.staticflickr.com/65535/49548783417_8fb83743c1_n.jpg",
    "id_album": "-316663319",
    "description": "KAWAII120918149",
    "title": "KAWAII120918149",
    "link_img": "https://live.staticflickr.com/65535/49548783417_2e592593da_o.jpg",
    "id_image": "KAWAII120918149",
    "count_view": 0
  },
  {
    "link_thumb": "https://live.staticflickr.com/65535/49693568038_916ee82a8f_n.jpg",
    "id_album": "1201366373",
    "description": "KAWAII1702202237342",
    "title": "KAWAII1702202237342",
    "link_img": "https://live.staticflickr.com/65535/49693568038_c81c3ed181_o.jpg",
    "id_image": "KAWAII1702202237342",
    "count_view": 0
  },
  {
    "link_thumb": "https://live.staticflickr.com/65535/49622306623_94c8e08c1d_n.jpg",
    "id_album": "-316663319",
    "description": "KAWAII0503202021192",
    "title": "KAWAII0503202021192",
    "link_img": "https://live.staticflickr.com/65535/49622306623_572c1ca42c_o.jpg",
    "id_image": "KAWAII0503202021192",
    "count_view": 0
  },
  {
    "link_thumb": "https://live.staticflickr.com/65535/49693586493_dbd8522f66_n.jpg",
    "id_album": "1226948986",
    "description": "TOTORO22032015422",
    "title": "TOTORO22032015422",
    "link_img": "https://live.staticflickr.com/65535/49693586493_b3394f60c7_o.jpg",
    "id_image": "TOTORO22032015422",
    "count_view": 0
  },
  {
    "link_thumb": "https://live.staticflickr.com/65535/49727471006_043647b0e6_n.jpg",
    "id_album": "-1862561193",
    "description": "KAWAII020420194512159",
    "title": "KAWAII020420194512159",
    "link_img": "https://live.staticflickr.com/65535/49727471006_f15fc868e5_o.jpg",
    "id_image": "KAWAII020420194512159",
    "count_view": 0
  },
  {
    "link_thumb": "https://live.staticflickr.com/65535/49726900543_19822a6e01_n.jpg",
    "id_album": "742877173",
    "description": "KAWAII020420194511259",
    "title": "KAWAII020420194511259",
    "link_img": "https://live.staticflickr.com/65535/49726900543_2f401ff096_o.jpg",
    "id_image": "KAWAII020420194511259",
    "count_view": 0
  },
  {
    "link_thumb": "https://live.staticflickr.com/65535/49548547066_a5fcae1d0d_n.jpg",
    "id_album": "-1741487325",
    "description": "KAWAII120918111",
    "title": "KAWAII120918111",
    "link_img": "https://live.staticflickr.com/65535/49548547066_58e63364cd_o.jpg",
    "id_image": "KAWAII120918111",
    "count_view": 0
  },
  {
    "link_thumb": "https://live.staticflickr.com/65535/49726897878_1ed0277fe2_n.jpg",
    "id_album": "742877173",
    "description": "KAWAII020420194510141",
    "title": "KAWAII020420194510141",
    "link_img": "https://live.staticflickr.com/65535/49726897878_f615fe128a_o.jpg",
    "id_image": "KAWAII020420194510141",
    "count_view": 0
  },
  {
    "link_thumb": "https://live.staticflickr.com/65535/49623111392_2edd4c3b04_n.jpg",
    "id_album": "-316663319",
    "description": "KAWAII05032020217",
    "title": "KAWAII05032020217",
    "link_img": "https://live.staticflickr.com/65535/49623111392_dbff49ae1f_o.jpg",
    "id_image": "KAWAII05032020217",
    "count_view": 0
  },
  {
    "link_thumb": "https://live.staticflickr.com/65535/49694387657_ca79ea691c_n.jpg",
    "id_album": "1201366373",
    "description": "KAWAII120918157",
    "title": "KAWAII120918157",
    "link_img": "https://live.staticflickr.com/65535/49694387657_6176250974_o.jpg",
    "id_image": "KAWAII120918157",
    "count_view": 0
  },
  {
    "link_thumb": "https://live.staticflickr.com/65535/49592971722_34b2fdda01_n.jpg",
    "id_album": "949200594",
    "description": "KAWAII2702202351118",
    "title": "KAWAII2702202351118",
    "link_img": "https://live.staticflickr.com/65535/49592971722_61beeff452_o.jpg",
    "id_image": "KAWAII2702202351118",
    "count_view": 0
  },
  {
    "link_thumb": "https://live.staticflickr.com/65535/49622291638_2e4139d76c_n.jpg",
    "id_album": "-1741487325",
    "description": "KAWAII0503202021160",
    "title": "KAWAII0503202021160",
    "link_img": "https://live.staticflickr.com/65535/49622291638_95aaffd762_o.jpg",
    "id_image": "KAWAII0503202021160",
    "count_view": 0
  },
  {
    "link_thumb": "https://live.staticflickr.com/65535/49622327713_3a05a359b3_n.jpg",
    "id_album": "-406350429",
    "description": "KAWAII0503202021125",
    "title": "KAWAII0503202021125",
    "link_img": "https://live.staticflickr.com/65535/49622327713_77890083c5_o.jpg",
    "id_image": "KAWAII0503202021125",
    "count_view": 0
  },
  {
    "link_thumb": "https://live.staticflickr.com/65535/49548751601_4e0a006104_n.jpg",
    "id_album": "-1694302085",
    "description": "KAWAII1702202239578",
    "title": "KAWAII1702202239578",
    "link_img": "https://live.staticflickr.com/65535/49548751601_d309a50e64_o.jpg",
    "id_image": "KAWAII1702202239578",
    "count_view": 0
  },
  {
    "link_thumb": "https://live.staticflickr.com/65535/49694124181_8597a99e00_n.jpg",
    "id_album": "-358592519",
    "description": "KAWAII120918255",
    "title": "KAWAII120918255",
    "link_img": "https://live.staticflickr.com/65535/49694124181_b7a93c8a2e_o.jpg",
    "id_image": "KAWAII120918255",
    "count_view": 0
  },
  {
    "link_thumb": "https://live.staticflickr.com/65535/49694102261_ea702f35c0_n.jpg",
    "id_album": "1201366373",
    "description": "KAWAII12091849",
    "title": "KAWAII12091849",
    "link_img": "https://live.staticflickr.com/65535/49694102261_3f4c6bfa43_o.jpg",
    "id_image": "KAWAII12091849",
    "count_view": 0
  },
  {
    "link_thumb": "https://live.staticflickr.com/65535/49743272922_9784ee7c02_n.jpg",
    "id_album": "1396902986",
    "description": "KAWAII060420214915233",
    "title": "KAWAII060420214915233",
    "link_img": "https://live.staticflickr.com/65535/49743272922_1f2442eeac_o.jpg",
    "id_image": "KAWAII060420214915233",
    "count_view": 0
  },
  {
    "link_thumb": "https://live.staticflickr.com/65535/49693527218_5bce209935_n.jpg",
    "id_album": "1201366373",
    "description": "KAWAII050320202116",
    "title": "KAWAII050320202116",
    "link_img": "https://live.staticflickr.com/65535/49693527218_3359fd468d_o.jpg",
    "id_image": "KAWAII050320202116",
    "count_view": 0
  },
  {
    "link_thumb": "https://live.staticflickr.com/65535/49548699601_ca3c47dd25_n.jpg",
    "id_album": "-422187261",
    "description": "KAWAII1702202237376",
    "title": "KAWAII1702202237376",
    "link_img": "https://live.staticflickr.com/65535/49548699601_7c11111924_o.jpg",
    "id_image": "KAWAII1702202237376",
    "count_view": 0
  },
  {
    "link_thumb": "https://live.staticflickr.com/65535/49694071171_cd5ac07c04_n.jpg",
    "id_album": "-643980979",
    "description": "KAWAII0503202021165",
    "title": "KAWAII0503202021165",
    "link_img": "https://live.staticflickr.com/65535/49694071171_d1e527d8fc_o.jpg",
    "id_image": "KAWAII0503202021165",
    "count_view": 0
  },
  {
    "link_thumb": "https://live.staticflickr.com/65535/49623103582_c6ce891571_n.jpg",
    "id_album": "-316663319",
    "description": "KAWAII0503202021302",
    "title": "KAWAII0503202021302",
    "link_img": "https://live.staticflickr.com/65535/49623103582_0438ee03ca_o.jpg",
    "id_image": "KAWAII0503202021302",
    "count_view": 0
  },
  {
    "link_thumb": "https://live.staticflickr.com/65535/49693544323_3876cf45a3_n.jpg",
    "id_album": "1201366373",
    "description": "KAWAII120918178",
    "title": "KAWAII120918178",
    "link_img": "https://live.staticflickr.com/65535/49693544323_3bfcdb0658_o.jpg",
    "id_image": "KAWAII120918178",
    "count_view": 0
  },
  {
    "link_thumb": "https://live.staticflickr.com/65535/49742357843_50649d48d6_n.jpg",
    "id_album": "-1913845949",
    "description": "KAWAII060420214918161",
    "title": "KAWAII060420214918161",
    "link_img": "https://live.staticflickr.com/65535/49742357843_b193694e5e_o.jpg",
    "id_image": "KAWAII060420214918161",
    "count_view": 0
  },
  {
    "link_thumb": "https://live.staticflickr.com/65535/49693543518_7f415ef2a6_n.jpg",
    "id_album": "1201366373",
    "description": "KAWAII120918174",
    "title": "KAWAII120918174",
    "link_img": "https://live.staticflickr.com/65535/49693543518_017f9c514a_o.jpg",
    "id_image": "KAWAII120918174",
    "count_view": 0
  },
  {
    "link_thumb": "https://live.staticflickr.com/65535/49694122561_9e8e718717_n.jpg",
    "id_album": "-643980979",
    "description": "KAWAII270220235152",
    "title": "KAWAII270220235152",
    "link_img": "https://live.staticflickr.com/65535/49694122561_93ba242655_o.jpg",
    "id_image": "KAWAII270220235152",
    "count_view": 0
  },
  {
    "link_thumb": "https://live.staticflickr.com/65535/49743249287_94f386397e_n.jpg",
    "id_album": "-316663319",
    "description": "KAWAII060420214914226",
    "title": "KAWAII060420214914226",
    "link_img": "https://live.staticflickr.com/65535/49743249287_a3c538756a_o.jpg",
    "id_image": "KAWAII060420214914226",
    "count_view": 0
  },
  {
    "link_thumb": "https://live.staticflickr.com/65535/49743279367_86ed79dcdb_n.jpg",
    "id_album": "-1431786825",
    "description": "KAWAII06042021491518",
    "title": "KAWAII06042021491518",
    "link_img": "https://live.staticflickr.com/65535/49743279367_7136765f24_o.jpg",
    "id_image": "KAWAII06042021491518",
    "count_view": 0
  },
  {
    "link_thumb": "https://live.staticflickr.com/65535/49548096618_cf27c22d92_n.jpg",
    "id_album": "-316663319",
    "description": "KAWAII120918333",
    "title": "KAWAII120918333",
    "link_img": "https://live.staticflickr.com/65535/49548096618_b4ddfc91c2_o.jpg",
    "id_image": "KAWAII120918333",
    "count_view": 0
  },
  {
    "link_thumb": "https://live.staticflickr.com/65535/49711144482_7ba00aa8ac_n.jpg",
    "id_album": "-1599896063",
    "description": "LITTLEMONK29032012063427",
    "title": "LITTLEMONK29032012063427",
    "link_img": "https://live.staticflickr.com/65535/49711144482_942eaa2988_o.jpg",
    "id_image": "LITTLEMONK29032012063427",
    "count_view": 0
  },
  {
    "link_thumb": "https://live.staticflickr.com/65535/49693672998_18981af17b_n.jpg",
    "id_album": "-1741487325",
    "description": "KAWAII0503202021121",
    "title": "KAWAII0503202021121",
    "link_img": "https://live.staticflickr.com/65535/49693672998_32a6f17ddf_o.jpg",
    "id_image": "KAWAII0503202021121",
    "count_view": 0
  },
  {
    "link_thumb": "https://live.staticflickr.com/65535/49693555748_fafc0c40c6_n.jpg",
    "id_album": "1201366373",
    "description": "KAWAII120918279",
    "title": "KAWAII120918279",
    "link_img": "https://live.staticflickr.com/65535/49693555748_6c68d75bc0_o.jpg",
    "id_image": "KAWAII120918279",
    "count_view": 0
  },
  {
    "link_thumb": "https://live.staticflickr.com/65535/49742914281_15539498c7_n.jpg",
    "id_album": "-1497779911",
    "description": "KAWAII06042021491411",
    "title": "KAWAII06042021491411",
    "link_img": "https://live.staticflickr.com/65535/49742914281_2f0cd2bd20_o.jpg",
    "id_image": "KAWAII06042021491411",
    "count_view": 0
  },
  {
    "link_thumb": "https://live.staticflickr.com/65535/49548911892_ae57db85f4_n.jpg",
    "id_album": "-422187261",
    "description": "KAWAII1702202237309",
    "title": "KAWAII1702202237309",
    "link_img": "https://live.staticflickr.com/65535/49548911892_342fb1ff70_o.jpg",
    "id_image": "KAWAII1702202237309",
    "count_view": 0
  },
  {
    "link_thumb": "https://live.staticflickr.com/65535/49726924058_d46096920e_n.jpg",
    "id_album": "-1862561193",
    "description": "KAWAII020420194512240",
    "title": "KAWAII020420194512240",
    "link_img": "https://live.staticflickr.com/65535/49726924058_f0799f0eef_o.jpg",
    "id_image": "KAWAII020420194512240",
    "count_view": 0
  },
  {
    "link_thumb": "https://live.staticflickr.com/65535/49726888153_5b12154636_n.jpg",
    "id_album": "-316663319",
    "description": "KAWAII020420194507131",
    "title": "KAWAII020420194507131",
    "link_img": "https://live.staticflickr.com/65535/49726888153_0a189f0da6_o.jpg",
    "id_image": "KAWAII020420194507131",
    "count_view": 0
  },
  {
    "link_thumb": "https://live.staticflickr.com/65535/49623161482_17b070f43c_n.jpg",
    "id_album": "-1099943053",
    "description": "KAWAII0503202021259",
    "title": "KAWAII0503202021259",
    "link_img": "https://live.staticflickr.com/65535/49623161482_851780ab72_o.jpg",
    "id_image": "KAWAII0503202021259",
    "count_view": 0
  },
  {
    "link_thumb": "https://live.staticflickr.com/65535/49694371987_aff287f26d_n.jpg",
    "id_album": "-643980979",
    "description": "KAWAII0503202021106",
    "title": "KAWAII0503202021106",
    "link_img": "https://live.staticflickr.com/65535/49694371987_c04ff20047_o.jpg",
    "id_image": "KAWAII0503202021106",
    "count_view": 0
  },
  {
    "link_thumb": "https://live.staticflickr.com/65535/49743257167_612d045ff3_n.jpg",
    "id_album": "-316663319",
    "description": "KAWAII06042021491882",
    "title": "KAWAII06042021491882",
    "link_img": "https://live.staticflickr.com/65535/49743257167_867127abd9_o.jpg",
    "id_image": "KAWAII06042021491882",
    "count_view": 0
  },
  {
    "link_thumb": "https://live.staticflickr.com/65535/49742948581_82717c9931_n.jpg",
    "id_album": "1396902986",
    "description": "KAWAII060420214915119",
    "title": "KAWAII060420214915119",
    "link_img": "https://live.staticflickr.com/65535/49742948581_b2ef97035f_o.jpg",
    "id_image": "KAWAII060420214915119",
    "count_view": 0
  },
  {
    "link_thumb": "https://live.staticflickr.com/65535/49726876713_347a15e4ed_n.jpg",
    "id_album": "-1694302085",
    "description": "KAWAII020420194508119",
    "title": "KAWAII020420194508119",
    "link_img": "https://live.staticflickr.com/65535/49726876713_7db942ecae_o.jpg",
    "id_image": "KAWAII020420194508119",
    "count_view": 0
  },
  {
    "link_thumb": "https://live.staticflickr.com/65535/49548733976_b8ef83e3fe_n.jpg",
    "id_album": "-1099943053",
    "description": "KAWAII1702202239506",
    "title": "KAWAII1702202239506",
    "link_img": "https://live.staticflickr.com/65535/49548733976_88b6f6fe35_o.jpg",
    "id_image": "KAWAII1702202239506",
    "count_view": 0
  },
  {
    "link_thumb": "https://live.staticflickr.com/65535/49592734871_2c04c37b6e_n.jpg",
    "id_album": "-1431786825",
    "description": "KAWAII270220235110",
    "title": "KAWAII270220235110",
    "link_img": "https://live.staticflickr.com/65535/49592734871_e8ba8146bd_o.jpg",
    "id_image": "KAWAII270220235110",
    "count_view": 0
  },
  {
    "link_thumb": "https://live.staticflickr.com/65535/49742944906_9c8b773a84_n.jpg",
    "id_album": "-1779286820",
    "description": "KAWAII060420214917139",
    "title": "KAWAII060420214917139",
    "link_img": "https://live.staticflickr.com/65535/49742944906_b56b6e9b71_o.jpg",
    "id_image": "KAWAII060420214917139",
    "count_view": 0
  },
  {
    "link_thumb": "https://live.staticflickr.com/65535/49694395392_08a2bd609a_n.jpg",
    "id_album": "1201366373",
    "description": "KAWAII120918227",
    "title": "KAWAII120918227",
    "link_img": "https://live.staticflickr.com/65535/49694395392_53d4fb2179_o.jpg",
    "id_image": "KAWAII120918227",
    "count_view": 0
  },
  {
    "link_thumb": "https://live.staticflickr.com/65535/49742907191_c80bc106d2_n.jpg",
    "id_album": "-422187261",
    "description": "KAWAII060420214912152",
    "title": "KAWAII060420214912152",
    "link_img": "https://live.staticflickr.com/65535/49742907191_9b5e9d3445_o.jpg",
    "id_image": "KAWAII060420214912152",
    "count_view": 0
  },
  {
    "link_thumb": "https://live.staticflickr.com/65535/49693585133_e5463d6e2c_n.jpg",
    "id_album": "405170427",
    "description": "KAWAII170220223324",
    "title": "KAWAII170220223324",
    "link_img": "https://live.staticflickr.com/65535/49693585133_9a145701e5_o.jpg",
    "id_image": "KAWAII170220223324",
    "count_view": 0
  },
  {
    "link_thumb": "https://live.staticflickr.com/65535/49693564863_d451c3d21c_n.jpg",
    "id_album": "1201366373",
    "description": "KAWAII170220223488",
    "title": "KAWAII170220223488",
    "link_img": "https://live.staticflickr.com/65535/49693564863_846111a703_o.jpg",
    "id_image": "KAWAII170220223488",
    "count_view": 0
  },
  {
    "link_thumb": "https://live.staticflickr.com/65535/49693525448_a81c777647_n.jpg",
    "id_album": "416744915",
    "description": "KAWAII1702202238408",
    "title": "KAWAII1702202238408",
    "link_img": "https://live.staticflickr.com/65535/49693525448_3ba600859d_o.jpg",
    "id_image": "KAWAII1702202238408",
    "count_view": 0
  },
  {
    "link_thumb": "https://live.staticflickr.com/65535/49742369458_35b3319111_n.jpg",
    "id_album": "-1432180061",
    "description": "KAWAII060420214917195",
    "title": "KAWAII060420214917195",
    "link_img": "https://live.staticflickr.com/65535/49742369458_7805c98bce_o.jpg",
    "id_image": "KAWAII060420214917195",
    "count_view": 0
  },
  {
    "link_thumb": "https://live.staticflickr.com/65535/49726889313_269c56d408_n.jpg",
    "id_album": "-316663319",
    "description": "KAWAII02042019451011",
    "title": "KAWAII02042019451011",
    "link_img": "https://live.staticflickr.com/65535/49726889313_5411c0b820_o.jpg",
    "id_image": "KAWAII02042019451011",
    "count_view": 0
  },
  {
    "link_thumb": "https://live.staticflickr.com/65535/49694070736_42d8ae7b56_n.jpg",
    "id_album": "-643980979",
    "description": "KAWAII0503202021144",
    "title": "KAWAII0503202021144",
    "link_img": "https://live.staticflickr.com/65535/49694070736_3b7f15c311_o.jpg",
    "id_image": "KAWAII0503202021144",
    "count_view": 0
  },
  {
    "link_thumb": "https://live.staticflickr.com/65535/49624019673_61024febde_n.jpg",
    "id_album": "-422187261",
    "description": "KAWAII0503202021102",
    "title": "KAWAII0503202021102",
    "link_img": "https://live.staticflickr.com/65535/49624019673_b65557323c_o.jpg",
    "id_image": "KAWAII0503202021102",
    "count_view": 0
  },
  {
    "link_thumb": "https://live.staticflickr.com/65535/49711145002_f14f038e7f_n.jpg",
    "id_album": "-1599896063",
    "description": "LITTLEMONK29032012063620",
    "title": "LITTLEMONK29032012063620",
    "link_img": "https://live.staticflickr.com/65535/49711145002_e6a404b8bf_o.jpg",
    "id_image": "LITTLEMONK29032012063620",
    "count_view": 0
  },
  {
    "link_thumb": "https://live.staticflickr.com/65535/49548896447_10611e9e0e_n.jpg",
    "id_album": "-316663319",
    "description": "KAWAII1702202236231",
    "title": "KAWAII1702202236231",
    "link_img": "https://live.staticflickr.com/65535/49548896447_e20532dd12_o.jpg",
    "id_image": "KAWAII1702202236231",
    "count_view": 0
  },
  {
    "link_thumb": "https://live.staticflickr.com/65535/49743241307_74fce1c2ba_n.jpg",
    "id_album": "-128218148",
    "description": "KAWAII060420214911249",
    "title": "KAWAII060420214911249",
    "link_img": "https://live.staticflickr.com/65535/49743241307_d6e91fe2b3_o.jpg",
    "id_image": "KAWAII060420214911249",
    "count_view": 0
  },
  {
    "link_thumb": "https://live.staticflickr.com/65535/49694064701_895becb57c_n.jpg",
    "id_album": "1699819648",
    "description": "KAWAII0503202021286",
    "title": "KAWAII0503202021286",
    "link_img": "https://live.staticflickr.com/65535/49694064701_31e0c976d2_o.jpg",
    "id_image": "KAWAII0503202021286",
    "count_view": 0
  },
  {
    "link_thumb": "https://live.staticflickr.com/65535/49592947907_e9babfbfd3_n.jpg",
    "id_album": "-422187261",
    "description": "KAWAII270220235158",
    "title": "KAWAII270220235158",
    "link_img": "https://live.staticflickr.com/65535/49592947907_341dbc7523_o.jpg",
    "id_image": "KAWAII270220235158",
    "count_view": 0
  },
  {
    "link_thumb": "https://live.staticflickr.com/65535/49548147088_b6bd729e82_n.jpg",
    "id_album": "-1432180061",
    "description": "KAWAII1702202235131",
    "title": "KAWAII1702202235131",
    "link_img": "https://live.staticflickr.com/65535/49548147088_b7d9a941c5_o.jpg",
    "id_image": "KAWAII1702202235131",
    "count_view": 0
  },
  {
    "link_thumb": "https://live.staticflickr.com/65535/49548570486_dc709ec43b_n.jpg",
    "id_album": "-1694302085",
    "description": "KAWAII120918209",
    "title": "KAWAII120918209",
    "link_img": "https://live.staticflickr.com/65535/49548570486_5138dfca7b_o.jpg",
    "id_image": "KAWAII120918209",
    "count_view": 0
  },
  {
    "link_thumb": "https://live.staticflickr.com/65535/49548695406_17fe377f76_n.jpg",
    "id_album": "-316663319",
    "description": "KAWAII1702202237360",
    "title": "KAWAII1702202237360",
    "link_img": "https://live.staticflickr.com/65535/49548695406_09b8ea5888_o.jpg",
    "id_image": "KAWAII1702202237360",
    "count_view": 0
  },
  {
    "link_thumb": "https://live.staticflickr.com/65535/49694423752_6f90b793a7_n.jpg",
    "id_album": "-643980979",
    "description": "KAWAII2702202351148",
    "title": "KAWAII2702202351148",
    "link_img": "https://live.staticflickr.com/65535/49694423752_47092cfd73_o.jpg",
    "id_image": "KAWAII2702202351148",
    "count_view": 0
  },
  {
    "link_thumb": "https://live.staticflickr.com/65535/49743255447_b5cdb13779_n.jpg",
    "id_album": "-316663319",
    "description": "KAWAII060420214917271",
    "title": "KAWAII060420214917271",
    "link_img": "https://live.staticflickr.com/65535/49743255447_4b9dbecc6a_o.jpg",
    "id_image": "KAWAII060420214917271",
    "count_view": 0
  },
  {
    "link_thumb": "https://live.staticflickr.com/65535/49693545028_4fcace62e2_n.jpg",
    "id_album": "1201366373",
    "description": "KAWAII120918187",
    "title": "KAWAII120918187",
    "link_img": "https://live.staticflickr.com/65535/49693545028_31b8221788_o.jpg",
    "id_image": "KAWAII120918187",
    "count_view": 0
  },
  {
    "link_thumb": "https://live.staticflickr.com/65535/49694531007_1e94f1ab70_n.jpg",
    "id_album": "1226948986",
    "description": "KAWAII24032022050218",
    "title": "KAWAII24032022050218",
    "link_img": "https://live.staticflickr.com/65535/49694531007_44459561a6_o.jpg",
    "id_image": "KAWAII24032022050218",
    "count_view": 0
  },
  {
    "link_thumb": "https://live.staticflickr.com/65535/49548569451_10e4a2c2b7_n.jpg",
    "id_album": "-1741487325",
    "description": "KAWAII120918204",
    "title": "KAWAII120918204",
    "link_img": "https://live.staticflickr.com/65535/49548569451_93394d3e56_o.jpg",
    "id_image": "KAWAII120918204",
    "count_view": 0
  },
  {
    "link_thumb": "https://live.staticflickr.com/65535/49726891103_ba4937fd71_n.jpg",
    "id_album": "-316663319",
    "description": "KAWAII020420194511113",
    "title": "KAWAII020420194511113",
    "link_img": "https://live.staticflickr.com/65535/49726891103_d33a0d29bf_o.jpg",
    "id_image": "KAWAII020420194511113",
    "count_view": 0
  },
  {
    "link_thumb": "https://live.staticflickr.com/65535/49727449531_95138c2ba2_n.jpg",
    "id_album": "742877173",
    "description": "KAWAII020420194512197",
    "title": "KAWAII020420194512197",
    "link_img": "https://live.staticflickr.com/65535/49727449531_d1bd3cbd2c_o.jpg",
    "id_image": "KAWAII020420194512197",
    "count_view": 0
  },
  {
    "link_thumb": "https://live.staticflickr.com/65535/49592711266_9f1c10e4a6_n.jpg",
    "id_album": "-1741487325",
    "description": "KAWAII2702202351135",
    "title": "KAWAII2702202351135",
    "link_img": "https://live.staticflickr.com/65535/49592711266_c98eb4866d_o.jpg",
    "id_image": "KAWAII2702202351135",
    "count_view": 0
  },
  {
    "link_thumb": "https://live.staticflickr.com/65535/49548939692_eeedcea466_n.jpg",
    "id_album": "1396902986",
    "description": "KAWAII1702202238425",
    "title": "KAWAII1702202238425",
    "link_img": "https://live.staticflickr.com/65535/49548939692_4661bebe6c_o.jpg",
    "id_image": "KAWAII1702202238425",
    "count_view": 0
  },
  {
    "link_thumb": "https://live.staticflickr.com/65535/49592207433_e6d261d1a6_n.jpg",
    "id_album": "-1741487325",
    "description": "KAWAII1702202237382",
    "title": "KAWAII1702202237382",
    "link_img": "https://live.staticflickr.com/65535/49592207433_5dde2b2cd3_o.jpg",
    "id_image": "KAWAII1702202237382",
    "count_view": 0
  },
  {
    "link_thumb": "https://live.staticflickr.com/65535/49727470746_fa73e3a37f_n.jpg",
    "id_album": "-1862561193",
    "description": "KAWAII020420194512120",
    "title": "KAWAII020420194512120",
    "link_img": "https://live.staticflickr.com/65535/49727470746_3d39dec80e_o.jpg",
    "id_image": "KAWAII020420194512120",
    "count_view": 0
  },
  {
    "link_thumb": "https://live.staticflickr.com/65535/49622311928_5399a47ab4_n.jpg",
    "id_album": "-316663319",
    "description": "KAWAII0503202021242",
    "title": "KAWAII0503202021242",
    "link_img": "https://live.staticflickr.com/65535/49622311928_d4a9cd9208_o.jpg",
    "id_image": "KAWAII0503202021242",
    "count_view": 0
  },
  {
    "link_thumb": "https://live.staticflickr.com/65535/49548970672_137de1ba9c_n.jpg",
    "id_album": "-422187261",
    "description": "KAWAII1702202239543",
    "title": "KAWAII1702202239543",
    "link_img": "https://live.staticflickr.com/65535/49548970672_ca341a2c14_o.jpg",
    "id_image": "KAWAII1702202239543",
    "count_view": 0
  },
  {
    "link_thumb": "https://live.staticflickr.com/65535/49727435836_0d2afe0df0_n.jpg",
    "id_album": "-316663319",
    "description": "KAWAII02042019450816",
    "title": "KAWAII02042019450816",
    "link_img": "https://live.staticflickr.com/65535/49727435836_df66c3d637_o.jpg",
    "id_image": "KAWAII02042019450816",
    "count_view": 0
  },
  {
    "link_thumb": "https://live.staticflickr.com/65535/49727787947_bff7db4229_n.jpg",
    "id_album": "-1099943053",
    "description": "KAWAII020420194508220",
    "title": "KAWAII020420194508220",
    "link_img": "https://live.staticflickr.com/65535/49727787947_98cf0ca607_o.jpg",
    "id_image": "KAWAII020420194508220",
    "count_view": 0
  },
  {
    "link_thumb": "https://live.staticflickr.com/65535/49742386353_169a844989_n.jpg",
    "id_album": "416744915",
    "description": "KAWAII060420214912114",
    "title": "KAWAII060420214912114",
    "link_img": "https://live.staticflickr.com/65535/49742386353_22d395e5c6_o.jpg",
    "id_image": "KAWAII060420214912114",
    "count_view": 0
  },
  {
    "link_thumb": "https://live.staticflickr.com/65535/49622837701_8c5132a8df_n.jpg",
    "id_album": "-316663319",
    "description": "KAWAII050320202153",
    "title": "KAWAII050320202153",
    "link_img": "https://live.staticflickr.com/65535/49622837701_082e4868e9_o.jpg",
    "id_image": "KAWAII050320202153",
    "count_view": 0
  },
  {
    "link_thumb": "https://live.staticflickr.com/65535/49726882983_1a981c019f_n.jpg",
    "id_album": "-1497779911",
    "description": "KAWAII020420194511232",
    "title": "KAWAII020420194511232",
    "link_img": "https://live.staticflickr.com/65535/49726882983_cddcb7cb6a_o.jpg",
    "id_image": "KAWAII020420194511232",
    "count_view": 0
  },
  {
    "link_thumb": "https://live.staticflickr.com/65535/49742393553_e67ac98db8_n.jpg",
    "id_album": "-1473448477",
    "description": "KAWAII060420214917160",
    "title": "KAWAII060420214917160",
    "link_img": "https://live.staticflickr.com/65535/49742393553_23d6edd7e0_o.jpg",
    "id_image": "KAWAII060420214917160",
    "count_view": 0
  },
  {
    "link_thumb": "https://live.staticflickr.com/65535/49726928948_b01828fda9_n.jpg",
    "id_album": "431597977",
    "description": "KAWAII020420194512247",
    "title": "KAWAII020420194512247",
    "link_img": "https://live.staticflickr.com/65535/49726928948_ddd06fd232_o.jpg",
    "id_image": "KAWAII020420194512247",
    "count_view": 0
  },
  {
    "link_thumb": "https://live.staticflickr.com/65535/49743266352_ef3704ed25_n.jpg",
    "id_album": "-1779286820",
    "description": "KAWAII060420214912201",
    "title": "KAWAII060420214912201",
    "link_img": "https://live.staticflickr.com/65535/49743266352_55704f23f8_o.jpg",
    "id_image": "KAWAII060420214912201",
    "count_view": 0
  },
  {
    "link_thumb": "https://live.staticflickr.com/65535/49548274513_407c2b8a2f_n.jpg",
    "id_album": "949200594",
    "description": "KAWAII17091857",
    "title": "KAWAII17091857",
    "link_img": "https://live.staticflickr.com/65535/49548274513_201e71fcd3_o.jpg",
    "id_image": "KAWAII17091857",
    "count_view": 0
  },
  {
    "link_thumb": "https://live.staticflickr.com/65535/49548694021_aac1a408ab_n.jpg",
    "id_album": "-422187261",
    "description": "KAWAII1702202237355",
    "title": "KAWAII1702202237355",
    "link_img": "https://live.staticflickr.com/65535/49548694021_8570f5a361_o.jpg",
    "id_image": "KAWAII1702202237355",
    "count_view": 0
  },
  {
    "link_thumb": "https://live.staticflickr.com/65535/49742360793_90892a6399_n.jpg",
    "id_album": "-422187261",
    "description": "KAWAII06042021491595",
    "title": "KAWAII06042021491595",
    "link_img": "https://live.staticflickr.com/65535/49742360793_ae488deb4b_o.jpg",
    "id_image": "KAWAII06042021491595",
    "count_view": 0
  },
  {
    "link_thumb": "https://live.staticflickr.com/65535/49694527092_bc6ec76b97_n.jpg",
    "id_album": "1396902986",
    "description": "KAWAII170220223478",
    "title": "KAWAII170220223478",
    "link_img": "https://live.staticflickr.com/65535/49694527092_0f6c240b52_o.jpg",
    "id_image": "KAWAII170220223478",
    "count_view": 0
  },
  {
    "link_thumb": "https://live.staticflickr.com/65535/49623101752_8ef3c2675c_n.jpg",
    "id_album": "-316663319",
    "description": "KAWAII0503202021287",
    "title": "KAWAII0503202021287",
    "link_img": "https://live.staticflickr.com/65535/49623101752_aea84ca120_o.jpg",
    "id_image": "KAWAII0503202021287",
    "count_view": 0
  },
  {
    "link_thumb": "https://live.staticflickr.com/65535/49693558183_a469f8695b_n.jpg",
    "id_album": "1201366373",
    "description": "KAWAII12091837",
    "title": "KAWAII12091837",
    "link_img": "https://live.staticflickr.com/65535/49693558183_d571b7c6ef_o.jpg",
    "id_image": "KAWAII12091837",
    "count_view": 0
  },
  {
    "link_thumb": "https://live.staticflickr.com/65535/49552759917_19b94a5bea_n.jpg",
    "id_album": "-316663319",
    "description": "KAWAII12091825180220205940",
    "title": "KAWAII12091825180220205940",
    "link_img": "https://live.staticflickr.com/65535/49552759917_c59a92f79d_o.jpg",
    "id_image": "KAWAII12091825180220205940",
    "count_view": 0
  },
  {
    "link_thumb": "https://live.staticflickr.com/65535/49743268987_a02ff27df9_n.jpg",
    "id_album": "-1779286820",
    "description": "KAWAII060420214918105",
    "title": "KAWAII060420214918105",
    "link_img": "https://live.staticflickr.com/65535/49743268987_0692e47578_o.jpg",
    "id_image": "KAWAII060420214918105",
    "count_view": 0
  },
  {
    "link_thumb": "https://live.staticflickr.com/65535/49694074656_467bd58490_n.jpg",
    "id_album": "-643980979",
    "description": "KAWAII0503202021282",
    "title": "KAWAII0503202021282",
    "link_img": "https://live.staticflickr.com/65535/49694074656_9a1018bd3c_o.jpg",
    "id_image": "KAWAII0503202021282",
    "count_view": 0
  },
  {
    "link_thumb": "https://live.staticflickr.com/65535/49693680053_5058b72042_n.jpg",
    "id_album": "1201366373",
    "description": "KAWAII24032022050243",
    "title": "KAWAII24032022050243",
    "link_img": "https://live.staticflickr.com/65535/49693680053_0fbb10e2f5_o.jpg",
    "id_image": "KAWAII24032022050243",
    "count_view": 0
  },
  {
    "link_thumb": "https://live.staticflickr.com/65535/49548902602_37f1bda9c7_n.jpg",
    "id_album": "-1432180061",
    "description": "KAWAII1702202236265",
    "title": "KAWAII1702202236265",
    "link_img": "https://live.staticflickr.com/65535/49548902602_fa5273a1dc_o.jpg",
    "id_image": "KAWAII1702202236265",
    "count_view": 0
  },
  {
    "link_thumb": "https://live.staticflickr.com/65535/49743251107_e88cc269cf_n.jpg",
    "id_album": "-316663319",
    "description": "KAWAII060420214915164",
    "title": "KAWAII060420214915164",
    "link_img": "https://live.staticflickr.com/65535/49743251107_4266a8506e_o.jpg",
    "id_image": "KAWAII060420214915164",
    "count_view": 0
  },
  {
    "link_thumb": "https://live.staticflickr.com/65535/49548612096_56dbaf8b54_n.jpg",
    "id_album": "-422187261",
    "description": "KAWAII12091851",
    "title": "KAWAII12091851",
    "link_img": "https://live.staticflickr.com/65535/49548612096_e93a30cdd0_o.jpg",
    "id_image": "KAWAII12091851",
    "count_view": 0
  },
  {
    "link_thumb": "https://live.staticflickr.com/65535/49592707881_8f77d6f622_n.jpg",
    "id_album": "1396902986",
    "description": "KAWAII270220235122",
    "title": "KAWAII270220235122",
    "link_img": "https://live.staticflickr.com/65535/49592707881_cdd5baa49e_o.jpg",
    "id_image": "KAWAII270220235122",
    "count_view": 0
  },
  {
    "link_thumb": "https://live.staticflickr.com/65535/49727453196_7151bc12f8_n.jpg",
    "id_album": "742877173",
    "description": "KAWAII02042019451430",
    "title": "KAWAII02042019451430",
    "link_img": "https://live.staticflickr.com/65535/49727453196_a3fe118243_o.jpg",
    "id_image": "KAWAII02042019451430",
    "count_view": 0
  },
  {
    "link_thumb": "https://live.staticflickr.com/65535/49693562678_666524c205_n.jpg",
    "id_album": "1201366373",
    "description": "KAWAII17022022333",
    "title": "KAWAII17022022333",
    "link_img": "https://live.staticflickr.com/65535/49693562678_002115e5c4_o.jpg",
    "id_image": "KAWAII17022022333",
    "count_view": 0
  },
  {
    "link_thumb": "https://live.staticflickr.com/65535/49622289598_80c7699f69_n.jpg",
    "id_album": "1396902986",
    "description": "KAWAII050320202159",
    "title": "KAWAII050320202159",
    "link_img": "https://live.staticflickr.com/65535/49622289598_97aba19210_o.jpg",
    "id_image": "KAWAII050320202159",
    "count_view": 0
  },
  {
    "link_thumb": "https://live.staticflickr.com/65535/49742925786_af9a9b4d99_n.jpg",
    "id_album": "-316663319",
    "description": "KAWAII060420214914288",
    "title": "KAWAII060420214914288",
    "link_img": "https://live.staticflickr.com/65535/49742925786_377ff6721f_o.jpg",
    "id_image": "KAWAII060420214914288",
    "count_view": 0
  },
  {
    "link_thumb": "https://live.staticflickr.com/65535/49548201338_7fa2cfc8d3_n.jpg",
    "id_album": "-422187261",
    "description": "KAWAII1702202237387",
    "title": "KAWAII1702202237387",
    "link_img": "https://live.staticflickr.com/65535/49548201338_c4b642fe47_o.jpg",
    "id_image": "KAWAII1702202237387",
    "count_view": 0
  },
  {
    "link_thumb": "https://live.staticflickr.com/65535/49727448281_b4ec788374_n.jpg",
    "id_album": "742877173",
    "description": "KAWAII020420194511265",
    "title": "KAWAII020420194511265",
    "link_img": "https://live.staticflickr.com/65535/49727448281_40f223619f_o.jpg",
    "id_image": "KAWAII020420194511265",
    "count_view": 0
  },
  {
    "link_thumb": "https://live.staticflickr.com/65535/49726901643_a999a43832_n.jpg",
    "id_album": "742877173",
    "description": "KAWAII020420194512170",
    "title": "KAWAII020420194512170",
    "link_img": "https://live.staticflickr.com/65535/49726901643_64df0cb38a_o.jpg",
    "id_image": "KAWAII020420194512170",
    "count_view": 0
  },
  {
    "link_thumb": "https://live.staticflickr.com/65535/49548861607_377c96b95b_n.jpg",
    "id_album": "-1099943053",
    "description": "KAWAII170220223440",
    "title": "KAWAII170220223440",
    "link_img": "https://live.staticflickr.com/65535/49548861607_d38b08969a_o.jpg",
    "id_image": "KAWAII170220223440",
    "count_view": 0
  },
  {
    "link_thumb": "https://live.staticflickr.com/65535/49578242613_7c8b60b077_n.jpg",
    "id_album": "-422187261",
    "description": "KAWAII190220211129",
    "title": "KAWAII190220211129",
    "link_img": "https://live.staticflickr.com/65535/49578242613_b4337b78c2_o.jpg",
    "id_image": "KAWAII190220211129",
    "count_view": 0
  },
  {
    "link_thumb": "https://live.staticflickr.com/65535/49622827431_3bd790c494_n.jpg",
    "id_album": "-316663319",
    "description": "KAWAII0503202021249",
    "title": "KAWAII0503202021249",
    "link_img": "https://live.staticflickr.com/65535/49622827431_1ff409f254_o.jpg",
    "id_image": "KAWAII0503202021249",
    "count_view": 0
  },
  {
    "link_thumb": "https://live.staticflickr.com/65535/49622816726_7c2109c3a2_n.jpg",
    "id_album": "-316663319",
    "description": "KAWAII050320202113",
    "title": "KAWAII050320202113",
    "link_img": "https://live.staticflickr.com/65535/49622816726_09a020b17f_o.jpg",
    "id_image": "KAWAII050320202113",
    "count_view": 0
  },
  {
    "link_thumb": "https://live.staticflickr.com/65535/49727427141_d166c42105_n.jpg",
    "id_album": "-1694302085",
    "description": "KAWAII1702202237356",
    "title": "KAWAII1702202237356",
    "link_img": "https://live.staticflickr.com/65535/49727427141_62d4af75b8_o.jpg",
    "id_image": "KAWAII1702202237356",
    "count_view": 0
  },
  {
    "link_thumb": "https://live.staticflickr.com/65535/49548182983_7d07fa7d83_n.jpg",
    "id_album": "-1741487325",
    "description": "KAWAII1702202237308",
    "title": "KAWAII1702202237308",
    "link_img": "https://live.staticflickr.com/65535/49548182983_3e3b7c6c30_o.jpg",
    "id_image": "KAWAII1702202237308",
    "count_view": 0
  },
  {
    "link_thumb": "https://live.staticflickr.com/65535/49548832647_f7abbc16dc_n.jpg",
    "id_album": "-1431786825",
    "description": "KAWAII120918360",
    "title": "KAWAII120918360",
    "link_img": "https://live.staticflickr.com/65535/49548832647_6954825421_o.jpg",
    "id_image": "KAWAII120918360",
    "count_view": 0
  },
  {
    "link_thumb": "https://live.staticflickr.com/65535/49592721721_e06e36db65_n.jpg",
    "id_album": "-316663319",
    "description": "KAWAII270220235191",
    "title": "KAWAII270220235191",
    "link_img": "https://live.staticflickr.com/65535/49592721721_5b0f60168c_o.jpg",
    "id_image": "KAWAII270220235191",
    "count_view": 0
  },
  {
    "link_thumb": "https://live.staticflickr.com/65535/49726905103_8e4ab5e108_n.jpg",
    "id_album": "742877173",
    "description": "KAWAII020420194514202",
    "title": "KAWAII020420194514202",
    "link_img": "https://live.staticflickr.com/65535/49726905103_1594caaa95_o.jpg",
    "id_image": "KAWAII020420194514202",
    "count_view": 0
  },
  {
    "link_thumb": "https://live.staticflickr.com/65535/49726922683_2146701424_n.jpg",
    "id_album": "-1862561193",
    "description": "KAWAII02042019451154",
    "title": "KAWAII02042019451154",
    "link_img": "https://live.staticflickr.com/65535/49726922683_e269b73430_o.jpg",
    "id_image": "KAWAII02042019451154",
    "count_view": 0
  },
  {
    "link_thumb": "https://live.staticflickr.com/65535/49727471611_58cc6cbf82_n.jpg",
    "id_album": "-1862561193",
    "description": "KAWAII02042019451248",
    "title": "KAWAII02042019451248",
    "link_img": "https://live.staticflickr.com/65535/49727471611_e695fa35a5_o.jpg",
    "id_image": "KAWAII02042019451248",
    "count_view": 0
  },
  {
    "link_thumb": "https://live.staticflickr.com/65535/49693676418_9c8e1de302_n.jpg",
    "id_album": "-643980979",
    "description": "KAWAII24032022050239",
    "title": "KAWAII24032022050239",
    "link_img": "https://live.staticflickr.com/65535/49693676418_5a3f922bbf_o.jpg",
    "id_image": "KAWAII24032022050239",
    "count_view": 0
  },
  {
    "link_thumb": "https://live.staticflickr.com/65535/49742914816_17163ff476_n.jpg",
    "id_album": "-1497779911",
    "description": "KAWAII060420214914213",
    "title": "KAWAII060420214914213",
    "link_img": "https://live.staticflickr.com/65535/49742914816_5f3b4a9856_o.jpg",
    "id_image": "KAWAII060420214914213",
    "count_view": 0
  },
  {
    "link_thumb": "https://live.staticflickr.com/65535/49727788757_5483c62a0c_n.jpg",
    "id_album": "1563362783",
    "description": "KAWAII1702202237337",
    "title": "KAWAII1702202237337",
    "link_img": "https://live.staticflickr.com/65535/49727788757_3d61fcc73c_o.jpg",
    "id_image": "KAWAII1702202237337",
    "count_view": 0
  },
  {
    "link_thumb": "https://live.staticflickr.com/65535/49743228317_96446c5e59_n.jpg",
    "id_album": "-1913845949",
    "description": "KAWAII060420214917223",
    "title": "KAWAII060420214917223",
    "link_img": "https://live.staticflickr.com/65535/49743228317_44d2346ef5_o.jpg",
    "id_image": "KAWAII060420214917223",
    "count_view": 0
  },
  {
    "link_thumb": "https://live.staticflickr.com/65535/49743244862_5576d98f85_n.jpg",
    "id_album": "-316663319",
    "description": "KAWAII060420214912154",
    "title": "KAWAII060420214912154",
    "link_img": "https://live.staticflickr.com/65535/49743244862_a121890c7f_o.jpg",
    "id_image": "KAWAII060420214912154",
    "count_view": 0
  },
  {
    "link_thumb": "https://live.staticflickr.com/65535/49742372378_b321335988_n.jpg",
    "id_album": "-316663319",
    "description": "KAWAII060420214911200",
    "title": "KAWAII060420214911200",
    "link_img": "https://live.staticflickr.com/65535/49742372378_b68612c725_o.jpg",
    "id_image": "KAWAII060420214911200",
    "count_view": 0
  },
  {
    "link_thumb": "https://live.staticflickr.com/65535/49694381212_07119d1608_n.jpg",
    "id_album": "-643980979",
    "description": "KAWAII050320202182",
    "title": "KAWAII050320202182",
    "link_img": "https://live.staticflickr.com/65535/49694381212_3f18934d9b_o.jpg",
    "id_image": "KAWAII050320202182",
    "count_view": 0
  },
  {
    "link_thumb": "https://live.staticflickr.com/65535/49694385997_7851f90b4a_n.jpg",
    "id_album": "1201366373",
    "description": "KAWAII120918141",
    "title": "KAWAII120918141",
    "link_img": "https://live.staticflickr.com/65535/49694385997_f3e813d133_o.jpg",
    "id_image": "KAWAII120918141",
    "count_view": 0
  },
  {
    "link_thumb": "https://live.staticflickr.com/65535/49548847582_c1e6076bf8_n.jpg",
    "id_album": "-422187261",
    "description": "KAWAII1209189",
    "title": "KAWAII1209189",
    "link_img": "https://live.staticflickr.com/65535/49548847582_1ffc716c5e_o.jpg",
    "id_image": "KAWAII1209189",
    "count_view": 0
  },
  {
    "link_thumb": "https://live.staticflickr.com/65535/49742390308_8891745a55_n.jpg",
    "id_album": "-1473448477",
    "description": "KAWAII060420214915242",
    "title": "KAWAII060420214915242",
    "link_img": "https://live.staticflickr.com/65535/49742390308_64893c0681_o.jpg",
    "id_image": "KAWAII060420214915242",
    "count_view": 0
  },
  {
    "link_thumb": "https://live.staticflickr.com/65535/49548818982_0b96ac76d6_n.jpg",
    "id_album": "-316663319",
    "description": "KAWAII120918306",
    "title": "KAWAII120918306",
    "link_img": "https://live.staticflickr.com/65535/49548818982_364b7e10d1_o.jpg",
    "id_image": "KAWAII120918306",
    "count_view": 0
  },
  {
    "link_thumb": "https://live.staticflickr.com/65535/49592975792_8d5c9b8fa7_n.jpg",
    "id_album": "949200594",
    "description": "KAWAII270220235173",
    "title": "KAWAII270220235173",
    "link_img": "https://live.staticflickr.com/65535/49592975792_a991967fea_o.jpg",
    "id_image": "KAWAII270220235173",
    "count_view": 0
  },
  {
    "link_thumb": "https://live.staticflickr.com/65535/49694129606_7ac23b2cab_n.jpg",
    "id_album": "1226948986",
    "description": "TOTORO22032015424",
    "title": "TOTORO22032015424",
    "link_img": "https://live.staticflickr.com/65535/49694129606_2d1cd45ab7_o.jpg",
    "id_image": "TOTORO22032015424",
    "count_view": 0
  },
  {
    "link_thumb": "https://live.staticflickr.com/65535/49548818087_00d48ca029_n.jpg",
    "id_album": "-422187261",
    "description": "KAWAII120918302",
    "title": "KAWAII120918302",
    "link_img": "https://live.staticflickr.com/65535/49548818087_5861591717_o.jpg",
    "id_image": "KAWAII120918302",
    "count_view": 0
  },
  {
    "link_thumb": "https://live.staticflickr.com/65535/49727754687_0ef88fd8c3_n.jpg",
    "id_album": "-316663319",
    "description": "KAWAII02042019451298",
    "title": "KAWAII02042019451298",
    "link_img": "https://live.staticflickr.com/65535/49727754687_d35c90e8e0_o.jpg",
    "id_image": "KAWAII02042019451298",
    "count_view": 0
  },
  {
    "link_thumb": "https://live.staticflickr.com/65535/49548925197_9c7158b9c0_n.jpg",
    "id_album": "-316663319",
    "description": "KAWAII1702202237368",
    "title": "KAWAII1702202237368",
    "link_img": "https://live.staticflickr.com/65535/49548925197_f0ba9aa5b0_o.jpg",
    "id_image": "KAWAII1702202237368",
    "count_view": 0
  },
  {
    "link_thumb": "https://live.staticflickr.com/65535/49622809301_6b0684800f_n.jpg",
    "id_album": "-1694302085",
    "description": "KAWAII0503202021105",
    "title": "KAWAII0503202021105",
    "link_img": "https://live.staticflickr.com/65535/49622809301_e17339301c_o.jpg",
    "id_image": "KAWAII0503202021105",
    "count_view": 0
  },
  {
    "link_thumb": "https://live.staticflickr.com/65535/49548083698_a5d5e71e7f_n.jpg",
    "id_album": "-1741487325",
    "description": "KAWAII120918282",
    "title": "KAWAII120918282",
    "link_img": "https://live.staticflickr.com/65535/49548083698_a9a5b35c14_o.jpg",
    "id_image": "KAWAII120918282",
    "count_view": 0
  },
  {
    "link_thumb": "https://live.staticflickr.com/65535/49694378392_d94a66076d_n.jpg",
    "id_album": "-643980979",
    "description": "KAWAII050320202136",
    "title": "KAWAII050320202136",
    "link_img": "https://live.staticflickr.com/65535/49694378392_9321ddde90_o.jpg",
    "id_image": "KAWAII050320202136",
    "count_view": 0
  },
  {
    "link_thumb": "https://live.staticflickr.com/65535/49694229856_553885b8dc_n.jpg",
    "id_album": "1226948986",
    "description": "KAWAII2403202205028",
    "title": "KAWAII2403202205028",
    "link_img": "https://live.staticflickr.com/65535/49694229856_991631dd0e_o.jpg",
    "id_image": "KAWAII2403202205028",
    "count_view": 0
  },
  {
    "link_thumb": "https://live.staticflickr.com/65535/49727428596_4d8e9b250d_n.jpg",
    "id_album": "-1741487325",
    "description": "KAWAII020420194508217",
    "title": "KAWAII020420194508217",
    "link_img": "https://live.staticflickr.com/65535/49727428596_90b724e4f1_o.jpg",
    "id_image": "KAWAII020420194508217",
    "count_view": 0
  },
  {
    "link_thumb": "https://live.staticflickr.com/65535/49727745862_fe5f0d562c_n.jpg",
    "id_album": "-1497779911",
    "description": "KAWAII0503202021189",
    "title": "KAWAII0503202021189",
    "link_img": "https://live.staticflickr.com/65535/49727745862_a8cb1b0243_o.jpg",
    "id_image": "KAWAII0503202021189",
    "count_view": 0
  },
  {
    "link_thumb": "https://live.staticflickr.com/65535/49694077156_c5fd24ec02_n.jpg",
    "id_album": "1201366373",
    "description": "KAWAII050320202157",
    "title": "KAWAII050320202157",
    "link_img": "https://live.staticflickr.com/65535/49694077156_9f3764fdb2_o.jpg",
    "id_image": "KAWAII050320202157",
    "count_view": 0
  },
  {
    "link_thumb": "https://live.staticflickr.com/65535/49694228631_25383a0fda_n.jpg",
    "id_album": "1226948986",
    "description": "KAWAII24032022050246",
    "title": "KAWAII24032022050246",
    "link_img": "https://live.staticflickr.com/65535/49694228631_37a3fc6b58_o.jpg",
    "id_image": "KAWAII24032022050246",
    "count_view": 0
  },
  {
    "link_thumb": "https://live.staticflickr.com/65535/49727448706_c3d8418039_n.jpg",
    "id_album": "742877173",
    "description": "KAWAII02042019451189",
    "title": "KAWAII02042019451189",
    "link_img": "https://live.staticflickr.com/65535/49727448706_448a753ef2_o.jpg",
    "id_image": "KAWAII02042019451189",
    "count_view": 0
  },
  {
    "link_thumb": "https://live.staticflickr.com/65535/49592949937_d5ae9c4fd8_n.jpg",
    "id_album": "1396902986",
    "description": "KAWAII2702202351152",
    "title": "KAWAII2702202351152",
    "link_img": "https://live.staticflickr.com/65535/49592949937_34eaf5eb63_o.jpg",
    "id_image": "KAWAII2702202351152",
    "count_view": 0
  },
  {
    "link_thumb": "https://live.staticflickr.com/65535/49622805466_a5265a88fd_n.jpg",
    "id_album": "-1741487325",
    "description": "KAWAII050320202110",
    "title": "KAWAII050320202110",
    "link_img": "https://live.staticflickr.com/65535/49622805466_fb1a9fa924_o.jpg",
    "id_image": "KAWAII050320202110",
    "count_view": 0
  },
  {
    "link_thumb": "https://live.staticflickr.com/65535/49727744027_75f0429ef0_n.jpg",
    "id_album": "-1741487325",
    "description": "KAWAII020420194514142",
    "title": "KAWAII020420194514142",
    "link_img": "https://live.staticflickr.com/65535/49727744027_b2c335edc2_o.jpg",
    "id_image": "KAWAII020420194514142",
    "count_view": 0
  },
  {
    "link_thumb": "https://live.staticflickr.com/65535/49742955191_ec5217740a_n.jpg",
    "id_album": "-1431786825",
    "description": "KAWAII06042021491270",
    "title": "KAWAII06042021491270",
    "link_img": "https://live.staticflickr.com/65535/49742955191_f64c7952b5_o.jpg",
    "id_image": "KAWAII06042021491270",
    "count_view": 0
  },
  {
    "link_thumb": "https://live.staticflickr.com/65535/49694380432_89f3889088_n.jpg",
    "id_album": "-643980979",
    "description": "KAWAII050320202175",
    "title": "KAWAII050320202175",
    "link_img": "https://live.staticflickr.com/65535/49694380432_579e059c17_o.jpg",
    "id_image": "KAWAII050320202175",
    "count_view": 0
  },
  {
    "link_thumb": "https://live.staticflickr.com/65535/49693537013_f1f4170a46_n.jpg",
    "id_album": "1201366373",
    "description": "KAWAII120918101",
    "title": "KAWAII120918101",
    "link_img": "https://live.staticflickr.com/65535/49693537013_79860da14e_o.jpg",
    "id_image": "KAWAII120918101",
    "count_view": 0
  },
  {
    "link_thumb": "https://live.staticflickr.com/65535/49578748666_73e1c62044_n.jpg",
    "id_album": "-422187261",
    "description": "KAWAII19022021117",
    "title": "KAWAII19022021117",
    "link_img": "https://live.staticflickr.com/65535/49578748666_5d76e47b1c_o.jpg",
    "id_image": "KAWAII19022021117",
    "count_view": 0
  },
  {
    "link_thumb": "https://live.staticflickr.com/65535/49548587041_497fdce4ca_n.jpg",
    "id_album": "-316663319",
    "description": "KAWAII120918288",
    "title": "KAWAII120918288",
    "link_img": "https://live.staticflickr.com/65535/49548587041_cf1d84938a_o.jpg",
    "id_image": "KAWAII120918288",
    "count_view": 0
  },
  {
    "link_thumb": "https://live.staticflickr.com/65535/49710287793_ec5ce8fc93_n.jpg",
    "id_album": "-1599896063",
    "description": "LITTLEMONK2903201206377",
    "title": "LITTLEMONK2903201206377",
    "link_img": "https://live.staticflickr.com/65535/49710287793_9e0bab0481_o.jpg",
    "id_image": "LITTLEMONK2903201206377",
    "count_view": 0
  },
  {
    "link_thumb": "https://live.staticflickr.com/65535/49548056578_4ebb66f297_n.jpg",
    "id_album": "-1741487325",
    "description": "KAWAII120918159",
    "title": "KAWAII120918159",
    "link_img": "https://live.staticflickr.com/65535/49548056578_89ae5d8390_o.jpg",
    "id_image": "KAWAII120918159",
    "count_view": 0
  },
  {
    "link_thumb": "https://live.staticflickr.com/65535/49726898053_d8f0c3bca1_n.jpg",
    "id_album": "742877173",
    "description": "KAWAII020420194510148",
    "title": "KAWAII020420194510148",
    "link_img": "https://live.staticflickr.com/65535/49726898053_a28a9c24da_o.jpg",
    "id_image": "KAWAII020420194510148",
    "count_view": 0
  },
  {
    "link_thumb": "https://live.staticflickr.com/65535/49742400133_346686fa5e_n.jpg",
    "id_album": "1396902986",
    "description": "KAWAII060420214913225",
    "title": "KAWAII060420214913225",
    "link_img": "https://live.staticflickr.com/65535/49742400133_99a88585b1_o.jpg",
    "id_image": "KAWAII060420214913225",
    "count_view": 0
  },
  {
    "link_thumb": "https://live.staticflickr.com/65535/49742934526_c63d1f7c1c_n.jpg",
    "id_album": "-1473448477",
    "description": "KAWAII060420214915112",
    "title": "KAWAII060420214915112",
    "link_img": "https://live.staticflickr.com/65535/49742934526_e387f14521_o.jpg",
    "id_image": "KAWAII060420214915112",
    "count_view": 0
  },
  {
    "link_thumb": "https://live.staticflickr.com/65535/49548199453_66d102491a_n.jpg",
    "id_album": "-422187261",
    "description": "KAWAII1702202237378",
    "title": "KAWAII1702202237378",
    "link_img": "https://live.staticflickr.com/65535/49548199453_ff152d56a3_o.jpg",
    "id_image": "KAWAII1702202237378",
    "count_view": 0
  },
  {
    "link_thumb": "https://live.staticflickr.com/65535/49742943546_140855094f_n.jpg",
    "id_album": "-1779286820",
    "description": "KAWAII060420214913190",
    "title": "KAWAII060420214913190",
    "link_img": "https://live.staticflickr.com/65535/49742943546_0b980a0a42_o.jpg",
    "id_image": "KAWAII060420214913190",
    "count_view": 0
  },
  {
    "link_thumb": "https://live.staticflickr.com/65535/49592954677_18103c624d_n.jpg",
    "id_album": "-1741487325",
    "description": "KAWAII270220235170",
    "title": "KAWAII270220235170",
    "link_img": "https://live.staticflickr.com/65535/49592954677_c4b8f4783a_o.jpg",
    "id_image": "KAWAII270220235170",
    "count_view": 0
  },
  {
    "link_thumb": "https://live.staticflickr.com/65535/49623096527_6a91efda4c_n.jpg",
    "id_album": "-316663319",
    "description": "KAWAII0503202021220",
    "title": "KAWAII0503202021220",
    "link_img": "https://live.staticflickr.com/65535/49623096527_6dbf6469bf_o.jpg",
    "id_image": "KAWAII0503202021220",
    "count_view": 0
  },
  {
    "link_thumb": "https://live.staticflickr.com/65535/49742949391_a17e6cf09d_n.jpg",
    "id_album": "1396902986",
    "description": "KAWAII06042021491579",
    "title": "KAWAII06042021491579",
    "link_img": "https://live.staticflickr.com/65535/49742949391_50884158ac_o.jpg",
    "id_image": "KAWAII06042021491579",
    "count_view": 0
  },
  {
    "link_thumb": "https://live.staticflickr.com/65535/49622284898_9e965641df_n.jpg",
    "id_album": "1396902986",
    "description": "KAWAII0503202021155",
    "title": "KAWAII0503202021155",
    "link_img": "https://live.staticflickr.com/65535/49622284898_19d82e608c_o.jpg",
    "id_image": "KAWAII0503202021155",
    "count_view": 0
  },
  {
    "link_thumb": "https://live.staticflickr.com/65535/49693576363_687b529949_n.jpg",
    "id_album": "1201366373",
    "description": "KAWAII1709181",
    "title": "KAWAII1709181",
    "link_img": "https://live.staticflickr.com/65535/49693576363_0e1a57e2ba_o.jpg",
    "id_image": "KAWAII1709181",
    "count_view": 0
  },
  {
    "link_thumb": "https://live.staticflickr.com/65535/49727744267_0183ce4807_n.jpg",
    "id_album": "-1497779911",
    "description": "KAWAII020420194508164",
    "title": "KAWAII020420194508164",
    "link_img": "https://live.staticflickr.com/65535/49727744267_fe042c0027_o.jpg",
    "id_image": "KAWAII020420194508164",
    "count_view": 0
  },
  {
    "link_thumb": "https://live.staticflickr.com/65535/49622831141_40b5253569_n.jpg",
    "id_album": "-1694302085",
    "description": "KAWAII050320202130",
    "title": "KAWAII050320202130",
    "link_img": "https://live.staticflickr.com/65535/49622831141_39b6005f93_o.jpg",
    "id_image": "KAWAII050320202130",
    "count_view": 0
  },
  {
    "link_thumb": "https://live.staticflickr.com/65535/49742952006_e9716ab44a_n.jpg",
    "id_album": "-1862561193",
    "description": "KAWAII0604202149153",
    "title": "KAWAII0604202149153",
    "link_img": "https://live.staticflickr.com/65535/49742952006_73b3e51801_o.jpg",
    "id_image": "KAWAII0604202149153",
    "count_view": 0
  },
  {
    "link_thumb": "https://live.staticflickr.com/65535/49726926883_0fd5102fc0_n.jpg",
    "id_album": "1563362783",
    "description": "KAWAII1702202236280",
    "title": "KAWAII1702202236280",
    "link_img": "https://live.staticflickr.com/65535/49726926883_5f89a6c30c_o.jpg",
    "id_image": "KAWAII1702202236280",
    "count_view": 0
  },
  {
    "link_thumb": "https://live.staticflickr.com/65535/49742950846_26970047b4_n.jpg",
    "id_album": "-1862561193",
    "description": "KAWAII060420214914236",
    "title": "KAWAII060420214914236",
    "link_img": "https://live.staticflickr.com/65535/49742950846_f89017c778_o.jpg",
    "id_image": "KAWAII060420214914236",
    "count_view": 0
  },
  {
    "link_thumb": "https://live.staticflickr.com/65535/49726922003_09f9b4733a_n.jpg",
    "id_album": "-1862561193",
    "description": "KAWAII020420194511181",
    "title": "KAWAII020420194511181",
    "link_img": "https://live.staticflickr.com/65535/49726922003_90a28cea06_o.jpg",
    "id_image": "KAWAII020420194511181",
    "count_view": 0
  },
  {
    "link_thumb": "https://live.staticflickr.com/65535/49693681333_6abeaa8d64_n.jpg",
    "id_album": "-1862561193",
    "description": "KAWAII24032022050164",
    "title": "KAWAII24032022050164",
    "link_img": "https://live.staticflickr.com/65535/49693681333_5a06cfd631_o.jpg",
    "id_image": "KAWAII24032022050164",
    "count_view": 0
  },
  {
    "link_thumb": "https://live.staticflickr.com/65535/49727442071_a7c0d8a3f0_n.jpg",
    "id_album": "742877173",
    "description": "KAWAII020420194508171",
    "title": "KAWAII020420194508171",
    "link_img": "https://live.staticflickr.com/65535/49727442071_7a61685d45_o.jpg",
    "id_image": "KAWAII020420194508171",
    "count_view": 0
  },
  {
    "link_thumb": "https://live.staticflickr.com/65535/49548674331_ec9a153fe8_n.jpg",
    "id_album": "-422187261",
    "description": "KAWAII1702202236260",
    "title": "KAWAII1702202236260",
    "link_img": "https://live.staticflickr.com/65535/49548674331_014171d2dd_o.jpg",
    "id_image": "KAWAII1702202236260",
    "count_view": 0
  },
  {
    "link_thumb": "https://live.staticflickr.com/65535/49742918556_c9fa56f0ed_n.jpg",
    "id_album": "-128218148",
    "description": "KAWAII060420214912176",
    "title": "KAWAII060420214912176",
    "link_img": "https://live.staticflickr.com/65535/49742918556_2484ceeac6_o.jpg",
    "id_image": "KAWAII060420214912176",
    "count_view": 0
  },
  {
    "link_thumb": "https://live.staticflickr.com/65535/49693532508_04ee857034_n.jpg",
    "id_album": "-643980979",
    "description": "KAWAII050320202148",
    "title": "KAWAII050320202148",
    "link_img": "https://live.staticflickr.com/65535/49693532508_b26d148096_o.jpg",
    "id_image": "KAWAII050320202148",
    "count_view": 0
  },
  {
    "link_thumb": "https://live.staticflickr.com/65535/49552757222_109c403521_n.jpg",
    "id_album": "-1694302085",
    "description": "KAWAII12091825180220205922",
    "title": "KAWAII12091825180220205922",
    "link_img": "https://live.staticflickr.com/65535/49552757222_da8487c6aa_o.jpg",
    "id_image": "KAWAII12091825180220205922",
    "count_view": 0
  },
  {
    "link_thumb": "https://live.staticflickr.com/65535/49726903528_9e8c3e7d87_n.jpg",
    "id_album": "742877173",
    "description": "KAWAII020420194513147",
    "title": "KAWAII020420194513147",
    "link_img": "https://live.staticflickr.com/65535/49726903528_b8cbc37f56_o.jpg",
    "id_image": "KAWAII020420194513147",
    "count_view": 0
  },
  {
    "link_thumb": "https://live.staticflickr.com/65535/49548110983_1e71a4b2c7_n.jpg",
    "id_album": "-1432180061",
    "description": "KAWAII12091854",
    "title": "KAWAII12091854",
    "link_img": "https://live.staticflickr.com/65535/49548110983_320ca9e4dc_o.jpg",
    "id_image": "KAWAII12091854",
    "count_view": 0
  },
  {
    "link_thumb": "https://live.staticflickr.com/65535/49622330993_59746efec9_n.jpg",
    "id_album": "-406350429",
    "description": "KAWAII0503202021245",
    "title": "KAWAII0503202021245",
    "link_img": "https://live.staticflickr.com/65535/49622330993_a2d208c7c7_o.jpg",
    "id_image": "KAWAII0503202021245",
    "count_view": 0
  },
  {
    "link_thumb": "https://live.staticflickr.com/65535/49727751687_7a731233df_n.jpg",
    "id_album": "-316663319",
    "description": "KAWAII020420194510235",
    "title": "KAWAII020420194510235",
    "link_img": "https://live.staticflickr.com/65535/49727751687_d43218505f_o.jpg",
    "id_image": "KAWAII020420194510235",
    "count_view": 0
  },
  {
    "link_thumb": "https://live.staticflickr.com/65535/49552758482_006db6854e_n.jpg",
    "id_album": "-1694302085",
    "description": "KAWAII12091825180220205932",
    "title": "KAWAII12091825180220205932",
    "link_img": "https://live.staticflickr.com/65535/49552758482_2bf98d8823_o.jpg",
    "id_image": "KAWAII12091825180220205932",
    "count_view": 0
  },
  {
    "link_thumb": "https://live.staticflickr.com/65535/49710822451_3c883385b1_n.jpg",
    "id_album": "-1599896063",
    "description": "LITTLEMONK29032012063923",
    "title": "LITTLEMONK29032012063923",
    "link_img": "https://live.staticflickr.com/65535/49710822451_c8ba1ea2fe_o.jpg",
    "id_image": "LITTLEMONK29032012063923",
    "count_view": 0
  },
  {
    "link_thumb": "https://live.staticflickr.com/65535/49694366052_be9e798b27_n.jpg",
    "id_album": "1699819648",
    "description": "KAWAII0503202021154",
    "title": "KAWAII0503202021154",
    "link_img": "https://live.staticflickr.com/65535/49694366052_ddf3f9b608_o.jpg",
    "id_image": "KAWAII0503202021154",
    "count_view": 0
  },
  {
    "link_thumb": "https://live.staticflickr.com/65535/49727743857_0937fd0b71_n.jpg",
    "id_album": "-1741487325",
    "description": "KAWAII020420194513254",
    "title": "KAWAII020420194513254",
    "link_img": "https://live.staticflickr.com/65535/49727743857_36fd5a4ba1_o.jpg",
    "id_image": "KAWAII020420194513254",
    "count_view": 0
  },
  {
    "link_thumb": "https://live.staticflickr.com/65535/49694120256_28cdfc4b93_n.jpg",
    "id_album": "-643980979",
    "description": "KAWAII1709186",
    "title": "KAWAII1709186",
    "link_img": "https://live.staticflickr.com/65535/49694120256_9b5ee318c4_o.jpg",
    "id_image": "KAWAII1709186",
    "count_view": 0
  },
  {
    "link_thumb": "https://live.staticflickr.com/65535/49694218436_5e85cee4f6_n.jpg",
    "id_album": "-643980979",
    "description": "KAWAII24032022050213",
    "title": "KAWAII24032022050213",
    "link_img": "https://live.staticflickr.com/65535/49694218436_ac6a12492e_o.jpg",
    "id_image": "KAWAII24032022050213",
    "count_view": 0
  },
  {
    "link_thumb": "https://live.staticflickr.com/65535/49548877017_2c93180579_n.jpg",
    "id_album": "-1432180061",
    "description": "KAWAII1702202235140",
    "title": "KAWAII1702202235140",
    "link_img": "https://live.staticflickr.com/65535/49548877017_93a4e04f3f_o.jpg",
    "id_image": "KAWAII1702202235140",
    "count_view": 0
  },
  {
    "link_thumb": "https://live.staticflickr.com/65535/49622833316_5b2138bac9_n.jpg",
    "id_album": "-316663319",
    "description": "KAWAII0503202021324",
    "title": "KAWAII0503202021324",
    "link_img": "https://live.staticflickr.com/65535/49622833316_cdb05819ef_o.jpg",
    "id_image": "KAWAII0503202021324",
    "count_view": 0
  },
  {
    "link_thumb": "https://live.staticflickr.com/65535/49548727196_7af34f5e15_n.jpg",
    "id_album": "-1741487325",
    "description": "KAWAII1702202238481",
    "title": "KAWAII1702202238481",
    "link_img": "https://live.staticflickr.com/65535/49548727196_c37f3180b8_o.jpg",
    "id_image": "KAWAII1702202238481",
    "count_view": 0
  },
  {
    "link_thumb": "https://live.staticflickr.com/65535/49742949936_19f0003080_n.jpg",
    "id_album": "1396902986",
    "description": "KAWAII0604202149184",
    "title": "KAWAII0604202149184",
    "link_img": "https://live.staticflickr.com/65535/49742949936_4d7d1605c3_o.jpg",
    "id_image": "KAWAII0604202149184",
    "count_view": 0
  },
  {
    "link_thumb": "https://live.staticflickr.com/65535/49727750827_5544a6d51e_n.jpg",
    "id_album": "-316663319",
    "description": "KAWAII02042019450928",
    "title": "KAWAII02042019450928",
    "link_img": "https://live.staticflickr.com/65535/49727750827_b0a265e665_o.jpg",
    "id_image": "KAWAII02042019450928",
    "count_view": 0
  },
  {
    "link_thumb": "https://live.staticflickr.com/65535/49548661441_14782e41aa_n.jpg",
    "id_album": "1396902986",
    "description": "KAWAII1702202235195",
    "title": "KAWAII1702202235195",
    "link_img": "https://live.staticflickr.com/65535/49548661441_a2262afb5f_o.jpg",
    "id_image": "KAWAII1702202235195",
    "count_view": 0
  },
  {
    "link_thumb": "https://live.staticflickr.com/65535/49552023193_1168d96f1a_n.jpg",
    "id_album": "-1694302085",
    "description": "KAWAII12091825180220205933",
    "title": "KAWAII12091825180220205933",
    "link_img": "https://live.staticflickr.com/65535/49552023193_984f322a4e_o.jpg",
    "id_image": "KAWAII12091825180220205933",
    "count_view": 0
  },
  {
    "link_thumb": "https://live.staticflickr.com/65535/49743275962_48012dd7d3_n.jpg",
    "id_album": "-1862561193",
    "description": "KAWAII060420214917269",
    "title": "KAWAII060420214917269",
    "link_img": "https://live.staticflickr.com/65535/49743275962_ff52811d6c_o.jpg",
    "id_image": "KAWAII060420214917269",
    "count_view": 0
  },
  {
    "link_thumb": "https://live.staticflickr.com/65535/49693674833_7e8afd7a1d_n.jpg",
    "id_album": "-643980979",
    "description": "KAWAII24032022050132",
    "title": "KAWAII24032022050132",
    "link_img": "https://live.staticflickr.com/65535/49693674833_1a9ea677c4_o.jpg",
    "id_image": "KAWAII24032022050132",
    "count_view": 0
  },
  {
    "link_thumb": "https://live.staticflickr.com/65535/49548749751_e3fb6bdb31_n.jpg",
    "id_album": "-1099943053",
    "description": "KAWAII1702202239570",
    "title": "KAWAII1702202239570",
    "link_img": "https://live.staticflickr.com/65535/49548749751_d4c5b2a160_o.jpg",
    "id_image": "KAWAII1702202239570",
    "count_view": 0
  },
  {
    "link_thumb": "https://live.staticflickr.com/65535/49622842546_d246727f5d_n.jpg",
    "id_album": "-406350429",
    "description": "KAWAII0503202021129",
    "title": "KAWAII0503202021129",
    "link_img": "https://live.staticflickr.com/65535/49622842546_1fdb3f8ea0_o.jpg",
    "id_image": "KAWAII0503202021129",
    "count_view": 0
  },
  {
    "link_thumb": "https://live.staticflickr.com/65535/49592713431_ed70017969_n.jpg",
    "id_album": "-316663319",
    "description": "KAWAII270220235111",
    "title": "KAWAII270220235111",
    "link_img": "https://live.staticflickr.com/65535/49592713431_ce41f73790_o.jpg",
    "id_image": "KAWAII270220235111",
    "count_view": 0
  },
  {
    "link_thumb": "https://live.staticflickr.com/65535/49548656586_3eb4f55992_n.jpg",
    "id_album": "-316663319",
    "description": "KAWAII1702202235172",
    "title": "KAWAII1702202235172",
    "link_img": "https://live.staticflickr.com/65535/49548656586_c3e7fa161d_o.jpg",
    "id_image": "KAWAII1702202235172",
    "count_view": 0
  },
  {
    "link_thumb": "https://live.staticflickr.com/65535/49592731401_a959ea4ae4_n.jpg",
    "id_album": "949200594",
    "description": "KAWAII2702202351141",
    "title": "KAWAII2702202351141",
    "link_img": "https://live.staticflickr.com/65535/49592731401_18a15bc207_o.jpg",
    "id_image": "KAWAII2702202351141",
    "count_view": 0
  },
  {
    "link_thumb": "https://live.staticflickr.com/65535/49727738967_e4973d12f0_n.jpg",
    "id_album": "-1694302085",
    "description": "KAWAII020420194508185",
    "title": "KAWAII020420194508185",
    "link_img": "https://live.staticflickr.com/65535/49727738967_80ec5f38eb_o.jpg",
    "id_image": "KAWAII020420194508185",
    "count_view": 0
  },
  {
    "link_thumb": "https://live.staticflickr.com/65535/49693578608_18b1ed3562_n.jpg",
    "id_album": "-643980979",
    "description": "KAWAII2702202351160",
    "title": "KAWAII2702202351160",
    "link_img": "https://live.staticflickr.com/65535/49693578608_a956a23dc3_o.jpg",
    "id_image": "KAWAII2702202351160",
    "count_view": 0
  },
  {
    "link_thumb": "https://live.staticflickr.com/65535/49694429272_8f48347926_n.jpg",
    "id_album": "1563362783",
    "description": "KAWAII1209182518022020594",
    "title": "KAWAII1209182518022020594",
    "link_img": "https://live.staticflickr.com/65535/49694429272_744e12888f_o.jpg",
    "id_image": "KAWAII1209182518022020594",
    "count_view": 0
  },
  {
    "link_thumb": "https://live.staticflickr.com/65535/49727781682_2040643dc2_n.jpg",
    "id_album": "-1862561193",
    "description": "KAWAII02042019450961",
    "title": "KAWAII02042019450961",
    "link_img": "https://live.staticflickr.com/65535/49727781682_3cb61d2e09_o.jpg",
    "id_image": "KAWAII02042019450961",
    "count_view": 0
  },
  {
    "link_thumb": "https://live.staticflickr.com/65535/49694409882_b6fa30919f_n.jpg",
    "id_album": "-643980979",
    "description": "KAWAII170220223472",
    "title": "KAWAII170220223472",
    "link_img": "https://live.staticflickr.com/65535/49694409882_5c3cc8c8d5_o.jpg",
    "id_image": "KAWAII170220223472",
    "count_view": 0
  },
  {
    "link_thumb": "https://live.staticflickr.com/65535/49548998347_2a9f9095e6_n.jpg",
    "id_album": "-316663319",
    "description": "KAWAII17091846",
    "title": "KAWAII17091846",
    "link_img": "https://live.staticflickr.com/65535/49548998347_1838f0e556_o.jpg",
    "id_image": "KAWAII17091846",
    "count_view": 0
  },
  {
    "link_thumb": "https://live.staticflickr.com/65535/49743240552_7cd755625e_n.jpg",
    "id_album": "-1432180061",
    "description": "KAWAII060420214914122",
    "title": "KAWAII060420214914122",
    "link_img": "https://live.staticflickr.com/65535/49743240552_875d81d504_o.jpg",
    "id_image": "KAWAII060420214914122",
    "count_view": 0
  },
  {
    "link_thumb": "https://live.staticflickr.com/65535/49694126256_4dc9484853_n.jpg",
    "id_album": "-1431786825",
    "description": "KAWAII270220235197",
    "title": "KAWAII270220235197",
    "link_img": "https://live.staticflickr.com/65535/49694126256_a9edd582f5_o.jpg",
    "id_image": "KAWAII270220235197",
    "count_view": 0
  },
  {
    "link_thumb": "https://live.staticflickr.com/65535/49693548158_722aeebe32_n.jpg",
    "id_album": "1201366373",
    "description": "KAWAII120918215",
    "title": "KAWAII120918215",
    "link_img": "https://live.staticflickr.com/65535/49693548158_be2525a8f3_o.jpg",
    "id_image": "KAWAII120918215",
    "count_view": 0
  },
  {
    "link_thumb": "https://live.staticflickr.com/65535/49727740802_83a4165e0b_n.jpg",
    "id_album": "-1694302085",
    "description": "KAWAII0503202021319",
    "title": "KAWAII0503202021319",
    "link_img": "https://live.staticflickr.com/65535/49727740802_f6b9d9ccb8_o.jpg",
    "id_image": "KAWAII0503202021319",
    "count_view": 0
  },
  {
    "link_thumb": "https://live.staticflickr.com/65535/49548648796_cfeb122be0_n.jpg",
    "id_album": "-1741487325",
    "description": "KAWAII1702202235134",
    "title": "KAWAII1702202235134",
    "link_img": "https://live.staticflickr.com/65535/49548648796_306a19d7d5_o.jpg",
    "id_image": "KAWAII1702202235134",
    "count_view": 0
  },
  {
    "link_thumb": "https://live.staticflickr.com/65535/49548107723_a6803ce39d_n.jpg",
    "id_album": "-422187261",
    "description": "KAWAII12091839",
    "title": "KAWAII12091839",
    "link_img": "https://live.staticflickr.com/65535/49548107723_3fc0b3dfa7_o.jpg",
    "id_image": "KAWAII12091839",
    "count_view": 0
  },
  {
    "link_thumb": "https://live.staticflickr.com/65535/49726877388_a4e361fe15_n.jpg",
    "id_album": "-1694302085",
    "description": "KAWAII020420194508186",
    "title": "KAWAII020420194508186",
    "link_img": "https://live.staticflickr.com/65535/49726877388_5fefe1e036_o.jpg",
    "id_image": "KAWAII020420194508186",
    "count_view": 0
  },
  {
    "link_thumb": "https://live.staticflickr.com/65535/49592207698_9b9319dfcf_n.jpg",
    "id_album": "-1741487325",
    "description": "KAWAII1702202238422",
    "title": "KAWAII1702202238422",
    "link_img": "https://live.staticflickr.com/65535/49592207698_6744df8991_o.jpg",
    "id_image": "KAWAII1702202238422",
    "count_view": 0
  },
  {
    "link_thumb": "https://live.staticflickr.com/65535/49694393827_79181ed563_n.jpg",
    "id_album": "-643980979",
    "description": "KAWAII120918210",
    "title": "KAWAII120918210",
    "link_img": "https://live.staticflickr.com/65535/49694393827_2b14e6a69c_o.jpg",
    "id_image": "KAWAII120918210",
    "count_view": 0
  },
  {
    "link_thumb": "https://live.staticflickr.com/65535/49623093352_35b1d184b3_n.jpg",
    "id_album": "-316663319",
    "description": "KAWAII0503202021191",
    "title": "KAWAII0503202021191",
    "link_img": "https://live.staticflickr.com/65535/49623093352_c23b7e6dbd_o.jpg",
    "id_image": "KAWAII0503202021191",
    "count_view": 0
  },
  {
    "link_thumb": "https://live.staticflickr.com/65535/49694115596_8700cc913c_n.jpg",
    "id_album": "-643980979",
    "description": "KAWAII170220234613",
    "title": "KAWAII170220234613",
    "link_img": "https://live.staticflickr.com/65535/49694115596_4e60b7e973_o.jpg",
    "id_image": "KAWAII170220234613",
    "count_view": 0
  },
  {
    "link_thumb": "https://live.staticflickr.com/65535/49548862102_8b2351b5b6_n.jpg",
    "id_album": "-1099943053",
    "description": "KAWAII170220223442",
    "title": "KAWAII170220223442",
    "link_img": "https://live.staticflickr.com/65535/49548862102_248811aa32_o.jpg",
    "id_image": "KAWAII170220223442",
    "count_view": 0
  },
  {
    "link_thumb": "https://live.staticflickr.com/65535/49727761562_d26642ae62_n.jpg",
    "id_album": "742877173",
    "description": "KAWAII020420194510252",
    "title": "KAWAII020420194510252",
    "link_img": "https://live.staticflickr.com/65535/49727761562_19abf3a209_o.jpg",
    "id_image": "KAWAII020420194510252",
    "count_view": 0
  },
  {
    "link_thumb": "https://live.staticflickr.com/65535/49694090886_f5a8983a5b_n.jpg",
    "id_album": "1201366373",
    "description": "KAWAII120918207",
    "title": "KAWAII120918207",
    "link_img": "https://live.staticflickr.com/65535/49694090886_f2d6594686_o.jpg",
    "id_image": "KAWAII120918207",
    "count_view": 0
  },
  {
    "link_thumb": "https://live.staticflickr.com/65535/49726924648_f134b6b07e_n.jpg",
    "id_album": "-1862561193",
    "description": "KAWAII020420194513163",
    "title": "KAWAII020420194513163",
    "link_img": "https://live.staticflickr.com/65535/49726924648_a98d7f9529_o.jpg",
    "id_image": "KAWAII020420194513163",
    "count_view": 0
  },
  {
    "link_thumb": "https://live.staticflickr.com/65535/49743263517_83166ec652_n.jpg",
    "id_album": "-1473448477",
    "description": "KAWAII06042021491574",
    "title": "KAWAII06042021491574",
    "link_img": "https://live.staticflickr.com/65535/49743263517_0ddfb92706_o.jpg",
    "id_image": "KAWAII06042021491574",
    "count_view": 0
  },
  {
    "link_thumb": "https://live.staticflickr.com/65535/49622816161_98892bc61c_n.jpg",
    "id_album": "-316663319",
    "description": "KAWAII0503202021127",
    "title": "KAWAII0503202021127",
    "link_img": "https://live.staticflickr.com/65535/49622816161_fb4f1c7349_o.jpg",
    "id_image": "KAWAII0503202021127",
    "count_view": 0
  },
  {
    "link_thumb": "https://live.staticflickr.com/65535/49694396762_e664b34e90_n.jpg",
    "id_album": "1201366373",
    "description": "KAWAII120918244",
    "title": "KAWAII120918244",
    "link_img": "https://live.staticflickr.com/65535/49694396762_f82715b938_o.jpg",
    "id_image": "KAWAII120918244",
    "count_view": 0
  },
  {
    "link_thumb": "https://live.staticflickr.com/65535/49694424447_8f64755220_n.jpg",
    "id_album": "-643980979",
    "description": "KAWAII270220235131",
    "title": "KAWAII270220235131",
    "link_img": "https://live.staticflickr.com/65535/49694424447_a654decb56_o.jpg",
    "id_image": "KAWAII270220235131",
    "count_view": 0
  }
]